{
	"id": "00661fde02b8062d3445076937154239",
	"_format": "hh-sol-build-info-1",
	"solcVersion": "0.8.7",
	"solcLongVersion": "0.8.7+commit.e28d00a7",
	"input": {
		"language": "Solidity",
		"sources": {
			"task1.sol": {
				"content": "pragma solidity ^0.8.0;\n\ncontract multiplyC{\n\n}"
			}
		},
		"settings": {
			"optimizer": {
				"enabled": false,
				"runs": 200
			},
			"outputSelection": {
				"*": {
					"": [
						"ast"
					],
					"*": [
						"abi",
						"metadata",
						"devdoc",
						"userdoc",
						"storageLayout",
						"evm.legacyAssembly",
						"evm.bytecode",
						"evm.deployedBytecode",
						"evm.methodIdentifiers",
						"evm.gasEstimates",
						"evm.assembly"
					]
				}
			}
		}
	},
	"output": {
		"contracts": {
			"task1.sol": {
				"multiplyC": {
					"abi": [],
					"devdoc": {
						"kind": "dev",
						"methods": {},
						"version": 1
					},
					"evm": {
						"assembly": "    /* \"task1.sol\":25:47  contract multiplyC{... */\n  mstore(0x40, 0x80)\n  callvalue\n  dup1\n  iszero\n  tag_1\n  jumpi\n  0x00\n  dup1\n  revert\ntag_1:\n  pop\n  dataSize(sub_0)\n  dup1\n  dataOffset(sub_0)\n  0x00\n  codecopy\n  0x00\n  return\nstop\n\nsub_0: assembly {\n        /* \"task1.sol\":25:47  contract multiplyC{... */\n      mstore(0x40, 0x80)\n      0x00\n      dup1\n      revert\n\n    auxdata: 0xa2646970667358221220e1d6547869d4b4f5ffda01d332a0587a049a351609fd7987e82427a98b03ed0464736f6c63430008070033\n}\n",
						"bytecode": {
							"functionDebugData": {},
							"generatedSources": [],
							"linkReferences": {},
							"object": "6080604052348015600f57600080fd5b50603f80601d6000396000f3fe6080604052600080fdfea2646970667358221220e1d6547869d4b4f5ffda01d332a0587a049a351609fd7987e82427a98b03ed0464736f6c63430008070033",
							"opcodes": "PUSH1 0x80 PUSH1 0x40 MSTORE CALLVALUE DUP1 ISZERO PUSH1 0xF JUMPI PUSH1 0x0 DUP1 REVERT JUMPDEST POP PUSH1 0x3F DUP1 PUSH1 0x1D PUSH1 0x0 CODECOPY PUSH1 0x0 RETURN INVALID PUSH1 0x80 PUSH1 0x40 MSTORE PUSH1 0x0 DUP1 REVERT INVALID LOG2 PUSH5 0x6970667358 0x22 SLT KECCAK256 0xE1 0xD6 SLOAD PUSH25 0x69D4B4F5FFDA01D332A0587A049A351609FD7987E82427A98B SUB 0xED DIV PUSH5 0x736F6C6343 STOP ADDMOD SMOD STOP CALLER ",
							"sourceMap": "25:22:0:-:0;;;;;;;;;;;;;;;;;;;"
						},
						"deployedBytecode": {
							"functionDebugData": {},
							"generatedSources": [],
							"immutableReferences": {},
							"linkReferences": {},
							"object": "6080604052600080fdfea2646970667358221220e1d6547869d4b4f5ffda01d332a0587a049a351609fd7987e82427a98b03ed0464736f6c63430008070033",
							"opcodes": "PUSH1 0x80 PUSH1 0x40 MSTORE PUSH1 0x0 DUP1 REVERT INVALID LOG2 PUSH5 0x6970667358 0x22 SLT KECCAK256 0xE1 0xD6 SLOAD PUSH25 0x69D4B4F5FFDA01D332A0587A049A351609FD7987E82427A98B SUB 0xED DIV PUSH5 0x736F6C6343 STOP ADDMOD SMOD STOP CALLER ",
							"sourceMap": "25:22:0:-:0;;;;;"
						},
						"gasEstimates": {
							"creation": {
								"codeDepositCost": "12600",
								"executionCost": "66",
								"totalCost": "12666"
							}
						},
						"legacyAssembly": {
							".code": [
								{
									"begin": 25,
									"end": 47,
									"name": "PUSH",
									"source": 0,
									"value": "80"
								},
								{
									"begin": 25,
									"end": 47,
									"name": "PUSH",
									"source": 0,
									"value": "40"
								},
								{
									"begin": 25,
									"end": 47,
									"name": "MSTORE",
									"source": 0
								},
								{
									"begin": 25,
									"end": 47,
									"name": "CALLVALUE",
									"source": 0
								},
								{
									"begin": 25,
									"end": 47,
									"name": "DUP1",
									"source": 0
								},
								{
									"begin": 25,
									"end": 47,
									"name": "ISZERO",
									"source": 0
								},
								{
									"begin": 25,
									"end": 47,
									"name": "PUSH [tag]",
									"source": 0,
									"value": "1"
								},
								{
									"begin": 25,
									"end": 47,
									"name": "JUMPI",
									"source": 0
								},
								{
									"begin": 25,
									"end": 47,
									"name": "PUSH",
									"source": 0,
									"value": "0"
								},
								{
									"begin": 25,
									"end": 47,
									"name": "DUP1",
									"source": 0
								},
								{
									"begin": 25,
									"end": 47,
									"name": "REVERT",
									"source": 0
								},
								{
									"begin": 25,
									"end": 47,
									"name": "tag",
									"source": 0,
									"value": "1"
								},
								{
									"begin": 25,
									"end": 47,
									"name": "JUMPDEST",
									"source": 0
								},
								{
									"begin": 25,
									"end": 47,
									"name": "POP",
									"source": 0
								},
								{
									"begin": 25,
									"end": 47,
									"name": "PUSH #[$]",
									"source": 0,
									"value": "0000000000000000000000000000000000000000000000000000000000000000"
								},
								{
									"begin": 25,
									"end": 47,
									"name": "DUP1",
									"source": 0
								},
								{
									"begin": 25,
									"end": 47,
									"name": "PUSH [$]",
									"source": 0,
									"value": "0000000000000000000000000000000000000000000000000000000000000000"
								},
								{
									"begin": 25,
									"end": 47,
									"name": "PUSH",
									"source": 0,
									"value": "0"
								},
								{
									"begin": 25,
									"end": 47,
									"name": "CODECOPY",
									"source": 0
								},
								{
									"begin": 25,
									"end": 47,
									"name": "PUSH",
									"source": 0,
									"value": "0"
								},
								{
									"begin": 25,
									"end": 47,
									"name": "RETURN",
									"source": 0
								}
							],
							".data": {
								"0": {
									".auxdata": "a2646970667358221220e1d6547869d4b4f5ffda01d332a0587a049a351609fd7987e82427a98b03ed0464736f6c63430008070033",
									".code": [
										{
											"begin": 25,
											"end": 47,
											"name": "PUSH",
											"source": 0,
											"value": "80"
										},
										{
											"begin": 25,
											"end": 47,
											"name": "PUSH",
											"source": 0,
											"value": "40"
										},
										{
											"begin": 25,
											"end": 47,
											"name": "MSTORE",
											"source": 0
										},
										{
											"begin": 25,
											"end": 47,
											"name": "PUSH",
											"source": 0,
											"value": "0"
										},
										{
											"begin": 25,
											"end": 47,
											"name": "DUP1",
											"source": 0
										},
										{
											"begin": 25,
											"end": 47,
											"name": "REVERT",
											"source": 0
										}
									]
								}
							}
						},
						"methodIdentifiers": {}
					},
					"metadata": "{\"compiler\":{\"version\":\"0.8.7+commit.e28d00a7\"},\"language\":\"Solidity\",\"output\":{\"abi\":[],\"devdoc\":{\"kind\":\"dev\",\"methods\":{},\"version\":1},\"userdoc\":{\"kind\":\"user\",\"methods\":{},\"version\":1}},\"settings\":{\"compilationTarget\":{\"task1.sol\":\"multiplyC\"},\"evmVersion\":\"london\",\"libraries\":{},\"metadata\":{\"bytecodeHash\":\"ipfs\"},\"optimizer\":{\"enabled\":false,\"runs\":200},\"remappings\":[]},\"sources\":{\"task1.sol\":{\"keccak256\":\"0x41b0210612387df363432a932c039d3fe7972ee0654e12465f49be56e35f6587\",\"urls\":[\"bzz-raw://495745b2eedc1b8afaed684186dbb1cf3adfcb19130a18bd2d99d2bb4762005c\",\"dweb:/ipfs/QmeKih3uFHufcQdSNW6vdhYd7J8weAEiciFwtwCCBZzxpW\"]}},\"version\":1}",
					"storageLayout": {
						"storage": [],
						"types": null
					},
					"userdoc": {
						"kind": "user",
						"methods": {},
						"version": 1
					}
				}
			}
		},
		"errors": [
			{
				"component": "general",
				"errorCode": "1878",
				"formattedMessage": "Warning: SPDX license identifier not provided in source file. Before publishing, consider adding a comment containing \"SPDX-License-Identifier: <SPDX-License>\" to each source file. Use \"SPDX-License-Identifier: UNLICENSED\" for non-open-source code. Please see https://spdx.org for more information.\n--> task1.sol\n\n",
				"message": "SPDX license identifier not provided in source file. Before publishing, consider adding a comment containing \"SPDX-License-Identifier: <SPDX-License>\" to each source file. Use \"SPDX-License-Identifier: UNLICENSED\" for non-open-source code. Please see https://spdx.org for more information.",
				"severity": "warning",
				"sourceLocation": {
					"end": -1,
					"file": "task1.sol",
					"start": -1
				},
				"type": "Warning"
			}
		],
		"sources": {
			"task1.sol": {
				"ast": {
					"absolutePath": "task1.sol",
					"exportedSymbols": {
						"multiplyC": [
							2
						]
					},
					"id": 3,
					"nodeType": "SourceUnit",
					"nodes": [
						{
							"id": 1,
							"literals": [
								"solidity",
								"^",
								"0.8",
								".0"
							],
							"nodeType": "PragmaDirective",
							"src": "0:23:0"
						},
						{
							"abstract": false,
							"baseContracts": [],
							"contractDependencies": [],
							"contractKind": "contract",
							"fullyImplemented": true,
							"id": 2,
							"linearizedBaseContracts": [
								2
							],
							"name": "multiplyC",
							"nameLocation": "34:9:0",
							"nodeType": "ContractDefinition",
							"nodes": [],
							"scope": 3,
							"src": "25:22:0",
							"usedErrors": []
						}
					],
					"src": "0:47:0"
				},
				"id": 0
			}
		}
	}
}