{
	"id": "0b923e6b6e9579be8035433e724d65f2",
	"_format": "hh-sol-build-info-1",
	"solcVersion": "0.8.7",
	"solcLongVersion": "0.8.7+commit.e28d00a7",
	"input": {
		"language": "Solidity",
		"sources": {
			"task8.sol": {
				"content": "pragma solidity ^0.8.0;\n\ncontract learnStruct {\n\n    struct Movies{\n        string title;\n        string director;\n        uint movieId;\n    }\n}"
			}
		},
		"settings": {
			"optimizer": {
				"enabled": false,
				"runs": 200
			},
			"outputSelection": {
				"*": {
					"": [
						"ast"
					],
					"*": [
						"abi",
						"metadata",
						"devdoc",
						"userdoc",
						"storageLayout",
						"evm.legacyAssembly",
						"evm.bytecode",
						"evm.deployedBytecode",
						"evm.methodIdentifiers",
						"evm.gasEstimates",
						"evm.assembly"
					]
				}
			}
		}
	},
	"output": {
		"contracts": {
			"task8.sol": {
				"learnStruct": {
					"abi": [],
					"devdoc": {
						"kind": "dev",
						"methods": {},
						"version": 1
					},
					"evm": {
						"assembly": "    /* \"task8.sol\":25:144  contract learnStruct {... */\n  mstore(0x40, 0x80)\n  callvalue\n  dup1\n  iszero\n  tag_1\n  jumpi\n  0x00\n  dup1\n  revert\ntag_1:\n  pop\n  dataSize(sub_0)\n  dup1\n  dataOffset(sub_0)\n  0x00\n  codecopy\n  0x00\n  return\nstop\n\nsub_0: assembly {\n        /* \"task8.sol\":25:144  contract learnStruct {... */\n      mstore(0x40, 0x80)\n      0x00\n      dup1\n      revert\n\n    auxdata: 0xa26469706673582212203a334acbbf3994e73ae833881f9af579167b03d4be58d2c2523bc611d938d4da64736f6c63430008070033\n}\n",
						"bytecode": {
							"functionDebugData": {},
							"generatedSources": [],
							"linkReferences": {},
							"object": "6080604052348015600f57600080fd5b50603f80601d6000396000f3fe6080604052600080fdfea26469706673582212203a334acbbf3994e73ae833881f9af579167b03d4be58d2c2523bc611d938d4da64736f6c63430008070033",
							"opcodes": "PUSH1 0x80 PUSH1 0x40 MSTORE CALLVALUE DUP1 ISZERO PUSH1 0xF JUMPI PUSH1 0x0 DUP1 REVERT JUMPDEST POP PUSH1 0x3F DUP1 PUSH1 0x1D PUSH1 0x0 CODECOPY PUSH1 0x0 RETURN INVALID PUSH1 0x80 PUSH1 0x40 MSTORE PUSH1 0x0 DUP1 REVERT INVALID LOG2 PUSH5 0x6970667358 0x22 SLT KECCAK256 GASPRICE CALLER 0x4A 0xCB 0xBF CODECOPY SWAP5 0xE7 GASPRICE 0xE8 CALLER DUP9 0x1F SWAP11 CREATE2 PUSH26 0x167B03D4BE58D2C2523BC611D938D4DA64736F6C634300080700 CALLER ",
							"sourceMap": "25:119:0:-:0;;;;;;;;;;;;;;;;;;;"
						},
						"deployedBytecode": {
							"functionDebugData": {},
							"generatedSources": [],
							"immutableReferences": {},
							"linkReferences": {},
							"object": "6080604052600080fdfea26469706673582212203a334acbbf3994e73ae833881f9af579167b03d4be58d2c2523bc611d938d4da64736f6c63430008070033",
							"opcodes": "PUSH1 0x80 PUSH1 0x40 MSTORE PUSH1 0x0 DUP1 REVERT INVALID LOG2 PUSH5 0x6970667358 0x22 SLT KECCAK256 GASPRICE CALLER 0x4A 0xCB 0xBF CODECOPY SWAP5 0xE7 GASPRICE 0xE8 CALLER DUP9 0x1F SWAP11 CREATE2 PUSH26 0x167B03D4BE58D2C2523BC611D938D4DA64736F6C634300080700 CALLER ",
							"sourceMap": "25:119:0:-:0;;;;;"
						},
						"gasEstimates": {
							"creation": {
								"codeDepositCost": "12600",
								"executionCost": "66",
								"totalCost": "12666"
							}
						},
						"legacyAssembly": {
							".code": [
								{
									"begin": 25,
									"end": 144,
									"name": "PUSH",
									"source": 0,
									"value": "80"
								},
								{
									"begin": 25,
									"end": 144,
									"name": "PUSH",
									"source": 0,
									"value": "40"
								},
								{
									"begin": 25,
									"end": 144,
									"name": "MSTORE",
									"source": 0
								},
								{
									"begin": 25,
									"end": 144,
									"name": "CALLVALUE",
									"source": 0
								},
								{
									"begin": 25,
									"end": 144,
									"name": "DUP1",
									"source": 0
								},
								{
									"begin": 25,
									"end": 144,
									"name": "ISZERO",
									"source": 0
								},
								{
									"begin": 25,
									"end": 144,
									"name": "PUSH [tag]",
									"source": 0,
									"value": "1"
								},
								{
									"begin": 25,
									"end": 144,
									"name": "JUMPI",
									"source": 0
								},
								{
									"begin": 25,
									"end": 144,
									"name": "PUSH",
									"source": 0,
									"value": "0"
								},
								{
									"begin": 25,
									"end": 144,
									"name": "DUP1",
									"source": 0
								},
								{
									"begin": 25,
									"end": 144,
									"name": "REVERT",
									"source": 0
								},
								{
									"begin": 25,
									"end": 144,
									"name": "tag",
									"source": 0,
									"value": "1"
								},
								{
									"begin": 25,
									"end": 144,
									"name": "JUMPDEST",
									"source": 0
								},
								{
									"begin": 25,
									"end": 144,
									"name": "POP",
									"source": 0
								},
								{
									"begin": 25,
									"end": 144,
									"name": "PUSH #[$]",
									"source": 0,
									"value": "0000000000000000000000000000000000000000000000000000000000000000"
								},
								{
									"begin": 25,
									"end": 144,
									"name": "DUP1",
									"source": 0
								},
								{
									"begin": 25,
									"end": 144,
									"name": "PUSH [$]",
									"source": 0,
									"value": "0000000000000000000000000000000000000000000000000000000000000000"
								},
								{
									"begin": 25,
									"end": 144,
									"name": "PUSH",
									"source": 0,
									"value": "0"
								},
								{
									"begin": 25,
									"end": 144,
									"name": "CODECOPY",
									"source": 0
								},
								{
									"begin": 25,
									"end": 144,
									"name": "PUSH",
									"source": 0,
									"value": "0"
								},
								{
									"begin": 25,
									"end": 144,
									"name": "RETURN",
									"source": 0
								}
							],
							".data": {
								"0": {
									".auxdata": "a26469706673582212203a334acbbf3994e73ae833881f9af579167b03d4be58d2c2523bc611d938d4da64736f6c63430008070033",
									".code": [
										{
											"begin": 25,
											"end": 144,
											"name": "PUSH",
											"source": 0,
											"value": "80"
										},
										{
											"begin": 25,
											"end": 144,
											"name": "PUSH",
											"source": 0,
											"value": "40"
										},
										{
											"begin": 25,
											"end": 144,
											"name": "MSTORE",
											"source": 0
										},
										{
											"begin": 25,
											"end": 144,
											"name": "PUSH",
											"source": 0,
											"value": "0"
										},
										{
											"begin": 25,
											"end": 144,
											"name": "DUP1",
											"source": 0
										},
										{
											"begin": 25,
											"end": 144,
											"name": "REVERT",
											"source": 0
										}
									]
								}
							}
						},
						"methodIdentifiers": {}
					},
					"metadata": "{\"compiler\":{\"version\":\"0.8.7+commit.e28d00a7\"},\"language\":\"Solidity\",\"output\":{\"abi\":[],\"devdoc\":{\"kind\":\"dev\",\"methods\":{},\"version\":1},\"userdoc\":{\"kind\":\"user\",\"methods\":{},\"version\":1}},\"settings\":{\"compilationTarget\":{\"task8.sol\":\"learnStruct\"},\"evmVersion\":\"london\",\"libraries\":{},\"metadata\":{\"bytecodeHash\":\"ipfs\"},\"optimizer\":{\"enabled\":false,\"runs\":200},\"remappings\":[]},\"sources\":{\"task8.sol\":{\"keccak256\":\"0x3742e6958877750c005e80cd20e9a3359768570dd776c173ff9c613cad875e3a\",\"urls\":[\"bzz-raw://edc11b6d177ec9a2890d4eaed4cec08122a9aabcd38eed734984309e609b86db\",\"dweb:/ipfs/QmbNyFSPAHB2T6sf8YoTmKysKrAotYTPAXxUm9cLRm5yYD\"]}},\"version\":1}",
					"storageLayout": {
						"storage": [],
						"types": null
					},
					"userdoc": {
						"kind": "user",
						"methods": {},
						"version": 1
					}
				}
			}
		},
		"errors": [
			{
				"component": "general",
				"errorCode": "1878",
				"formattedMessage": "Warning: SPDX license identifier not provided in source file. Before publishing, consider adding a comment containing \"SPDX-License-Identifier: <SPDX-License>\" to each source file. Use \"SPDX-License-Identifier: UNLICENSED\" for non-open-source code. Please see https://spdx.org for more information.\n--> task8.sol\n\n",
				"message": "SPDX license identifier not provided in source file. Before publishing, consider adding a comment containing \"SPDX-License-Identifier: <SPDX-License>\" to each source file. Use \"SPDX-License-Identifier: UNLICENSED\" for non-open-source code. Please see https://spdx.org for more information.",
				"severity": "warning",
				"sourceLocation": {
					"end": -1,
					"file": "task8.sol",
					"start": -1
				},
				"type": "Warning"
			}
		],
		"sources": {
			"task8.sol": {
				"ast": {
					"absolutePath": "task8.sol",
					"exportedSymbols": {
						"learnStruct": [
							9
						]
					},
					"id": 10,
					"nodeType": "SourceUnit",
					"nodes": [
						{
							"id": 1,
							"literals": [
								"solidity",
								"^",
								"0.8",
								".0"
							],
							"nodeType": "PragmaDirective",
							"src": "0:23:0"
						},
						{
							"abstract": false,
							"baseContracts": [],
							"contractDependencies": [],
							"contractKind": "contract",
							"fullyImplemented": true,
							"id": 9,
							"linearizedBaseContracts": [
								9
							],
							"name": "learnStruct",
							"nameLocation": "34:11:0",
							"nodeType": "ContractDefinition",
							"nodes": [
								{
									"canonicalName": "learnStruct.Movies",
									"id": 8,
									"members": [
										{
											"constant": false,
											"id": 3,
											"mutability": "mutable",
											"name": "title",
											"nameLocation": "83:5:0",
											"nodeType": "VariableDeclaration",
											"scope": 8,
											"src": "76:12:0",
											"stateVariable": false,
											"storageLocation": "default",
											"typeDescriptions": {
												"typeIdentifier": "t_string_storage_ptr",
												"typeString": "string"
											},
											"typeName": {
												"id": 2,
												"name": "string",
												"nodeType": "ElementaryTypeName",
												"src": "76:6:0",
												"typeDescriptions": {
													"typeIdentifier": "t_string_storage_ptr",
													"typeString": "string"
												}
											},
											"visibility": "internal"
										},
										{
											"constant": false,
											"id": 5,
											"mutability": "mutable",
											"name": "director",
											"nameLocation": "105:8:0",
											"nodeType": "VariableDeclaration",
											"scope": 8,
											"src": "98:15:0",
											"stateVariable": false,
											"storageLocation": "default",
											"typeDescriptions": {
												"typeIdentifier": "t_string_storage_ptr",
												"typeString": "string"
											},
											"typeName": {
												"id": 4,
												"name": "string",
												"nodeType": "ElementaryTypeName",
												"src": "98:6:0",
												"typeDescriptions": {
													"typeIdentifier": "t_string_storage_ptr",
													"typeString": "string"
												}
											},
											"visibility": "internal"
										},
										{
											"constant": false,
											"id": 7,
											"mutability": "mutable",
											"name": "movieId",
											"nameLocation": "128:7:0",
											"nodeType": "VariableDeclaration",
											"scope": 8,
											"src": "123:12:0",
											"stateVariable": false,
											"storageLocation": "default",
											"typeDescriptions": {
												"typeIdentifier": "t_uint256",
												"typeString": "uint256"
											},
											"typeName": {
												"id": 6,
												"name": "uint",
												"nodeType": "ElementaryTypeName",
												"src": "123:4:0",
												"typeDescriptions": {
													"typeIdentifier": "t_uint256",
													"typeString": "uint256"
												}
											},
											"visibility": "internal"
										}
									],
									"name": "Movies",
									"nameLocation": "60:6:0",
									"nodeType": "StructDefinition",
									"scope": 9,
									"src": "53:89:0",
									"visibility": "public"
								}
							],
							"scope": 10,
							"src": "25:119:0",
							"usedErrors": []
						}
					],
					"src": "0:144:0"
				},
				"id": 0
			}
		}
	}
}