{
	"id": "0cdf453ed81356bbb46bbccd605658f7",
	"_format": "hh-sol-build-info-1",
	"solcVersion": "0.8.7",
	"solcLongVersion": "0.8.7+commit.e28d00a7",
	"input": {
		"language": "Solidity",
		"sources": {
			"mapping.sol": {
				"content": "pragma solidity ^0.8.0;\n\ncontract learnMapping{\n\n    struct deplovers{\n        string name;\n        string department;\n        string empid;\n    }\n}"
			}
		},
		"settings": {
			"optimizer": {
				"enabled": false,
				"runs": 200
			},
			"outputSelection": {
				"*": {
					"": [
						"ast"
					],
					"*": [
						"abi",
						"metadata",
						"devdoc",
						"userdoc",
						"storageLayout",
						"evm.legacyAssembly",
						"evm.bytecode",
						"evm.deployedBytecode",
						"evm.methodIdentifiers",
						"evm.gasEstimates",
						"evm.assembly"
					]
				}
			}
		}
	},
	"output": {
		"contracts": {
			"mapping.sol": {
				"learnMapping": {
					"abi": [],
					"devdoc": {
						"kind": "dev",
						"methods": {},
						"version": 1
					},
					"evm": {
						"assembly": "    /* \"mapping.sol\":25:148  contract learnMapping{... */\n  mstore(0x40, 0x80)\n  callvalue\n  dup1\n  iszero\n  tag_1\n  jumpi\n  0x00\n  dup1\n  revert\ntag_1:\n  pop\n  dataSize(sub_0)\n  dup1\n  dataOffset(sub_0)\n  0x00\n  codecopy\n  0x00\n  return\nstop\n\nsub_0: assembly {\n        /* \"mapping.sol\":25:148  contract learnMapping{... */\n      mstore(0x40, 0x80)\n      0x00\n      dup1\n      revert\n\n    auxdata: 0xa2646970667358221220b79151fa2cac168bfc83ec9944ad010914d5250d1ea96495b226ad93c71e433564736f6c63430008070033\n}\n",
						"bytecode": {
							"functionDebugData": {},
							"generatedSources": [],
							"linkReferences": {},
							"object": "6080604052348015600f57600080fd5b50603f80601d6000396000f3fe6080604052600080fdfea2646970667358221220b79151fa2cac168bfc83ec9944ad010914d5250d1ea96495b226ad93c71e433564736f6c63430008070033",
							"opcodes": "PUSH1 0x80 PUSH1 0x40 MSTORE CALLVALUE DUP1 ISZERO PUSH1 0xF JUMPI PUSH1 0x0 DUP1 REVERT JUMPDEST POP PUSH1 0x3F DUP1 PUSH1 0x1D PUSH1 0x0 CODECOPY PUSH1 0x0 RETURN INVALID PUSH1 0x80 PUSH1 0x40 MSTORE PUSH1 0x0 DUP1 REVERT INVALID LOG2 PUSH5 0x6970667358 0x22 SLT KECCAK256 0xB7 SWAP2 MLOAD STATICCALL 0x2C 0xAC AND DUP12 0xFC DUP4 0xEC SWAP10 DIFFICULTY 0xAD ADD MULMOD EQ 0xD5 0x25 0xD 0x1E 0xA9 PUSH5 0x95B226AD93 0xC7 0x1E NUMBER CALLDATALOAD PUSH5 0x736F6C6343 STOP ADDMOD SMOD STOP CALLER ",
							"sourceMap": "25:123:0:-:0;;;;;;;;;;;;;;;;;;;"
						},
						"deployedBytecode": {
							"functionDebugData": {},
							"generatedSources": [],
							"immutableReferences": {},
							"linkReferences": {},
							"object": "6080604052600080fdfea2646970667358221220b79151fa2cac168bfc83ec9944ad010914d5250d1ea96495b226ad93c71e433564736f6c63430008070033",
							"opcodes": "PUSH1 0x80 PUSH1 0x40 MSTORE PUSH1 0x0 DUP1 REVERT INVALID LOG2 PUSH5 0x6970667358 0x22 SLT KECCAK256 0xB7 SWAP2 MLOAD STATICCALL 0x2C 0xAC AND DUP12 0xFC DUP4 0xEC SWAP10 DIFFICULTY 0xAD ADD MULMOD EQ 0xD5 0x25 0xD 0x1E 0xA9 PUSH5 0x95B226AD93 0xC7 0x1E NUMBER CALLDATALOAD PUSH5 0x736F6C6343 STOP ADDMOD SMOD STOP CALLER ",
							"sourceMap": "25:123:0:-:0;;;;;"
						},
						"gasEstimates": {
							"creation": {
								"codeDepositCost": "12600",
								"executionCost": "66",
								"totalCost": "12666"
							}
						},
						"legacyAssembly": {
							".code": [
								{
									"begin": 25,
									"end": 148,
									"name": "PUSH",
									"source": 0,
									"value": "80"
								},
								{
									"begin": 25,
									"end": 148,
									"name": "PUSH",
									"source": 0,
									"value": "40"
								},
								{
									"begin": 25,
									"end": 148,
									"name": "MSTORE",
									"source": 0
								},
								{
									"begin": 25,
									"end": 148,
									"name": "CALLVALUE",
									"source": 0
								},
								{
									"begin": 25,
									"end": 148,
									"name": "DUP1",
									"source": 0
								},
								{
									"begin": 25,
									"end": 148,
									"name": "ISZERO",
									"source": 0
								},
								{
									"begin": 25,
									"end": 148,
									"name": "PUSH [tag]",
									"source": 0,
									"value": "1"
								},
								{
									"begin": 25,
									"end": 148,
									"name": "JUMPI",
									"source": 0
								},
								{
									"begin": 25,
									"end": 148,
									"name": "PUSH",
									"source": 0,
									"value": "0"
								},
								{
									"begin": 25,
									"end": 148,
									"name": "DUP1",
									"source": 0
								},
								{
									"begin": 25,
									"end": 148,
									"name": "REVERT",
									"source": 0
								},
								{
									"begin": 25,
									"end": 148,
									"name": "tag",
									"source": 0,
									"value": "1"
								},
								{
									"begin": 25,
									"end": 148,
									"name": "JUMPDEST",
									"source": 0
								},
								{
									"begin": 25,
									"end": 148,
									"name": "POP",
									"source": 0
								},
								{
									"begin": 25,
									"end": 148,
									"name": "PUSH #[$]",
									"source": 0,
									"value": "0000000000000000000000000000000000000000000000000000000000000000"
								},
								{
									"begin": 25,
									"end": 148,
									"name": "DUP1",
									"source": 0
								},
								{
									"begin": 25,
									"end": 148,
									"name": "PUSH [$]",
									"source": 0,
									"value": "0000000000000000000000000000000000000000000000000000000000000000"
								},
								{
									"begin": 25,
									"end": 148,
									"name": "PUSH",
									"source": 0,
									"value": "0"
								},
								{
									"begin": 25,
									"end": 148,
									"name": "CODECOPY",
									"source": 0
								},
								{
									"begin": 25,
									"end": 148,
									"name": "PUSH",
									"source": 0,
									"value": "0"
								},
								{
									"begin": 25,
									"end": 148,
									"name": "RETURN",
									"source": 0
								}
							],
							".data": {
								"0": {
									".auxdata": "a2646970667358221220b79151fa2cac168bfc83ec9944ad010914d5250d1ea96495b226ad93c71e433564736f6c63430008070033",
									".code": [
										{
											"begin": 25,
											"end": 148,
											"name": "PUSH",
											"source": 0,
											"value": "80"
										},
										{
											"begin": 25,
											"end": 148,
											"name": "PUSH",
											"source": 0,
											"value": "40"
										},
										{
											"begin": 25,
											"end": 148,
											"name": "MSTORE",
											"source": 0
										},
										{
											"begin": 25,
											"end": 148,
											"name": "PUSH",
											"source": 0,
											"value": "0"
										},
										{
											"begin": 25,
											"end": 148,
											"name": "DUP1",
											"source": 0
										},
										{
											"begin": 25,
											"end": 148,
											"name": "REVERT",
											"source": 0
										}
									]
								}
							}
						},
						"methodIdentifiers": {}
					},
					"metadata": "{\"compiler\":{\"version\":\"0.8.7+commit.e28d00a7\"},\"language\":\"Solidity\",\"output\":{\"abi\":[],\"devdoc\":{\"kind\":\"dev\",\"methods\":{},\"version\":1},\"userdoc\":{\"kind\":\"user\",\"methods\":{},\"version\":1}},\"settings\":{\"compilationTarget\":{\"mapping.sol\":\"learnMapping\"},\"evmVersion\":\"london\",\"libraries\":{},\"metadata\":{\"bytecodeHash\":\"ipfs\"},\"optimizer\":{\"enabled\":false,\"runs\":200},\"remappings\":[]},\"sources\":{\"mapping.sol\":{\"keccak256\":\"0x66f1c2489a6e24befc6821eafb6d7d0db349cb18f67b8582e134b168e349c268\",\"urls\":[\"bzz-raw://4979db1a983104e5f78cc7e1125204ce6b5a549e32c744345936db7d8ad8bd0b\",\"dweb:/ipfs/QmYtBUnu31eMMpyA6HdZeMELZZoaMw8VJgv6M8dPGV3uqg\"]}},\"version\":1}",
					"storageLayout": {
						"storage": [],
						"types": null
					},
					"userdoc": {
						"kind": "user",
						"methods": {},
						"version": 1
					}
				}
			}
		},
		"errors": [
			{
				"component": "general",
				"errorCode": "1878",
				"formattedMessage": "Warning: SPDX license identifier not provided in source file. Before publishing, consider adding a comment containing \"SPDX-License-Identifier: <SPDX-License>\" to each source file. Use \"SPDX-License-Identifier: UNLICENSED\" for non-open-source code. Please see https://spdx.org for more information.\n--> mapping.sol\n\n",
				"message": "SPDX license identifier not provided in source file. Before publishing, consider adding a comment containing \"SPDX-License-Identifier: <SPDX-License>\" to each source file. Use \"SPDX-License-Identifier: UNLICENSED\" for non-open-source code. Please see https://spdx.org for more information.",
				"severity": "warning",
				"sourceLocation": {
					"end": -1,
					"file": "mapping.sol",
					"start": -1
				},
				"type": "Warning"
			}
		],
		"sources": {
			"mapping.sol": {
				"ast": {
					"absolutePath": "mapping.sol",
					"exportedSymbols": {
						"learnMapping": [
							9
						]
					},
					"id": 10,
					"nodeType": "SourceUnit",
					"nodes": [
						{
							"id": 1,
							"literals": [
								"solidity",
								"^",
								"0.8",
								".0"
							],
							"nodeType": "PragmaDirective",
							"src": "0:23:0"
						},
						{
							"abstract": false,
							"baseContracts": [],
							"contractDependencies": [],
							"contractKind": "contract",
							"fullyImplemented": true,
							"id": 9,
							"linearizedBaseContracts": [
								9
							],
							"name": "learnMapping",
							"nameLocation": "34:12:0",
							"nodeType": "ContractDefinition",
							"nodes": [
								{
									"canonicalName": "learnMapping.deplovers",
									"id": 8,
									"members": [
										{
											"constant": false,
											"id": 3,
											"mutability": "mutable",
											"name": "name",
											"nameLocation": "86:4:0",
											"nodeType": "VariableDeclaration",
											"scope": 8,
											"src": "79:11:0",
											"stateVariable": false,
											"storageLocation": "default",
											"typeDescriptions": {
												"typeIdentifier": "t_string_storage_ptr",
												"typeString": "string"
											},
											"typeName": {
												"id": 2,
												"name": "string",
												"nodeType": "ElementaryTypeName",
												"src": "79:6:0",
												"typeDescriptions": {
													"typeIdentifier": "t_string_storage_ptr",
													"typeString": "string"
												}
											},
											"visibility": "internal"
										},
										{
											"constant": false,
											"id": 5,
											"mutability": "mutable",
											"name": "department",
											"nameLocation": "107:10:0",
											"nodeType": "VariableDeclaration",
											"scope": 8,
											"src": "100:17:0",
											"stateVariable": false,
											"storageLocation": "default",
											"typeDescriptions": {
												"typeIdentifier": "t_string_storage_ptr",
												"typeString": "string"
											},
											"typeName": {
												"id": 4,
												"name": "string",
												"nodeType": "ElementaryTypeName",
												"src": "100:6:0",
												"typeDescriptions": {
													"typeIdentifier": "t_string_storage_ptr",
													"typeString": "string"
												}
											},
											"visibility": "internal"
										},
										{
											"constant": false,
											"id": 7,
											"mutability": "mutable",
											"name": "empid",
											"nameLocation": "134:5:0",
											"nodeType": "VariableDeclaration",
											"scope": 8,
											"src": "127:12:0",
											"stateVariable": false,
											"storageLocation": "default",
											"typeDescriptions": {
												"typeIdentifier": "t_string_storage_ptr",
												"typeString": "string"
											},
											"typeName": {
												"id": 6,
												"name": "string",
												"nodeType": "ElementaryTypeName",
												"src": "127:6:0",
												"typeDescriptions": {
													"typeIdentifier": "t_string_storage_ptr",
													"typeString": "string"
												}
											},
											"visibility": "internal"
										}
									],
									"name": "deplovers",
									"nameLocation": "60:9:0",
									"nodeType": "StructDefinition",
									"scope": 9,
									"src": "53:93:0",
									"visibility": "public"
								}
							],
							"scope": 10,
							"src": "25:123:0",
							"usedErrors": []
						}
					],
					"src": "0:148:0"
				},
				"id": 0
			}
		}
	}
}