{
	"id": "0dc5c3a8abf51b8a4cb440cc3b9e41fa",
	"_format": "hh-sol-build-info-1",
	"solcVersion": "0.8.7",
	"solcLongVersion": "0.8.7+commit.e28d00a7",
	"input": {
		"language": "Solidity",
		"sources": {
			"task1.sol": {
				"content": "pragma solidity ^0.8.0;\n\ncontract learnFunction{\n\n\n\n}"
			}
		},
		"settings": {
			"optimizer": {
				"enabled": false,
				"runs": 200
			},
			"outputSelection": {
				"*": {
					"": [
						"ast"
					],
					"*": [
						"abi",
						"metadata",
						"devdoc",
						"userdoc",
						"storageLayout",
						"evm.legacyAssembly",
						"evm.bytecode",
						"evm.deployedBytecode",
						"evm.methodIdentifiers",
						"evm.gasEstimates",
						"evm.assembly"
					]
				}
			}
		}
	},
	"output": {
		"contracts": {
			"task1.sol": {
				"learnFunction": {
					"abi": [],
					"devdoc": {
						"kind": "dev",
						"methods": {},
						"version": 1
					},
					"evm": {
						"assembly": "    /* \"task1.sol\":25:53  contract learnFunction{... */\n  mstore(0x40, 0x80)\n  callvalue\n  dup1\n  iszero\n  tag_1\n  jumpi\n  0x00\n  dup1\n  revert\ntag_1:\n  pop\n  dataSize(sub_0)\n  dup1\n  dataOffset(sub_0)\n  0x00\n  codecopy\n  0x00\n  return\nstop\n\nsub_0: assembly {\n        /* \"task1.sol\":25:53  contract learnFunction{... */\n      mstore(0x40, 0x80)\n      0x00\n      dup1\n      revert\n\n    auxdata: 0xa264697066735822122017ddd3c39695ae6d793c7dc3a33fbd723a2fa1caf773fbf9d911fea7d5e44c7664736f6c63430008070033\n}\n",
						"bytecode": {
							"functionDebugData": {},
							"generatedSources": [],
							"linkReferences": {},
							"object": "6080604052348015600f57600080fd5b50603f80601d6000396000f3fe6080604052600080fdfea264697066735822122017ddd3c39695ae6d793c7dc3a33fbd723a2fa1caf773fbf9d911fea7d5e44c7664736f6c63430008070033",
							"opcodes": "PUSH1 0x80 PUSH1 0x40 MSTORE CALLVALUE DUP1 ISZERO PUSH1 0xF JUMPI PUSH1 0x0 DUP1 REVERT JUMPDEST POP PUSH1 0x3F DUP1 PUSH1 0x1D PUSH1 0x0 CODECOPY PUSH1 0x0 RETURN INVALID PUSH1 0x80 PUSH1 0x40 MSTORE PUSH1 0x0 DUP1 REVERT INVALID LOG2 PUSH5 0x6970667358 0x22 SLT KECCAK256 OR 0xDD 0xD3 0xC3 SWAP7 SWAP6 0xAE PUSH14 0x793C7DC3A33FBD723A2FA1CAF773 0xFB 0xF9 0xD9 GT INVALID 0xA7 0xD5 0xE4 0x4C PUSH23 0x64736F6C63430008070033000000000000000000000000 ",
							"sourceMap": "25:28:0:-:0;;;;;;;;;;;;;;;;;;;"
						},
						"deployedBytecode": {
							"functionDebugData": {},
							"generatedSources": [],
							"immutableReferences": {},
							"linkReferences": {},
							"object": "6080604052600080fdfea264697066735822122017ddd3c39695ae6d793c7dc3a33fbd723a2fa1caf773fbf9d911fea7d5e44c7664736f6c63430008070033",
							"opcodes": "PUSH1 0x80 PUSH1 0x40 MSTORE PUSH1 0x0 DUP1 REVERT INVALID LOG2 PUSH5 0x6970667358 0x22 SLT KECCAK256 OR 0xDD 0xD3 0xC3 SWAP7 SWAP6 0xAE PUSH14 0x793C7DC3A33FBD723A2FA1CAF773 0xFB 0xF9 0xD9 GT INVALID 0xA7 0xD5 0xE4 0x4C PUSH23 0x64736F6C63430008070033000000000000000000000000 ",
							"sourceMap": "25:28:0:-:0;;;;;"
						},
						"gasEstimates": {
							"creation": {
								"codeDepositCost": "12600",
								"executionCost": "66",
								"totalCost": "12666"
							}
						},
						"legacyAssembly": {
							".code": [
								{
									"begin": 25,
									"end": 53,
									"name": "PUSH",
									"source": 0,
									"value": "80"
								},
								{
									"begin": 25,
									"end": 53,
									"name": "PUSH",
									"source": 0,
									"value": "40"
								},
								{
									"begin": 25,
									"end": 53,
									"name": "MSTORE",
									"source": 0
								},
								{
									"begin": 25,
									"end": 53,
									"name": "CALLVALUE",
									"source": 0
								},
								{
									"begin": 25,
									"end": 53,
									"name": "DUP1",
									"source": 0
								},
								{
									"begin": 25,
									"end": 53,
									"name": "ISZERO",
									"source": 0
								},
								{
									"begin": 25,
									"end": 53,
									"name": "PUSH [tag]",
									"source": 0,
									"value": "1"
								},
								{
									"begin": 25,
									"end": 53,
									"name": "JUMPI",
									"source": 0
								},
								{
									"begin": 25,
									"end": 53,
									"name": "PUSH",
									"source": 0,
									"value": "0"
								},
								{
									"begin": 25,
									"end": 53,
									"name": "DUP1",
									"source": 0
								},
								{
									"begin": 25,
									"end": 53,
									"name": "REVERT",
									"source": 0
								},
								{
									"begin": 25,
									"end": 53,
									"name": "tag",
									"source": 0,
									"value": "1"
								},
								{
									"begin": 25,
									"end": 53,
									"name": "JUMPDEST",
									"source": 0
								},
								{
									"begin": 25,
									"end": 53,
									"name": "POP",
									"source": 0
								},
								{
									"begin": 25,
									"end": 53,
									"name": "PUSH #[$]",
									"source": 0,
									"value": "0000000000000000000000000000000000000000000000000000000000000000"
								},
								{
									"begin": 25,
									"end": 53,
									"name": "DUP1",
									"source": 0
								},
								{
									"begin": 25,
									"end": 53,
									"name": "PUSH [$]",
									"source": 0,
									"value": "0000000000000000000000000000000000000000000000000000000000000000"
								},
								{
									"begin": 25,
									"end": 53,
									"name": "PUSH",
									"source": 0,
									"value": "0"
								},
								{
									"begin": 25,
									"end": 53,
									"name": "CODECOPY",
									"source": 0
								},
								{
									"begin": 25,
									"end": 53,
									"name": "PUSH",
									"source": 0,
									"value": "0"
								},
								{
									"begin": 25,
									"end": 53,
									"name": "RETURN",
									"source": 0
								}
							],
							".data": {
								"0": {
									".auxdata": "a264697066735822122017ddd3c39695ae6d793c7dc3a33fbd723a2fa1caf773fbf9d911fea7d5e44c7664736f6c63430008070033",
									".code": [
										{
											"begin": 25,
											"end": 53,
											"name": "PUSH",
											"source": 0,
											"value": "80"
										},
										{
											"begin": 25,
											"end": 53,
											"name": "PUSH",
											"source": 0,
											"value": "40"
										},
										{
											"begin": 25,
											"end": 53,
											"name": "MSTORE",
											"source": 0
										},
										{
											"begin": 25,
											"end": 53,
											"name": "PUSH",
											"source": 0,
											"value": "0"
										},
										{
											"begin": 25,
											"end": 53,
											"name": "DUP1",
											"source": 0
										},
										{
											"begin": 25,
											"end": 53,
											"name": "REVERT",
											"source": 0
										}
									]
								}
							}
						},
						"methodIdentifiers": {}
					},
					"metadata": "{\"compiler\":{\"version\":\"0.8.7+commit.e28d00a7\"},\"language\":\"Solidity\",\"output\":{\"abi\":[],\"devdoc\":{\"kind\":\"dev\",\"methods\":{},\"version\":1},\"userdoc\":{\"kind\":\"user\",\"methods\":{},\"version\":1}},\"settings\":{\"compilationTarget\":{\"task1.sol\":\"learnFunction\"},\"evmVersion\":\"london\",\"libraries\":{},\"metadata\":{\"bytecodeHash\":\"ipfs\"},\"optimizer\":{\"enabled\":false,\"runs\":200},\"remappings\":[]},\"sources\":{\"task1.sol\":{\"keccak256\":\"0xe957ba68176a172ec57b5c0f230092655efa1fd1591a99604d50de4aac963cfa\",\"urls\":[\"bzz-raw://f2dc12b391413c8a1e126e16ec2b8fac1d724d35c2e6a990245837a31ea87e8c\",\"dweb:/ipfs/QmWr7WJJi7nPmzRLqUPU3NhECZCW5TntviPgQ8vTG7onfu\"]}},\"version\":1}",
					"storageLayout": {
						"storage": [],
						"types": null
					},
					"userdoc": {
						"kind": "user",
						"methods": {},
						"version": 1
					}
				}
			}
		},
		"errors": [
			{
				"component": "general",
				"errorCode": "1878",
				"formattedMessage": "Warning: SPDX license identifier not provided in source file. Before publishing, consider adding a comment containing \"SPDX-License-Identifier: <SPDX-License>\" to each source file. Use \"SPDX-License-Identifier: UNLICENSED\" for non-open-source code. Please see https://spdx.org for more information.\n--> task1.sol\n\n",
				"message": "SPDX license identifier not provided in source file. Before publishing, consider adding a comment containing \"SPDX-License-Identifier: <SPDX-License>\" to each source file. Use \"SPDX-License-Identifier: UNLICENSED\" for non-open-source code. Please see https://spdx.org for more information.",
				"severity": "warning",
				"sourceLocation": {
					"end": -1,
					"file": "task1.sol",
					"start": -1
				},
				"type": "Warning"
			}
		],
		"sources": {
			"task1.sol": {
				"ast": {
					"absolutePath": "task1.sol",
					"exportedSymbols": {
						"learnFunction": [
							2
						]
					},
					"id": 3,
					"nodeType": "SourceUnit",
					"nodes": [
						{
							"id": 1,
							"literals": [
								"solidity",
								"^",
								"0.8",
								".0"
							],
							"nodeType": "PragmaDirective",
							"src": "0:23:0"
						},
						{
							"abstract": false,
							"baseContracts": [],
							"contractDependencies": [],
							"contractKind": "contract",
							"fullyImplemented": true,
							"id": 2,
							"linearizedBaseContracts": [
								2
							],
							"name": "learnFunction",
							"nameLocation": "34:13:0",
							"nodeType": "ContractDefinition",
							"nodes": [],
							"scope": 3,
							"src": "25:28:0",
							"usedErrors": []
						}
					],
					"src": "0:53:0"
				},
				"id": 0
			}
		}
	}
}