{
	"id": "179cf524fe64fe3945175ecebe6a4ddc",
	"_format": "hh-sol-build-info-1",
	"solcVersion": "0.8.15",
	"solcLongVersion": "0.8.15+commit.e14f2714",
	"input": {
		"language": "Solidity",
		"sources": {
			"contracts/Campaign.sol": {
				"content": "pragma solidity ^0.8.0;\n contract Campaign{\n     \n     address public manager;\n     uint public minimumContribution;\n     \n }"
			}
		},
		"settings": {
			"optimizer": {
				"enabled": false,
				"runs": 200
			},
			"outputSelection": {
				"*": {
					"": [
						"ast"
					],
					"*": [
						"abi",
						"metadata",
						"devdoc",
						"userdoc",
						"storageLayout",
						"evm.legacyAssembly",
						"evm.bytecode",
						"evm.deployedBytecode",
						"evm.methodIdentifiers",
						"evm.gasEstimates",
						"evm.assembly"
					]
				}
			}
		}
	},
	"output": {
		"contracts": {
			"contracts/Campaign.sol": {
				"Campaign": {
					"abi": [
						{
							"inputs": [],
							"name": "manager",
							"outputs": [
								{
									"internalType": "address",
									"name": "",
									"type": "address"
								}
							],
							"stateMutability": "view",
							"type": "function"
						},
						{
							"inputs": [],
							"name": "minimumContribution",
							"outputs": [
								{
									"internalType": "uint256",
									"name": "",
									"type": "uint256"
								}
							],
							"stateMutability": "view",
							"type": "function"
						}
					],
					"devdoc": {
						"kind": "dev",
						"methods": {},
						"version": 1
					},
					"evm": {
						"assembly": "    /* \"contracts/Campaign.sol\":25:125  contract Campaign{... */\n  mstore(0x40, 0x80)\n  callvalue\n  dup1\n  iszero\n  tag_1\n  jumpi\n  0x00\n  dup1\n  revert\ntag_1:\n  pop\n  dataSize(sub_0)\n  dup1\n  dataOffset(sub_0)\n  0x00\n  codecopy\n  0x00\n  return\nstop\n\nsub_0: assembly {\n        /* \"contracts/Campaign.sol\":25:125  contract Campaign{... */\n      mstore(0x40, 0x80)\n      callvalue\n      dup1\n      iszero\n      tag_1\n      jumpi\n      0x00\n      dup1\n      revert\n    tag_1:\n      pop\n      jumpi(tag_2, lt(calldatasize, 0x04))\n      shr(0xe0, calldataload(0x00))\n      dup1\n      0x481c6a75\n      eq\n      tag_3\n      jumpi\n      dup1\n      0x937e09b1\n      eq\n      tag_4\n      jumpi\n    tag_2:\n      0x00\n      dup1\n      revert\n        /* \"contracts/Campaign.sol\":55:77  address public manager */\n    tag_3:\n      tag_5\n      tag_6\n      jump\t// in\n    tag_5:\n      mload(0x40)\n      tag_7\n      swap2\n      swap1\n      tag_8\n      jump\t// in\n    tag_7:\n      mload(0x40)\n      dup1\n      swap2\n      sub\n      swap1\n      return\n        /* \"contracts/Campaign.sol\":84:115  uint public minimumContribution */\n    tag_4:\n      tag_9\n      tag_10\n      jump\t// in\n    tag_9:\n      mload(0x40)\n      tag_11\n      swap2\n      swap1\n      tag_12\n      jump\t// in\n    tag_11:\n      mload(0x40)\n      dup1\n      swap2\n      sub\n      swap1\n      return\n        /* \"contracts/Campaign.sol\":55:77  address public manager */\n    tag_6:\n      0x00\n      dup1\n      sload\n      swap1\n      0x0100\n      exp\n      swap1\n      div\n      0xffffffffffffffffffffffffffffffffffffffff\n      and\n      dup2\n      jump\t// out\n        /* \"contracts/Campaign.sol\":84:115  uint public minimumContribution */\n    tag_10:\n      sload(0x01)\n      dup2\n      jump\t// out\n        /* \"#utility.yul\":7:133   */\n    tag_13:\n        /* \"#utility.yul\":44:51   */\n      0x00\n        /* \"#utility.yul\":84:126   */\n      0xffffffffffffffffffffffffffffffffffffffff\n        /* \"#utility.yul\":77:82   */\n      dup3\n        /* \"#utility.yul\":73:127   */\n      and\n        /* \"#utility.yul\":62:127   */\n      swap1\n      pop\n        /* \"#utility.yul\":7:133   */\n      swap2\n      swap1\n      pop\n      jump\t// out\n        /* \"#utility.yul\":139:235   */\n    tag_14:\n        /* \"#utility.yul\":176:183   */\n      0x00\n        /* \"#utility.yul\":205:229   */\n      tag_21\n        /* \"#utility.yul\":223:228   */\n      dup3\n        /* \"#utility.yul\":205:229   */\n      tag_13\n      jump\t// in\n    tag_21:\n        /* \"#utility.yul\":194:229   */\n      swap1\n      pop\n        /* \"#utility.yul\":139:235   */\n      swap2\n      swap1\n      pop\n      jump\t// out\n        /* \"#utility.yul\":241:359   */\n    tag_15:\n        /* \"#utility.yul\":328:352   */\n      tag_23\n        /* \"#utility.yul\":346:351   */\n      dup2\n        /* \"#utility.yul\":328:352   */\n      tag_14\n      jump\t// in\n    tag_23:\n        /* \"#utility.yul\":323:326   */\n      dup3\n        /* \"#utility.yul\":316:353   */\n      mstore\n        /* \"#utility.yul\":241:359   */\n      pop\n      pop\n      jump\t// out\n        /* \"#utility.yul\":365:587   */\n    tag_8:\n        /* \"#utility.yul\":458:462   */\n      0x00\n        /* \"#utility.yul\":496:498   */\n      0x20\n        /* \"#utility.yul\":485:494   */\n      dup3\n        /* \"#utility.yul\":481:499   */\n      add\n        /* \"#utility.yul\":473:499   */\n      swap1\n      pop\n        /* \"#utility.yul\":509:580   */\n      tag_25\n        /* \"#utility.yul\":577:578   */\n      0x00\n        /* \"#utility.yul\":566:575   */\n      dup4\n        /* \"#utility.yul\":562:579   */\n      add\n        /* \"#utility.yul\":553:559   */\n      dup5\n        /* \"#utility.yul\":509:580   */\n      tag_15\n      jump\t// in\n    tag_25:\n        /* \"#utility.yul\":365:587   */\n      swap3\n      swap2\n      pop\n      pop\n      jump\t// out\n        /* \"#utility.yul\":593:670   */\n    tag_16:\n        /* \"#utility.yul\":630:637   */\n      0x00\n        /* \"#utility.yul\":659:664   */\n      dup2\n        /* \"#utility.yul\":648:664   */\n      swap1\n      pop\n        /* \"#utility.yul\":593:670   */\n      swap2\n      swap1\n      pop\n      jump\t// out\n        /* \"#utility.yul\":676:794   */\n    tag_17:\n        /* \"#utility.yul\":763:787   */\n      tag_28\n        /* \"#utility.yul\":781:786   */\n      dup2\n        /* \"#utility.yul\":763:787   */\n      tag_16\n      jump\t// in\n    tag_28:\n        /* \"#utility.yul\":758:761   */\n      dup3\n        /* \"#utility.yul\":751:788   */\n      mstore\n        /* \"#utility.yul\":676:794   */\n      pop\n      pop\n      jump\t// out\n        /* \"#utility.yul\":800:1022   */\n    tag_12:\n        /* \"#utility.yul\":893:897   */\n      0x00\n        /* \"#utility.yul\":931:933   */\n      0x20\n        /* \"#utility.yul\":920:929   */\n      dup3\n        /* \"#utility.yul\":916:934   */\n      add\n        /* \"#utility.yul\":908:934   */\n      swap1\n      pop\n        /* \"#utility.yul\":944:1015   */\n      tag_30\n        /* \"#utility.yul\":1012:1013   */\n      0x00\n        /* \"#utility.yul\":1001:1010   */\n      dup4\n        /* \"#utility.yul\":997:1014   */\n      add\n        /* \"#utility.yul\":988:994   */\n      dup5\n        /* \"#utility.yul\":944:1015   */\n      tag_17\n      jump\t// in\n    tag_30:\n        /* \"#utility.yul\":800:1022   */\n      swap3\n      swap2\n      pop\n      pop\n      jump\t// out\n\n    auxdata: 0xa2646970667358221220cedd976a7addb05116835c911e2c0deabeecca642eff8e8aabb442cfab188a5d64736f6c634300080f0033\n}\n",
						"bytecode": {
							"functionDebugData": {},
							"generatedSources": [],
							"linkReferences": {},
							"object": "608060405234801561001057600080fd5b50610167806100206000396000f3fe608060405234801561001057600080fd5b50600436106100365760003560e01c8063481c6a751461003b578063937e09b114610059575b600080fd5b610043610077565b60405161005091906100e2565b60405180910390f35b61006161009b565b60405161006e9190610116565b60405180910390f35b60008054906101000a900473ffffffffffffffffffffffffffffffffffffffff1681565b60015481565b600073ffffffffffffffffffffffffffffffffffffffff82169050919050565b60006100cc826100a1565b9050919050565b6100dc816100c1565b82525050565b60006020820190506100f760008301846100d3565b92915050565b6000819050919050565b610110816100fd565b82525050565b600060208201905061012b6000830184610107565b9291505056fea2646970667358221220cedd976a7addb05116835c911e2c0deabeecca642eff8e8aabb442cfab188a5d64736f6c634300080f0033",
							"opcodes": "PUSH1 0x80 PUSH1 0x40 MSTORE CALLVALUE DUP1 ISZERO PUSH2 0x10 JUMPI PUSH1 0x0 DUP1 REVERT JUMPDEST POP PUSH2 0x167 DUP1 PUSH2 0x20 PUSH1 0x0 CODECOPY PUSH1 0x0 RETURN INVALID PUSH1 0x80 PUSH1 0x40 MSTORE CALLVALUE DUP1 ISZERO PUSH2 0x10 JUMPI PUSH1 0x0 DUP1 REVERT JUMPDEST POP PUSH1 0x4 CALLDATASIZE LT PUSH2 0x36 JUMPI PUSH1 0x0 CALLDATALOAD PUSH1 0xE0 SHR DUP1 PUSH4 0x481C6A75 EQ PUSH2 0x3B JUMPI DUP1 PUSH4 0x937E09B1 EQ PUSH2 0x59 JUMPI JUMPDEST PUSH1 0x0 DUP1 REVERT JUMPDEST PUSH2 0x43 PUSH2 0x77 JUMP JUMPDEST PUSH1 0x40 MLOAD PUSH2 0x50 SWAP2 SWAP1 PUSH2 0xE2 JUMP JUMPDEST PUSH1 0x40 MLOAD DUP1 SWAP2 SUB SWAP1 RETURN JUMPDEST PUSH2 0x61 PUSH2 0x9B JUMP JUMPDEST PUSH1 0x40 MLOAD PUSH2 0x6E SWAP2 SWAP1 PUSH2 0x116 JUMP JUMPDEST PUSH1 0x40 MLOAD DUP1 SWAP2 SUB SWAP1 RETURN JUMPDEST PUSH1 0x0 DUP1 SLOAD SWAP1 PUSH2 0x100 EXP SWAP1 DIV PUSH20 0xFFFFFFFFFFFFFFFFFFFFFFFFFFFFFFFFFFFFFFFF AND DUP2 JUMP JUMPDEST PUSH1 0x1 SLOAD DUP2 JUMP JUMPDEST PUSH1 0x0 PUSH20 0xFFFFFFFFFFFFFFFFFFFFFFFFFFFFFFFFFFFFFFFF DUP3 AND SWAP1 POP SWAP2 SWAP1 POP JUMP JUMPDEST PUSH1 0x0 PUSH2 0xCC DUP3 PUSH2 0xA1 JUMP JUMPDEST SWAP1 POP SWAP2 SWAP1 POP JUMP JUMPDEST PUSH2 0xDC DUP2 PUSH2 0xC1 JUMP JUMPDEST DUP3 MSTORE POP POP JUMP JUMPDEST PUSH1 0x0 PUSH1 0x20 DUP3 ADD SWAP1 POP PUSH2 0xF7 PUSH1 0x0 DUP4 ADD DUP5 PUSH2 0xD3 JUMP JUMPDEST SWAP3 SWAP2 POP POP JUMP JUMPDEST PUSH1 0x0 DUP2 SWAP1 POP SWAP2 SWAP1 POP JUMP JUMPDEST PUSH2 0x110 DUP2 PUSH2 0xFD JUMP JUMPDEST DUP3 MSTORE POP POP JUMP JUMPDEST PUSH1 0x0 PUSH1 0x20 DUP3 ADD SWAP1 POP PUSH2 0x12B PUSH1 0x0 DUP4 ADD DUP5 PUSH2 0x107 JUMP JUMPDEST SWAP3 SWAP2 POP POP JUMP INVALID LOG2 PUSH5 0x6970667358 0x22 SLT KECCAK256 0xCE 0xDD SWAP8 PUSH11 0x7ADDB05116835C911E2C0D 0xEA 0xBE 0xEC 0xCA PUSH5 0x2EFF8E8AAB 0xB4 TIMESTAMP 0xCF 0xAB XOR DUP11 0x5D PUSH5 0x736F6C6343 STOP ADDMOD 0xF STOP CALLER ",
							"sourceMap": "25:100:0:-:0;;;;;;;;;;;;;;;;;;;"
						},
						"deployedBytecode": {
							"functionDebugData": {
								"@manager_3": {
									"entryPoint": 119,
									"id": 3,
									"parameterSlots": 0,
									"returnSlots": 0
								},
								"@minimumContribution_5": {
									"entryPoint": 155,
									"id": 5,
									"parameterSlots": 0,
									"returnSlots": 0
								},
								"abi_encode_t_address_to_t_address_fromStack": {
									"entryPoint": 211,
									"id": null,
									"parameterSlots": 2,
									"returnSlots": 0
								},
								"abi_encode_t_uint256_to_t_uint256_fromStack": {
									"entryPoint": 263,
									"id": null,
									"parameterSlots": 2,
									"returnSlots": 0
								},
								"abi_encode_tuple_t_address__to_t_address__fromStack_reversed": {
									"entryPoint": 226,
									"id": null,
									"parameterSlots": 2,
									"returnSlots": 1
								},
								"abi_encode_tuple_t_uint256__to_t_uint256__fromStack_reversed": {
									"entryPoint": 278,
									"id": null,
									"parameterSlots": 2,
									"returnSlots": 1
								},
								"cleanup_t_address": {
									"entryPoint": 193,
									"id": null,
									"parameterSlots": 1,
									"returnSlots": 1
								},
								"cleanup_t_uint160": {
									"entryPoint": 161,
									"id": null,
									"parameterSlots": 1,
									"returnSlots": 1
								},
								"cleanup_t_uint256": {
									"entryPoint": 253,
									"id": null,
									"parameterSlots": 1,
									"returnSlots": 1
								}
							},
							"generatedSources": [
								{
									"ast": {
										"nodeType": "YulBlock",
										"src": "0:1025:1",
										"statements": [
											{
												"body": {
													"nodeType": "YulBlock",
													"src": "52:81:1",
													"statements": [
														{
															"nodeType": "YulAssignment",
															"src": "62:65:1",
															"value": {
																"arguments": [
																	{
																		"name": "value",
																		"nodeType": "YulIdentifier",
																		"src": "77:5:1"
																	},
																	{
																		"kind": "number",
																		"nodeType": "YulLiteral",
																		"src": "84:42:1",
																		"type": "",
																		"value": "0xffffffffffffffffffffffffffffffffffffffff"
																	}
																],
																"functionName": {
																	"name": "and",
																	"nodeType": "YulIdentifier",
																	"src": "73:3:1"
																},
																"nodeType": "YulFunctionCall",
																"src": "73:54:1"
															},
															"variableNames": [
																{
																	"name": "cleaned",
																	"nodeType": "YulIdentifier",
																	"src": "62:7:1"
																}
															]
														}
													]
												},
												"name": "cleanup_t_uint160",
												"nodeType": "YulFunctionDefinition",
												"parameters": [
													{
														"name": "value",
														"nodeType": "YulTypedName",
														"src": "34:5:1",
														"type": ""
													}
												],
												"returnVariables": [
													{
														"name": "cleaned",
														"nodeType": "YulTypedName",
														"src": "44:7:1",
														"type": ""
													}
												],
												"src": "7:126:1"
											},
											{
												"body": {
													"nodeType": "YulBlock",
													"src": "184:51:1",
													"statements": [
														{
															"nodeType": "YulAssignment",
															"src": "194:35:1",
															"value": {
																"arguments": [
																	{
																		"name": "value",
																		"nodeType": "YulIdentifier",
																		"src": "223:5:1"
																	}
																],
																"functionName": {
																	"name": "cleanup_t_uint160",
																	"nodeType": "YulIdentifier",
																	"src": "205:17:1"
																},
																"nodeType": "YulFunctionCall",
																"src": "205:24:1"
															},
															"variableNames": [
																{
																	"name": "cleaned",
																	"nodeType": "YulIdentifier",
																	"src": "194:7:1"
																}
															]
														}
													]
												},
												"name": "cleanup_t_address",
												"nodeType": "YulFunctionDefinition",
												"parameters": [
													{
														"name": "value",
														"nodeType": "YulTypedName",
														"src": "166:5:1",
														"type": ""
													}
												],
												"returnVariables": [
													{
														"name": "cleaned",
														"nodeType": "YulTypedName",
														"src": "176:7:1",
														"type": ""
													}
												],
												"src": "139:96:1"
											},
											{
												"body": {
													"nodeType": "YulBlock",
													"src": "306:53:1",
													"statements": [
														{
															"expression": {
																"arguments": [
																	{
																		"name": "pos",
																		"nodeType": "YulIdentifier",
																		"src": "323:3:1"
																	},
																	{
																		"arguments": [
																			{
																				"name": "value",
																				"nodeType": "YulIdentifier",
																				"src": "346:5:1"
																			}
																		],
																		"functionName": {
																			"name": "cleanup_t_address",
																			"nodeType": "YulIdentifier",
																			"src": "328:17:1"
																		},
																		"nodeType": "YulFunctionCall",
																		"src": "328:24:1"
																	}
																],
																"functionName": {
																	"name": "mstore",
																	"nodeType": "YulIdentifier",
																	"src": "316:6:1"
																},
																"nodeType": "YulFunctionCall",
																"src": "316:37:1"
															},
															"nodeType": "YulExpressionStatement",
															"src": "316:37:1"
														}
													]
												},
												"name": "abi_encode_t_address_to_t_address_fromStack",
												"nodeType": "YulFunctionDefinition",
												"parameters": [
													{
														"name": "value",
														"nodeType": "YulTypedName",
														"src": "294:5:1",
														"type": ""
													},
													{
														"name": "pos",
														"nodeType": "YulTypedName",
														"src": "301:3:1",
														"type": ""
													}
												],
												"src": "241:118:1"
											},
											{
												"body": {
													"nodeType": "YulBlock",
													"src": "463:124:1",
													"statements": [
														{
															"nodeType": "YulAssignment",
															"src": "473:26:1",
															"value": {
																"arguments": [
																	{
																		"name": "headStart",
																		"nodeType": "YulIdentifier",
																		"src": "485:9:1"
																	},
																	{
																		"kind": "number",
																		"nodeType": "YulLiteral",
																		"src": "496:2:1",
																		"type": "",
																		"value": "32"
																	}
																],
																"functionName": {
																	"name": "add",
																	"nodeType": "YulIdentifier",
																	"src": "481:3:1"
																},
																"nodeType": "YulFunctionCall",
																"src": "481:18:1"
															},
															"variableNames": [
																{
																	"name": "tail",
																	"nodeType": "YulIdentifier",
																	"src": "473:4:1"
																}
															]
														},
														{
															"expression": {
																"arguments": [
																	{
																		"name": "value0",
																		"nodeType": "YulIdentifier",
																		"src": "553:6:1"
																	},
																	{
																		"arguments": [
																			{
																				"name": "headStart",
																				"nodeType": "YulIdentifier",
																				"src": "566:9:1"
																			},
																			{
																				"kind": "number",
																				"nodeType": "YulLiteral",
																				"src": "577:1:1",
																				"type": "",
																				"value": "0"
																			}
																		],
																		"functionName": {
																			"name": "add",
																			"nodeType": "YulIdentifier",
																			"src": "562:3:1"
																		},
																		"nodeType": "YulFunctionCall",
																		"src": "562:17:1"
																	}
																],
																"functionName": {
																	"name": "abi_encode_t_address_to_t_address_fromStack",
																	"nodeType": "YulIdentifier",
																	"src": "509:43:1"
																},
																"nodeType": "YulFunctionCall",
																"src": "509:71:1"
															},
															"nodeType": "YulExpressionStatement",
															"src": "509:71:1"
														}
													]
												},
												"name": "abi_encode_tuple_t_address__to_t_address__fromStack_reversed",
												"nodeType": "YulFunctionDefinition",
												"parameters": [
													{
														"name": "headStart",
														"nodeType": "YulTypedName",
														"src": "435:9:1",
														"type": ""
													},
													{
														"name": "value0",
														"nodeType": "YulTypedName",
														"src": "447:6:1",
														"type": ""
													}
												],
												"returnVariables": [
													{
														"name": "tail",
														"nodeType": "YulTypedName",
														"src": "458:4:1",
														"type": ""
													}
												],
												"src": "365:222:1"
											},
											{
												"body": {
													"nodeType": "YulBlock",
													"src": "638:32:1",
													"statements": [
														{
															"nodeType": "YulAssignment",
															"src": "648:16:1",
															"value": {
																"name": "value",
																"nodeType": "YulIdentifier",
																"src": "659:5:1"
															},
															"variableNames": [
																{
																	"name": "cleaned",
																	"nodeType": "YulIdentifier",
																	"src": "648:7:1"
																}
															]
														}
													]
												},
												"name": "cleanup_t_uint256",
												"nodeType": "YulFunctionDefinition",
												"parameters": [
													{
														"name": "value",
														"nodeType": "YulTypedName",
														"src": "620:5:1",
														"type": ""
													}
												],
												"returnVariables": [
													{
														"name": "cleaned",
														"nodeType": "YulTypedName",
														"src": "630:7:1",
														"type": ""
													}
												],
												"src": "593:77:1"
											},
											{
												"body": {
													"nodeType": "YulBlock",
													"src": "741:53:1",
													"statements": [
														{
															"expression": {
																"arguments": [
																	{
																		"name": "pos",
																		"nodeType": "YulIdentifier",
																		"src": "758:3:1"
																	},
																	{
																		"arguments": [
																			{
																				"name": "value",
																				"nodeType": "YulIdentifier",
																				"src": "781:5:1"
																			}
																		],
																		"functionName": {
																			"name": "cleanup_t_uint256",
																			"nodeType": "YulIdentifier",
																			"src": "763:17:1"
																		},
																		"nodeType": "YulFunctionCall",
																		"src": "763:24:1"
																	}
																],
																"functionName": {
																	"name": "mstore",
																	"nodeType": "YulIdentifier",
																	"src": "751:6:1"
																},
																"nodeType": "YulFunctionCall",
																"src": "751:37:1"
															},
															"nodeType": "YulExpressionStatement",
															"src": "751:37:1"
														}
													]
												},
												"name": "abi_encode_t_uint256_to_t_uint256_fromStack",
												"nodeType": "YulFunctionDefinition",
												"parameters": [
													{
														"name": "value",
														"nodeType": "YulTypedName",
														"src": "729:5:1",
														"type": ""
													},
													{
														"name": "pos",
														"nodeType": "YulTypedName",
														"src": "736:3:1",
														"type": ""
													}
												],
												"src": "676:118:1"
											},
											{
												"body": {
													"nodeType": "YulBlock",
													"src": "898:124:1",
													"statements": [
														{
															"nodeType": "YulAssignment",
															"src": "908:26:1",
															"value": {
																"arguments": [
																	{
																		"name": "headStart",
																		"nodeType": "YulIdentifier",
																		"src": "920:9:1"
																	},
																	{
																		"kind": "number",
																		"nodeType": "YulLiteral",
																		"src": "931:2:1",
																		"type": "",
																		"value": "32"
																	}
																],
																"functionName": {
																	"name": "add",
																	"nodeType": "YulIdentifier",
																	"src": "916:3:1"
																},
																"nodeType": "YulFunctionCall",
																"src": "916:18:1"
															},
															"variableNames": [
																{
																	"name": "tail",
																	"nodeType": "YulIdentifier",
																	"src": "908:4:1"
																}
															]
														},
														{
															"expression": {
																"arguments": [
																	{
																		"name": "value0",
																		"nodeType": "YulIdentifier",
																		"src": "988:6:1"
																	},
																	{
																		"arguments": [
																			{
																				"name": "headStart",
																				"nodeType": "YulIdentifier",
																				"src": "1001:9:1"
																			},
																			{
																				"kind": "number",
																				"nodeType": "YulLiteral",
																				"src": "1012:1:1",
																				"type": "",
																				"value": "0"
																			}
																		],
																		"functionName": {
																			"name": "add",
																			"nodeType": "YulIdentifier",
																			"src": "997:3:1"
																		},
																		"nodeType": "YulFunctionCall",
																		"src": "997:17:1"
																	}
																],
																"functionName": {
																	"name": "abi_encode_t_uint256_to_t_uint256_fromStack",
																	"nodeType": "YulIdentifier",
																	"src": "944:43:1"
																},
																"nodeType": "YulFunctionCall",
																"src": "944:71:1"
															},
															"nodeType": "YulExpressionStatement",
															"src": "944:71:1"
														}
													]
												},
												"name": "abi_encode_tuple_t_uint256__to_t_uint256__fromStack_reversed",
												"nodeType": "YulFunctionDefinition",
												"parameters": [
													{
														"name": "headStart",
														"nodeType": "YulTypedName",
														"src": "870:9:1",
														"type": ""
													},
													{
														"name": "value0",
														"nodeType": "YulTypedName",
														"src": "882:6:1",
														"type": ""
													}
												],
												"returnVariables": [
													{
														"name": "tail",
														"nodeType": "YulTypedName",
														"src": "893:4:1",
														"type": ""
													}
												],
												"src": "800:222:1"
											}
										]
									},
									"contents": "{\n\n    function cleanup_t_uint160(value) -> cleaned {\n        cleaned := and(value, 0xffffffffffffffffffffffffffffffffffffffff)\n    }\n\n    function cleanup_t_address(value) -> cleaned {\n        cleaned := cleanup_t_uint160(value)\n    }\n\n    function abi_encode_t_address_to_t_address_fromStack(value, pos) {\n        mstore(pos, cleanup_t_address(value))\n    }\n\n    function abi_encode_tuple_t_address__to_t_address__fromStack_reversed(headStart , value0) -> tail {\n        tail := add(headStart, 32)\n\n        abi_encode_t_address_to_t_address_fromStack(value0,  add(headStart, 0))\n\n    }\n\n    function cleanup_t_uint256(value) -> cleaned {\n        cleaned := value\n    }\n\n    function abi_encode_t_uint256_to_t_uint256_fromStack(value, pos) {\n        mstore(pos, cleanup_t_uint256(value))\n    }\n\n    function abi_encode_tuple_t_uint256__to_t_uint256__fromStack_reversed(headStart , value0) -> tail {\n        tail := add(headStart, 32)\n\n        abi_encode_t_uint256_to_t_uint256_fromStack(value0,  add(headStart, 0))\n\n    }\n\n}\n",
									"id": 1,
									"language": "Yul",
									"name": "#utility.yul"
								}
							],
							"immutableReferences": {},
							"linkReferences": {},
							"object": "608060405234801561001057600080fd5b50600436106100365760003560e01c8063481c6a751461003b578063937e09b114610059575b600080fd5b610043610077565b60405161005091906100e2565b60405180910390f35b61006161009b565b60405161006e9190610116565b60405180910390f35b60008054906101000a900473ffffffffffffffffffffffffffffffffffffffff1681565b60015481565b600073ffffffffffffffffffffffffffffffffffffffff82169050919050565b60006100cc826100a1565b9050919050565b6100dc816100c1565b82525050565b60006020820190506100f760008301846100d3565b92915050565b6000819050919050565b610110816100fd565b82525050565b600060208201905061012b6000830184610107565b9291505056fea2646970667358221220cedd976a7addb05116835c911e2c0deabeecca642eff8e8aabb442cfab188a5d64736f6c634300080f0033",
							"opcodes": "PUSH1 0x80 PUSH1 0x40 MSTORE CALLVALUE DUP1 ISZERO PUSH2 0x10 JUMPI PUSH1 0x0 DUP1 REVERT JUMPDEST POP PUSH1 0x4 CALLDATASIZE LT PUSH2 0x36 JUMPI PUSH1 0x0 CALLDATALOAD PUSH1 0xE0 SHR DUP1 PUSH4 0x481C6A75 EQ PUSH2 0x3B JUMPI DUP1 PUSH4 0x937E09B1 EQ PUSH2 0x59 JUMPI JUMPDEST PUSH1 0x0 DUP1 REVERT JUMPDEST PUSH2 0x43 PUSH2 0x77 JUMP JUMPDEST PUSH1 0x40 MLOAD PUSH2 0x50 SWAP2 SWAP1 PUSH2 0xE2 JUMP JUMPDEST PUSH1 0x40 MLOAD DUP1 SWAP2 SUB SWAP1 RETURN JUMPDEST PUSH2 0x61 PUSH2 0x9B JUMP JUMPDEST PUSH1 0x40 MLOAD PUSH2 0x6E SWAP2 SWAP1 PUSH2 0x116 JUMP JUMPDEST PUSH1 0x40 MLOAD DUP1 SWAP2 SUB SWAP1 RETURN JUMPDEST PUSH1 0x0 DUP1 SLOAD SWAP1 PUSH2 0x100 EXP SWAP1 DIV PUSH20 0xFFFFFFFFFFFFFFFFFFFFFFFFFFFFFFFFFFFFFFFF AND DUP2 JUMP JUMPDEST PUSH1 0x1 SLOAD DUP2 JUMP JUMPDEST PUSH1 0x0 PUSH20 0xFFFFFFFFFFFFFFFFFFFFFFFFFFFFFFFFFFFFFFFF DUP3 AND SWAP1 POP SWAP2 SWAP1 POP JUMP JUMPDEST PUSH1 0x0 PUSH2 0xCC DUP3 PUSH2 0xA1 JUMP JUMPDEST SWAP1 POP SWAP2 SWAP1 POP JUMP JUMPDEST PUSH2 0xDC DUP2 PUSH2 0xC1 JUMP JUMPDEST DUP3 MSTORE POP POP JUMP JUMPDEST PUSH1 0x0 PUSH1 0x20 DUP3 ADD SWAP1 POP PUSH2 0xF7 PUSH1 0x0 DUP4 ADD DUP5 PUSH2 0xD3 JUMP JUMPDEST SWAP3 SWAP2 POP POP JUMP JUMPDEST PUSH1 0x0 DUP2 SWAP1 POP SWAP2 SWAP1 POP JUMP JUMPDEST PUSH2 0x110 DUP2 PUSH2 0xFD JUMP JUMPDEST DUP3 MSTORE POP POP JUMP JUMPDEST PUSH1 0x0 PUSH1 0x20 DUP3 ADD SWAP1 POP PUSH2 0x12B PUSH1 0x0 DUP4 ADD DUP5 PUSH2 0x107 JUMP JUMPDEST SWAP3 SWAP2 POP POP JUMP INVALID LOG2 PUSH5 0x6970667358 0x22 SLT KECCAK256 0xCE 0xDD SWAP8 PUSH11 0x7ADDB05116835C911E2C0D 0xEA 0xBE 0xEC 0xCA PUSH5 0x2EFF8E8AAB 0xB4 TIMESTAMP 0xCF 0xAB XOR DUP11 0x5D PUSH5 0x736F6C6343 STOP ADDMOD 0xF STOP CALLER ",
							"sourceMap": "25:100:0:-:0;;;;;;;;;;;;;;;;;;;;;;;;;;;;;;;;;;;;55:22;;;:::i;:::-;;;;;;;:::i;:::-;;;;;;;;84:31;;;:::i;:::-;;;;;;;:::i;:::-;;;;;;;;55:22;;;;;;;;;;;;:::o;84:31::-;;;;:::o;7:126:1:-;44:7;84:42;77:5;73:54;62:65;;7:126;;;:::o;139:96::-;176:7;205:24;223:5;205:24;:::i;:::-;194:35;;139:96;;;:::o;241:118::-;328:24;346:5;328:24;:::i;:::-;323:3;316:37;241:118;;:::o;365:222::-;458:4;496:2;485:9;481:18;473:26;;509:71;577:1;566:9;562:17;553:6;509:71;:::i;:::-;365:222;;;;:::o;593:77::-;630:7;659:5;648:16;;593:77;;;:::o;676:118::-;763:24;781:5;763:24;:::i;:::-;758:3;751:37;676:118;;:::o;800:222::-;893:4;931:2;920:9;916:18;908:26;;944:71;1012:1;1001:9;997:17;988:6;944:71;:::i;:::-;800:222;;;;:::o"
						},
						"gasEstimates": {
							"creation": {
								"codeDepositCost": "71800",
								"executionCost": "123",
								"totalCost": "71923"
							},
							"external": {
								"manager()": "2489",
								"minimumContribution()": "2429"
							}
						},
						"legacyAssembly": {
							".code": [
								{
									"begin": 25,
									"end": 125,
									"name": "PUSH",
									"source": 0,
									"value": "80"
								},
								{
									"begin": 25,
									"end": 125,
									"name": "PUSH",
									"source": 0,
									"value": "40"
								},
								{
									"begin": 25,
									"end": 125,
									"name": "MSTORE",
									"source": 0
								},
								{
									"begin": 25,
									"end": 125,
									"name": "CALLVALUE",
									"source": 0
								},
								{
									"begin": 25,
									"end": 125,
									"name": "DUP1",
									"source": 0
								},
								{
									"begin": 25,
									"end": 125,
									"name": "ISZERO",
									"source": 0
								},
								{
									"begin": 25,
									"end": 125,
									"name": "PUSH [tag]",
									"source": 0,
									"value": "1"
								},
								{
									"begin": 25,
									"end": 125,
									"name": "JUMPI",
									"source": 0
								},
								{
									"begin": 25,
									"end": 125,
									"name": "PUSH",
									"source": 0,
									"value": "0"
								},
								{
									"begin": 25,
									"end": 125,
									"name": "DUP1",
									"source": 0
								},
								{
									"begin": 25,
									"end": 125,
									"name": "REVERT",
									"source": 0
								},
								{
									"begin": 25,
									"end": 125,
									"name": "tag",
									"source": 0,
									"value": "1"
								},
								{
									"begin": 25,
									"end": 125,
									"name": "JUMPDEST",
									"source": 0
								},
								{
									"begin": 25,
									"end": 125,
									"name": "POP",
									"source": 0
								},
								{
									"begin": 25,
									"end": 125,
									"name": "PUSH #[$]",
									"source": 0,
									"value": "0000000000000000000000000000000000000000000000000000000000000000"
								},
								{
									"begin": 25,
									"end": 125,
									"name": "DUP1",
									"source": 0
								},
								{
									"begin": 25,
									"end": 125,
									"name": "PUSH [$]",
									"source": 0,
									"value": "0000000000000000000000000000000000000000000000000000000000000000"
								},
								{
									"begin": 25,
									"end": 125,
									"name": "PUSH",
									"source": 0,
									"value": "0"
								},
								{
									"begin": 25,
									"end": 125,
									"name": "CODECOPY",
									"source": 0
								},
								{
									"begin": 25,
									"end": 125,
									"name": "PUSH",
									"source": 0,
									"value": "0"
								},
								{
									"begin": 25,
									"end": 125,
									"name": "RETURN",
									"source": 0
								}
							],
							".data": {
								"0": {
									".auxdata": "a2646970667358221220cedd976a7addb05116835c911e2c0deabeecca642eff8e8aabb442cfab188a5d64736f6c634300080f0033",
									".code": [
										{
											"begin": 25,
											"end": 125,
											"name": "PUSH",
											"source": 0,
											"value": "80"
										},
										{
											"begin": 25,
											"end": 125,
											"name": "PUSH",
											"source": 0,
											"value": "40"
										},
										{
											"begin": 25,
											"end": 125,
											"name": "MSTORE",
											"source": 0
										},
										{
											"begin": 25,
											"end": 125,
											"name": "CALLVALUE",
											"source": 0
										},
										{
											"begin": 25,
											"end": 125,
											"name": "DUP1",
											"source": 0
										},
										{
											"begin": 25,
											"end": 125,
											"name": "ISZERO",
											"source": 0
										},
										{
											"begin": 25,
											"end": 125,
											"name": "PUSH [tag]",
											"source": 0,
											"value": "1"
										},
										{
											"begin": 25,
											"end": 125,
											"name": "JUMPI",
											"source": 0
										},
										{
											"begin": 25,
											"end": 125,
											"name": "PUSH",
											"source": 0,
											"value": "0"
										},
										{
											"begin": 25,
											"end": 125,
											"name": "DUP1",
											"source": 0
										},
										{
											"begin": 25,
											"end": 125,
											"name": "REVERT",
											"source": 0
										},
										{
											"begin": 25,
											"end": 125,
											"name": "tag",
											"source": 0,
											"value": "1"
										},
										{
											"begin": 25,
											"end": 125,
											"name": "JUMPDEST",
											"source": 0
										},
										{
											"begin": 25,
											"end": 125,
											"name": "POP",
											"source": 0
										},
										{
											"begin": 25,
											"end": 125,
											"name": "PUSH",
											"source": 0,
											"value": "4"
										},
										{
											"begin": 25,
											"end": 125,
											"name": "CALLDATASIZE",
											"source": 0
										},
										{
											"begin": 25,
											"end": 125,
											"name": "LT",
											"source": 0
										},
										{
											"begin": 25,
											"end": 125,
											"name": "PUSH [tag]",
											"source": 0,
											"value": "2"
										},
										{
											"begin": 25,
											"end": 125,
											"name": "JUMPI",
											"source": 0
										},
										{
											"begin": 25,
											"end": 125,
											"name": "PUSH",
											"source": 0,
											"value": "0"
										},
										{
											"begin": 25,
											"end": 125,
											"name": "CALLDATALOAD",
											"source": 0
										},
										{
											"begin": 25,
											"end": 125,
											"name": "PUSH",
											"source": 0,
											"value": "E0"
										},
										{
											"begin": 25,
											"end": 125,
											"name": "SHR",
											"source": 0
										},
										{
											"begin": 25,
											"end": 125,
											"name": "DUP1",
											"source": 0
										},
										{
											"begin": 25,
											"end": 125,
											"name": "PUSH",
											"source": 0,
											"value": "481C6A75"
										},
										{
											"begin": 25,
											"end": 125,
											"name": "EQ",
											"source": 0
										},
										{
											"begin": 25,
											"end": 125,
											"name": "PUSH [tag]",
											"source": 0,
											"value": "3"
										},
										{
											"begin": 25,
											"end": 125,
											"name": "JUMPI",
											"source": 0
										},
										{
											"begin": 25,
											"end": 125,
											"name": "DUP1",
											"source": 0
										},
										{
											"begin": 25,
											"end": 125,
											"name": "PUSH",
											"source": 0,
											"value": "937E09B1"
										},
										{
											"begin": 25,
											"end": 125,
											"name": "EQ",
											"source": 0
										},
										{
											"begin": 25,
											"end": 125,
											"name": "PUSH [tag]",
											"source": 0,
											"value": "4"
										},
										{
											"begin": 25,
											"end": 125,
											"name": "JUMPI",
											"source": 0
										},
										{
											"begin": 25,
											"end": 125,
											"name": "tag",
											"source": 0,
											"value": "2"
										},
										{
											"begin": 25,
											"end": 125,
											"name": "JUMPDEST",
											"source": 0
										},
										{
											"begin": 25,
											"end": 125,
											"name": "PUSH",
											"source": 0,
											"value": "0"
										},
										{
											"begin": 25,
											"end": 125,
											"name": "DUP1",
											"source": 0
										},
										{
											"begin": 25,
											"end": 125,
											"name": "REVERT",
											"source": 0
										},
										{
											"begin": 55,
											"end": 77,
											"name": "tag",
											"source": 0,
											"value": "3"
										},
										{
											"begin": 55,
											"end": 77,
											"name": "JUMPDEST",
											"source": 0
										},
										{
											"begin": 55,
											"end": 77,
											"name": "PUSH [tag]",
											"source": 0,
											"value": "5"
										},
										{
											"begin": 55,
											"end": 77,
											"name": "PUSH [tag]",
											"source": 0,
											"value": "6"
										},
										{
											"begin": 55,
											"end": 77,
											"jumpType": "[in]",
											"name": "JUMP",
											"source": 0
										},
										{
											"begin": 55,
											"end": 77,
											"name": "tag",
											"source": 0,
											"value": "5"
										},
										{
											"begin": 55,
											"end": 77,
											"name": "JUMPDEST",
											"source": 0
										},
										{
											"begin": 55,
											"end": 77,
											"name": "PUSH",
											"source": 0,
											"value": "40"
										},
										{
											"begin": 55,
											"end": 77,
											"name": "MLOAD",
											"source": 0
										},
										{
											"begin": 55,
											"end": 77,
											"name": "PUSH [tag]",
											"source": 0,
											"value": "7"
										},
										{
											"begin": 55,
											"end": 77,
											"name": "SWAP2",
											"source": 0
										},
										{
											"begin": 55,
											"end": 77,
											"name": "SWAP1",
											"source": 0
										},
										{
											"begin": 55,
											"end": 77,
											"name": "PUSH [tag]",
											"source": 0,
											"value": "8"
										},
										{
											"begin": 55,
											"end": 77,
											"jumpType": "[in]",
											"name": "JUMP",
											"source": 0
										},
										{
											"begin": 55,
											"end": 77,
											"name": "tag",
											"source": 0,
											"value": "7"
										},
										{
											"begin": 55,
											"end": 77,
											"name": "JUMPDEST",
											"source": 0
										},
										{
											"begin": 55,
											"end": 77,
											"name": "PUSH",
											"source": 0,
											"value": "40"
										},
										{
											"begin": 55,
											"end": 77,
											"name": "MLOAD",
											"source": 0
										},
										{
											"begin": 55,
											"end": 77,
											"name": "DUP1",
											"source": 0
										},
										{
											"begin": 55,
											"end": 77,
											"name": "SWAP2",
											"source": 0
										},
										{
											"begin": 55,
											"end": 77,
											"name": "SUB",
											"source": 0
										},
										{
											"begin": 55,
											"end": 77,
											"name": "SWAP1",
											"source": 0
										},
										{
											"begin": 55,
											"end": 77,
											"name": "RETURN",
											"source": 0
										},
										{
											"begin": 84,
											"end": 115,
											"name": "tag",
											"source": 0,
											"value": "4"
										},
										{
											"begin": 84,
											"end": 115,
											"name": "JUMPDEST",
											"source": 0
										},
										{
											"begin": 84,
											"end": 115,
											"name": "PUSH [tag]",
											"source": 0,
											"value": "9"
										},
										{
											"begin": 84,
											"end": 115,
											"name": "PUSH [tag]",
											"source": 0,
											"value": "10"
										},
										{
											"begin": 84,
											"end": 115,
											"jumpType": "[in]",
											"name": "JUMP",
											"source": 0
										},
										{
											"begin": 84,
											"end": 115,
											"name": "tag",
											"source": 0,
											"value": "9"
										},
										{
											"begin": 84,
											"end": 115,
											"name": "JUMPDEST",
											"source": 0
										},
										{
											"begin": 84,
											"end": 115,
											"name": "PUSH",
											"source": 0,
											"value": "40"
										},
										{
											"begin": 84,
											"end": 115,
											"name": "MLOAD",
											"source": 0
										},
										{
											"begin": 84,
											"end": 115,
											"name": "PUSH [tag]",
											"source": 0,
											"value": "11"
										},
										{
											"begin": 84,
											"end": 115,
											"name": "SWAP2",
											"source": 0
										},
										{
											"begin": 84,
											"end": 115,
											"name": "SWAP1",
											"source": 0
										},
										{
											"begin": 84,
											"end": 115,
											"name": "PUSH [tag]",
											"source": 0,
											"value": "12"
										},
										{
											"begin": 84,
											"end": 115,
											"jumpType": "[in]",
											"name": "JUMP",
											"source": 0
										},
										{
											"begin": 84,
											"end": 115,
											"name": "tag",
											"source": 0,
											"value": "11"
										},
										{
											"begin": 84,
											"end": 115,
											"name": "JUMPDEST",
											"source": 0
										},
										{
											"begin": 84,
											"end": 115,
											"name": "PUSH",
											"source": 0,
											"value": "40"
										},
										{
											"begin": 84,
											"end": 115,
											"name": "MLOAD",
											"source": 0
										},
										{
											"begin": 84,
											"end": 115,
											"name": "DUP1",
											"source": 0
										},
										{
											"begin": 84,
											"end": 115,
											"name": "SWAP2",
											"source": 0
										},
										{
											"begin": 84,
											"end": 115,
											"name": "SUB",
											"source": 0
										},
										{
											"begin": 84,
											"end": 115,
											"name": "SWAP1",
											"source": 0
										},
										{
											"begin": 84,
											"end": 115,
											"name": "RETURN",
											"source": 0
										},
										{
											"begin": 55,
											"end": 77,
											"name": "tag",
											"source": 0,
											"value": "6"
										},
										{
											"begin": 55,
											"end": 77,
											"name": "JUMPDEST",
											"source": 0
										},
										{
											"begin": 55,
											"end": 77,
											"name": "PUSH",
											"source": 0,
											"value": "0"
										},
										{
											"begin": 55,
											"end": 77,
											"name": "DUP1",
											"source": 0
										},
										{
											"begin": 55,
											"end": 77,
											"name": "SLOAD",
											"source": 0
										},
										{
											"begin": 55,
											"end": 77,
											"name": "SWAP1",
											"source": 0
										},
										{
											"begin": 55,
											"end": 77,
											"name": "PUSH",
											"source": 0,
											"value": "100"
										},
										{
											"begin": 55,
											"end": 77,
											"name": "EXP",
											"source": 0
										},
										{
											"begin": 55,
											"end": 77,
											"name": "SWAP1",
											"source": 0
										},
										{
											"begin": 55,
											"end": 77,
											"name": "DIV",
											"source": 0
										},
										{
											"begin": 55,
											"end": 77,
											"name": "PUSH",
											"source": 0,
											"value": "FFFFFFFFFFFFFFFFFFFFFFFFFFFFFFFFFFFFFFFF"
										},
										{
											"begin": 55,
											"end": 77,
											"name": "AND",
											"source": 0
										},
										{
											"begin": 55,
											"end": 77,
											"name": "DUP2",
											"source": 0
										},
										{
											"begin": 55,
											"end": 77,
											"jumpType": "[out]",
											"name": "JUMP",
											"source": 0
										},
										{
											"begin": 84,
											"end": 115,
											"name": "tag",
											"source": 0,
											"value": "10"
										},
										{
											"begin": 84,
											"end": 115,
											"name": "JUMPDEST",
											"source": 0
										},
										{
											"begin": 84,
											"end": 115,
											"name": "PUSH",
											"source": 0,
											"value": "1"
										},
										{
											"begin": 84,
											"end": 115,
											"name": "SLOAD",
											"source": 0
										},
										{
											"begin": 84,
											"end": 115,
											"name": "DUP2",
											"source": 0
										},
										{
											"begin": 84,
											"end": 115,
											"jumpType": "[out]",
											"name": "JUMP",
											"source": 0
										},
										{
											"begin": 7,
											"end": 133,
											"name": "tag",
											"source": 1,
											"value": "13"
										},
										{
											"begin": 7,
											"end": 133,
											"name": "JUMPDEST",
											"source": 1
										},
										{
											"begin": 44,
											"end": 51,
											"name": "PUSH",
											"source": 1,
											"value": "0"
										},
										{
											"begin": 84,
											"end": 126,
											"name": "PUSH",
											"source": 1,
											"value": "FFFFFFFFFFFFFFFFFFFFFFFFFFFFFFFFFFFFFFFF"
										},
										{
											"begin": 77,
											"end": 82,
											"name": "DUP3",
											"source": 1
										},
										{
											"begin": 73,
											"end": 127,
											"name": "AND",
											"source": 1
										},
										{
											"begin": 62,
											"end": 127,
											"name": "SWAP1",
											"source": 1
										},
										{
											"begin": 62,
											"end": 127,
											"name": "POP",
											"source": 1
										},
										{
											"begin": 7,
											"end": 133,
											"name": "SWAP2",
											"source": 1
										},
										{
											"begin": 7,
											"end": 133,
											"name": "SWAP1",
											"source": 1
										},
										{
											"begin": 7,
											"end": 133,
											"name": "POP",
											"source": 1
										},
										{
											"begin": 7,
											"end": 133,
											"jumpType": "[out]",
											"name": "JUMP",
											"source": 1
										},
										{
											"begin": 139,
											"end": 235,
											"name": "tag",
											"source": 1,
											"value": "14"
										},
										{
											"begin": 139,
											"end": 235,
											"name": "JUMPDEST",
											"source": 1
										},
										{
											"begin": 176,
											"end": 183,
											"name": "PUSH",
											"source": 1,
											"value": "0"
										},
										{
											"begin": 205,
											"end": 229,
											"name": "PUSH [tag]",
											"source": 1,
											"value": "21"
										},
										{
											"begin": 223,
											"end": 228,
											"name": "DUP3",
											"source": 1
										},
										{
											"begin": 205,
											"end": 229,
											"name": "PUSH [tag]",
											"source": 1,
											"value": "13"
										},
										{
											"begin": 205,
											"end": 229,
											"jumpType": "[in]",
											"name": "JUMP",
											"source": 1
										},
										{
											"begin": 205,
											"end": 229,
											"name": "tag",
											"source": 1,
											"value": "21"
										},
										{
											"begin": 205,
											"end": 229,
											"name": "JUMPDEST",
											"source": 1
										},
										{
											"begin": 194,
											"end": 229,
											"name": "SWAP1",
											"source": 1
										},
										{
											"begin": 194,
											"end": 229,
											"name": "POP",
											"source": 1
										},
										{
											"begin": 139,
											"end": 235,
											"name": "SWAP2",
											"source": 1
										},
										{
											"begin": 139,
											"end": 235,
											"name": "SWAP1",
											"source": 1
										},
										{
											"begin": 139,
											"end": 235,
											"name": "POP",
											"source": 1
										},
										{
											"begin": 139,
											"end": 235,
											"jumpType": "[out]",
											"name": "JUMP",
											"source": 1
										},
										{
											"begin": 241,
											"end": 359,
											"name": "tag",
											"source": 1,
											"value": "15"
										},
										{
											"begin": 241,
											"end": 359,
											"name": "JUMPDEST",
											"source": 1
										},
										{
											"begin": 328,
											"end": 352,
											"name": "PUSH [tag]",
											"source": 1,
											"value": "23"
										},
										{
											"begin": 346,
											"end": 351,
											"name": "DUP2",
											"source": 1
										},
										{
											"begin": 328,
											"end": 352,
											"name": "PUSH [tag]",
											"source": 1,
											"value": "14"
										},
										{
											"begin": 328,
											"end": 352,
											"jumpType": "[in]",
											"name": "JUMP",
											"source": 1
										},
										{
											"begin": 328,
											"end": 352,
											"name": "tag",
											"source": 1,
											"value": "23"
										},
										{
											"begin": 328,
											"end": 352,
											"name": "JUMPDEST",
											"source": 1
										},
										{
											"begin": 323,
											"end": 326,
											"name": "DUP3",
											"source": 1
										},
										{
											"begin": 316,
											"end": 353,
											"name": "MSTORE",
											"source": 1
										},
										{
											"begin": 241,
											"end": 359,
											"name": "POP",
											"source": 1
										},
										{
											"begin": 241,
											"end": 359,
											"name": "POP",
											"source": 1
										},
										{
											"begin": 241,
											"end": 359,
											"jumpType": "[out]",
											"name": "JUMP",
											"source": 1
										},
										{
											"begin": 365,
											"end": 587,
											"name": "tag",
											"source": 1,
											"value": "8"
										},
										{
											"begin": 365,
											"end": 587,
											"name": "JUMPDEST",
											"source": 1
										},
										{
											"begin": 458,
											"end": 462,
											"name": "PUSH",
											"source": 1,
											"value": "0"
										},
										{
											"begin": 496,
											"end": 498,
											"name": "PUSH",
											"source": 1,
											"value": "20"
										},
										{
											"begin": 485,
											"end": 494,
											"name": "DUP3",
											"source": 1
										},
										{
											"begin": 481,
											"end": 499,
											"name": "ADD",
											"source": 1
										},
										{
											"begin": 473,
											"end": 499,
											"name": "SWAP1",
											"source": 1
										},
										{
											"begin": 473,
											"end": 499,
											"name": "POP",
											"source": 1
										},
										{
											"begin": 509,
											"end": 580,
											"name": "PUSH [tag]",
											"source": 1,
											"value": "25"
										},
										{
											"begin": 577,
											"end": 578,
											"name": "PUSH",
											"source": 1,
											"value": "0"
										},
										{
											"begin": 566,
											"end": 575,
											"name": "DUP4",
											"source": 1
										},
										{
											"begin": 562,
											"end": 579,
											"name": "ADD",
											"source": 1
										},
										{
											"begin": 553,
											"end": 559,
											"name": "DUP5",
											"source": 1
										},
										{
											"begin": 509,
											"end": 580,
											"name": "PUSH [tag]",
											"source": 1,
											"value": "15"
										},
										{
											"begin": 509,
											"end": 580,
											"jumpType": "[in]",
											"name": "JUMP",
											"source": 1
										},
										{
											"begin": 509,
											"end": 580,
											"name": "tag",
											"source": 1,
											"value": "25"
										},
										{
											"begin": 509,
											"end": 580,
											"name": "JUMPDEST",
											"source": 1
										},
										{
											"begin": 365,
											"end": 587,
											"name": "SWAP3",
											"source": 1
										},
										{
											"begin": 365,
											"end": 587,
											"name": "SWAP2",
											"source": 1
										},
										{
											"begin": 365,
											"end": 587,
											"name": "POP",
											"source": 1
										},
										{
											"begin": 365,
											"end": 587,
											"name": "POP",
											"source": 1
										},
										{
											"begin": 365,
											"end": 587,
											"jumpType": "[out]",
											"name": "JUMP",
											"source": 1
										},
										{
											"begin": 593,
											"end": 670,
											"name": "tag",
											"source": 1,
											"value": "16"
										},
										{
											"begin": 593,
											"end": 670,
											"name": "JUMPDEST",
											"source": 1
										},
										{
											"begin": 630,
											"end": 637,
											"name": "PUSH",
											"source": 1,
											"value": "0"
										},
										{
											"begin": 659,
											"end": 664,
											"name": "DUP2",
											"source": 1
										},
										{
											"begin": 648,
											"end": 664,
											"name": "SWAP1",
											"source": 1
										},
										{
											"begin": 648,
											"end": 664,
											"name": "POP",
											"source": 1
										},
										{
											"begin": 593,
											"end": 670,
											"name": "SWAP2",
											"source": 1
										},
										{
											"begin": 593,
											"end": 670,
											"name": "SWAP1",
											"source": 1
										},
										{
											"begin": 593,
											"end": 670,
											"name": "POP",
											"source": 1
										},
										{
											"begin": 593,
											"end": 670,
											"jumpType": "[out]",
											"name": "JUMP",
											"source": 1
										},
										{
											"begin": 676,
											"end": 794,
											"name": "tag",
											"source": 1,
											"value": "17"
										},
										{
											"begin": 676,
											"end": 794,
											"name": "JUMPDEST",
											"source": 1
										},
										{
											"begin": 763,
											"end": 787,
											"name": "PUSH [tag]",
											"source": 1,
											"value": "28"
										},
										{
											"begin": 781,
											"end": 786,
											"name": "DUP2",
											"source": 1
										},
										{
											"begin": 763,
											"end": 787,
											"name": "PUSH [tag]",
											"source": 1,
											"value": "16"
										},
										{
											"begin": 763,
											"end": 787,
											"jumpType": "[in]",
											"name": "JUMP",
											"source": 1
										},
										{
											"begin": 763,
											"end": 787,
											"name": "tag",
											"source": 1,
											"value": "28"
										},
										{
											"begin": 763,
											"end": 787,
											"name": "JUMPDEST",
											"source": 1
										},
										{
											"begin": 758,
											"end": 761,
											"name": "DUP3",
											"source": 1
										},
										{
											"begin": 751,
											"end": 788,
											"name": "MSTORE",
											"source": 1
										},
										{
											"begin": 676,
											"end": 794,
											"name": "POP",
											"source": 1
										},
										{
											"begin": 676,
											"end": 794,
											"name": "POP",
											"source": 1
										},
										{
											"begin": 676,
											"end": 794,
											"jumpType": "[out]",
											"name": "JUMP",
											"source": 1
										},
										{
											"begin": 800,
											"end": 1022,
											"name": "tag",
											"source": 1,
											"value": "12"
										},
										{
											"begin": 800,
											"end": 1022,
											"name": "JUMPDEST",
											"source": 1
										},
										{
											"begin": 893,
											"end": 897,
											"name": "PUSH",
											"source": 1,
											"value": "0"
										},
										{
											"begin": 931,
											"end": 933,
											"name": "PUSH",
											"source": 1,
											"value": "20"
										},
										{
											"begin": 920,
											"end": 929,
											"name": "DUP3",
											"source": 1
										},
										{
											"begin": 916,
											"end": 934,
											"name": "ADD",
											"source": 1
										},
										{
											"begin": 908,
											"end": 934,
											"name": "SWAP1",
											"source": 1
										},
										{
											"begin": 908,
											"end": 934,
											"name": "POP",
											"source": 1
										},
										{
											"begin": 944,
											"end": 1015,
											"name": "PUSH [tag]",
											"source": 1,
											"value": "30"
										},
										{
											"begin": 1012,
											"end": 1013,
											"name": "PUSH",
											"source": 1,
											"value": "0"
										},
										{
											"begin": 1001,
											"end": 1010,
											"name": "DUP4",
											"source": 1
										},
										{
											"begin": 997,
											"end": 1014,
											"name": "ADD",
											"source": 1
										},
										{
											"begin": 988,
											"end": 994,
											"name": "DUP5",
											"source": 1
										},
										{
											"begin": 944,
											"end": 1015,
											"name": "PUSH [tag]",
											"source": 1,
											"value": "17"
										},
										{
											"begin": 944,
											"end": 1015,
											"jumpType": "[in]",
											"name": "JUMP",
											"source": 1
										},
										{
											"begin": 944,
											"end": 1015,
											"name": "tag",
											"source": 1,
											"value": "30"
										},
										{
											"begin": 944,
											"end": 1015,
											"name": "JUMPDEST",
											"source": 1
										},
										{
											"begin": 800,
											"end": 1022,
											"name": "SWAP3",
											"source": 1
										},
										{
											"begin": 800,
											"end": 1022,
											"name": "SWAP2",
											"source": 1
										},
										{
											"begin": 800,
											"end": 1022,
											"name": "POP",
											"source": 1
										},
										{
											"begin": 800,
											"end": 1022,
											"name": "POP",
											"source": 1
										},
										{
											"begin": 800,
											"end": 1022,
											"jumpType": "[out]",
											"name": "JUMP",
											"source": 1
										}
									]
								}
							},
							"sourceList": [
								"contracts/Campaign.sol",
								"#utility.yul"
							]
						},
						"methodIdentifiers": {
							"manager()": "481c6a75",
							"minimumContribution()": "937e09b1"
						}
					},
					"metadata": "{\"compiler\":{\"version\":\"0.8.15+commit.e14f2714\"},\"language\":\"Solidity\",\"output\":{\"abi\":[{\"inputs\":[],\"name\":\"manager\",\"outputs\":[{\"internalType\":\"address\",\"name\":\"\",\"type\":\"address\"}],\"stateMutability\":\"view\",\"type\":\"function\"},{\"inputs\":[],\"name\":\"minimumContribution\",\"outputs\":[{\"internalType\":\"uint256\",\"name\":\"\",\"type\":\"uint256\"}],\"stateMutability\":\"view\",\"type\":\"function\"}],\"devdoc\":{\"kind\":\"dev\",\"methods\":{},\"version\":1},\"userdoc\":{\"kind\":\"user\",\"methods\":{},\"version\":1}},\"settings\":{\"compilationTarget\":{\"contracts/Campaign.sol\":\"Campaign\"},\"evmVersion\":\"london\",\"libraries\":{},\"metadata\":{\"bytecodeHash\":\"ipfs\"},\"optimizer\":{\"enabled\":false,\"runs\":200},\"remappings\":[]},\"sources\":{\"contracts/Campaign.sol\":{\"keccak256\":\"0x1f851b500aec6611e145d7453ba86f36ce18d72adc54a1e0ffd462a5d717866f\",\"urls\":[\"bzz-raw://2e21f6b66a82d6d0dbf2e224c244fd49d6793610a3d56cc8a707a7cc223783f8\",\"dweb:/ipfs/Qmdxxte6Z8GSEwxpnxDvJo1j6vjXCXCfLhLz8bqhigZo17\"]}},\"version\":1}",
					"storageLayout": {
						"storage": [
							{
								"astId": 3,
								"contract": "contracts/Campaign.sol:Campaign",
								"label": "manager",
								"offset": 0,
								"slot": "0",
								"type": "t_address"
							},
							{
								"astId": 5,
								"contract": "contracts/Campaign.sol:Campaign",
								"label": "minimumContribution",
								"offset": 0,
								"slot": "1",
								"type": "t_uint256"
							}
						],
						"types": {
							"t_address": {
								"encoding": "inplace",
								"label": "address",
								"numberOfBytes": "20"
							},
							"t_uint256": {
								"encoding": "inplace",
								"label": "uint256",
								"numberOfBytes": "32"
							}
						}
					},
					"userdoc": {
						"kind": "user",
						"methods": {},
						"version": 1
					}
				}
			}
		},
		"errors": [
			{
				"component": "general",
				"errorCode": "1878",
				"formattedMessage": "Warning: SPDX license identifier not provided in source file. Before publishing, consider adding a comment containing \"SPDX-License-Identifier: <SPDX-License>\" to each source file. Use \"SPDX-License-Identifier: UNLICENSED\" for non-open-source code. Please see https://spdx.org for more information.\n--> contracts/Campaign.sol\n\n",
				"message": "SPDX license identifier not provided in source file. Before publishing, consider adding a comment containing \"SPDX-License-Identifier: <SPDX-License>\" to each source file. Use \"SPDX-License-Identifier: UNLICENSED\" for non-open-source code. Please see https://spdx.org for more information.",
				"severity": "warning",
				"sourceLocation": {
					"end": -1,
					"file": "contracts/Campaign.sol",
					"start": -1
				},
				"type": "Warning"
			}
		],
		"sources": {
			"contracts/Campaign.sol": {
				"ast": {
					"absolutePath": "contracts/Campaign.sol",
					"exportedSymbols": {
						"Campaign": [
							6
						]
					},
					"id": 7,
					"nodeType": "SourceUnit",
					"nodes": [
						{
							"id": 1,
							"literals": [
								"solidity",
								"^",
								"0.8",
								".0"
							],
							"nodeType": "PragmaDirective",
							"src": "0:23:0"
						},
						{
							"abstract": false,
							"baseContracts": [],
							"canonicalName": "Campaign",
							"contractDependencies": [],
							"contractKind": "contract",
							"fullyImplemented": true,
							"id": 6,
							"linearizedBaseContracts": [
								6
							],
							"name": "Campaign",
							"nameLocation": "34:8:0",
							"nodeType": "ContractDefinition",
							"nodes": [
								{
									"constant": false,
									"functionSelector": "481c6a75",
									"id": 3,
									"mutability": "mutable",
									"name": "manager",
									"nameLocation": "70:7:0",
									"nodeType": "VariableDeclaration",
									"scope": 6,
									"src": "55:22:0",
									"stateVariable": true,
									"storageLocation": "default",
									"typeDescriptions": {
										"typeIdentifier": "t_address",
										"typeString": "address"
									},
									"typeName": {
										"id": 2,
										"name": "address",
										"nodeType": "ElementaryTypeName",
										"src": "55:7:0",
										"stateMutability": "nonpayable",
										"typeDescriptions": {
											"typeIdentifier": "t_address",
											"typeString": "address"
										}
									},
									"visibility": "public"
								},
								{
									"constant": false,
									"functionSelector": "937e09b1",
									"id": 5,
									"mutability": "mutable",
									"name": "minimumContribution",
									"nameLocation": "96:19:0",
									"nodeType": "VariableDeclaration",
									"scope": 6,
									"src": "84:31:0",
									"stateVariable": true,
									"storageLocation": "default",
									"typeDescriptions": {
										"typeIdentifier": "t_uint256",
										"typeString": "uint256"
									},
									"typeName": {
										"id": 4,
										"name": "uint",
										"nodeType": "ElementaryTypeName",
										"src": "84:4:0",
										"typeDescriptions": {
											"typeIdentifier": "t_uint256",
											"typeString": "uint256"
										}
									},
									"visibility": "public"
								}
							],
							"scope": 7,
							"src": "25:100:0",
							"usedErrors": []
						}
					],
					"src": "0:125:0"
				},
				"id": 0
			}
		}
	}
}