{
	"id": "25d6325749c35ec4a612c316f2f60015",
	"_format": "hh-sol-build-info-1",
	"solcVersion": "0.8.7",
	"solcLongVersion": "0.8.7+commit.e28d00a7",
	"input": {
		"language": "Solidity",
		"sources": {
			"ERC20.sol": {
				"content": "//SPDX-License-Identifier: Rahul pithdia\npragma solidity ^0.8.0;\n\ncontract ERC20{\n    string private name;\n    \n\n}"
			}
		},
		"settings": {
			"optimizer": {
				"enabled": false,
				"runs": 200
			},
			"outputSelection": {
				"*": {
					"": [
						"ast"
					],
					"*": [
						"abi",
						"metadata",
						"devdoc",
						"userdoc",
						"storageLayout",
						"evm.legacyAssembly",
						"evm.bytecode",
						"evm.deployedBytecode",
						"evm.methodIdentifiers",
						"evm.gasEstimates",
						"evm.assembly"
					]
				}
			}
		}
	},
	"output": {
		"contracts": {
			"ERC20.sol": {
				"ERC20": {
					"abi": [],
					"devdoc": {
						"kind": "dev",
						"methods": {},
						"version": 1
					},
					"evm": {
						"assembly": "    /* \"ERC20.sol\":66:114  contract ERC20{... */\n  mstore(0x40, 0x80)\n  callvalue\n  dup1\n  iszero\n  tag_1\n  jumpi\n  0x00\n  dup1\n  revert\ntag_1:\n  pop\n  dataSize(sub_0)\n  dup1\n  dataOffset(sub_0)\n  0x00\n  codecopy\n  0x00\n  return\nstop\n\nsub_0: assembly {\n        /* \"ERC20.sol\":66:114  contract ERC20{... */\n      mstore(0x40, 0x80)\n      0x00\n      dup1\n      revert\n\n    auxdata: 0xa26469706673582212201182e5ee0652d8858172a92c648348565191d965c23a5533d0505c9c7a4e470864736f6c63430008070033\n}\n",
						"bytecode": {
							"functionDebugData": {},
							"generatedSources": [],
							"linkReferences": {},
							"object": "6080604052348015600f57600080fd5b50603f80601d6000396000f3fe6080604052600080fdfea26469706673582212201182e5ee0652d8858172a92c648348565191d965c23a5533d0505c9c7a4e470864736f6c63430008070033",
							"opcodes": "PUSH1 0x80 PUSH1 0x40 MSTORE CALLVALUE DUP1 ISZERO PUSH1 0xF JUMPI PUSH1 0x0 DUP1 REVERT JUMPDEST POP PUSH1 0x3F DUP1 PUSH1 0x1D PUSH1 0x0 CODECOPY PUSH1 0x0 RETURN INVALID PUSH1 0x80 PUSH1 0x40 MSTORE PUSH1 0x0 DUP1 REVERT INVALID LOG2 PUSH5 0x6970667358 0x22 SLT KECCAK256 GT DUP3 0xE5 0xEE MOD MSTORE 0xD8 DUP6 DUP2 PUSH19 0xA92C648348565191D965C23A5533D0505C9C7A 0x4E SELFBALANCE ADDMOD PUSH5 0x736F6C6343 STOP ADDMOD SMOD STOP CALLER ",
							"sourceMap": "66:48:0:-:0;;;;;;;;;;;;;;;;;;;"
						},
						"deployedBytecode": {
							"functionDebugData": {},
							"generatedSources": [],
							"immutableReferences": {},
							"linkReferences": {},
							"object": "6080604052600080fdfea26469706673582212201182e5ee0652d8858172a92c648348565191d965c23a5533d0505c9c7a4e470864736f6c63430008070033",
							"opcodes": "PUSH1 0x80 PUSH1 0x40 MSTORE PUSH1 0x0 DUP1 REVERT INVALID LOG2 PUSH5 0x6970667358 0x22 SLT KECCAK256 GT DUP3 0xE5 0xEE MOD MSTORE 0xD8 DUP6 DUP2 PUSH19 0xA92C648348565191D965C23A5533D0505C9C7A 0x4E SELFBALANCE ADDMOD PUSH5 0x736F6C6343 STOP ADDMOD SMOD STOP CALLER ",
							"sourceMap": "66:48:0:-:0;;;;;"
						},
						"gasEstimates": {
							"creation": {
								"codeDepositCost": "12600",
								"executionCost": "66",
								"totalCost": "12666"
							}
						},
						"legacyAssembly": {
							".code": [
								{
									"begin": 66,
									"end": 114,
									"name": "PUSH",
									"source": 0,
									"value": "80"
								},
								{
									"begin": 66,
									"end": 114,
									"name": "PUSH",
									"source": 0,
									"value": "40"
								},
								{
									"begin": 66,
									"end": 114,
									"name": "MSTORE",
									"source": 0
								},
								{
									"begin": 66,
									"end": 114,
									"name": "CALLVALUE",
									"source": 0
								},
								{
									"begin": 66,
									"end": 114,
									"name": "DUP1",
									"source": 0
								},
								{
									"begin": 66,
									"end": 114,
									"name": "ISZERO",
									"source": 0
								},
								{
									"begin": 66,
									"end": 114,
									"name": "PUSH [tag]",
									"source": 0,
									"value": "1"
								},
								{
									"begin": 66,
									"end": 114,
									"name": "JUMPI",
									"source": 0
								},
								{
									"begin": 66,
									"end": 114,
									"name": "PUSH",
									"source": 0,
									"value": "0"
								},
								{
									"begin": 66,
									"end": 114,
									"name": "DUP1",
									"source": 0
								},
								{
									"begin": 66,
									"end": 114,
									"name": "REVERT",
									"source": 0
								},
								{
									"begin": 66,
									"end": 114,
									"name": "tag",
									"source": 0,
									"value": "1"
								},
								{
									"begin": 66,
									"end": 114,
									"name": "JUMPDEST",
									"source": 0
								},
								{
									"begin": 66,
									"end": 114,
									"name": "POP",
									"source": 0
								},
								{
									"begin": 66,
									"end": 114,
									"name": "PUSH #[$]",
									"source": 0,
									"value": "0000000000000000000000000000000000000000000000000000000000000000"
								},
								{
									"begin": 66,
									"end": 114,
									"name": "DUP1",
									"source": 0
								},
								{
									"begin": 66,
									"end": 114,
									"name": "PUSH [$]",
									"source": 0,
									"value": "0000000000000000000000000000000000000000000000000000000000000000"
								},
								{
									"begin": 66,
									"end": 114,
									"name": "PUSH",
									"source": 0,
									"value": "0"
								},
								{
									"begin": 66,
									"end": 114,
									"name": "CODECOPY",
									"source": 0
								},
								{
									"begin": 66,
									"end": 114,
									"name": "PUSH",
									"source": 0,
									"value": "0"
								},
								{
									"begin": 66,
									"end": 114,
									"name": "RETURN",
									"source": 0
								}
							],
							".data": {
								"0": {
									".auxdata": "a26469706673582212201182e5ee0652d8858172a92c648348565191d965c23a5533d0505c9c7a4e470864736f6c63430008070033",
									".code": [
										{
											"begin": 66,
											"end": 114,
											"name": "PUSH",
											"source": 0,
											"value": "80"
										},
										{
											"begin": 66,
											"end": 114,
											"name": "PUSH",
											"source": 0,
											"value": "40"
										},
										{
											"begin": 66,
											"end": 114,
											"name": "MSTORE",
											"source": 0
										},
										{
											"begin": 66,
											"end": 114,
											"name": "PUSH",
											"source": 0,
											"value": "0"
										},
										{
											"begin": 66,
											"end": 114,
											"name": "DUP1",
											"source": 0
										},
										{
											"begin": 66,
											"end": 114,
											"name": "REVERT",
											"source": 0
										}
									]
								}
							}
						},
						"methodIdentifiers": {}
					},
					"metadata": "{\"compiler\":{\"version\":\"0.8.7+commit.e28d00a7\"},\"language\":\"Solidity\",\"output\":{\"abi\":[],\"devdoc\":{\"kind\":\"dev\",\"methods\":{},\"version\":1},\"userdoc\":{\"kind\":\"user\",\"methods\":{},\"version\":1}},\"settings\":{\"compilationTarget\":{\"ERC20.sol\":\"ERC20\"},\"evmVersion\":\"london\",\"libraries\":{},\"metadata\":{\"bytecodeHash\":\"ipfs\"},\"optimizer\":{\"enabled\":false,\"runs\":200},\"remappings\":[]},\"sources\":{\"ERC20.sol\":{\"keccak256\":\"0xabf67811bfee0b592a38b2ae778bf9a5dec3c33af81d797fe6663b71dcbab3d0\",\"license\":\"Rahul pithdia\",\"urls\":[\"bzz-raw://f0005ad6b18ef4373996a122885d320529ca01554ae04714f5641bc4933f0f89\",\"dweb:/ipfs/QmdbXAKJGfXooMm7z4Es2ovJmuaAHBMkULTYW375goDtsv\"]}},\"version\":1}",
					"storageLayout": {
						"storage": [
							{
								"astId": 3,
								"contract": "ERC20.sol:ERC20",
								"label": "name",
								"offset": 0,
								"slot": "0",
								"type": "t_string_storage"
							}
						],
						"types": {
							"t_string_storage": {
								"encoding": "bytes",
								"label": "string",
								"numberOfBytes": "32"
							}
						}
					},
					"userdoc": {
						"kind": "user",
						"methods": {},
						"version": 1
					}
				}
			}
		},
		"sources": {
			"ERC20.sol": {
				"ast": {
					"absolutePath": "ERC20.sol",
					"exportedSymbols": {
						"ERC20": [
							4
						]
					},
					"id": 5,
					"license": "Rahul pithdia",
					"nodeType": "SourceUnit",
					"nodes": [
						{
							"id": 1,
							"literals": [
								"solidity",
								"^",
								"0.8",
								".0"
							],
							"nodeType": "PragmaDirective",
							"src": "41:23:0"
						},
						{
							"abstract": false,
							"baseContracts": [],
							"contractDependencies": [],
							"contractKind": "contract",
							"fullyImplemented": true,
							"id": 4,
							"linearizedBaseContracts": [
								4
							],
							"name": "ERC20",
							"nameLocation": "75:5:0",
							"nodeType": "ContractDefinition",
							"nodes": [
								{
									"constant": false,
									"id": 3,
									"mutability": "mutable",
									"name": "name",
									"nameLocation": "101:4:0",
									"nodeType": "VariableDeclaration",
									"scope": 4,
									"src": "86:19:0",
									"stateVariable": true,
									"storageLocation": "default",
									"typeDescriptions": {
										"typeIdentifier": "t_string_storage",
										"typeString": "string"
									},
									"typeName": {
										"id": 2,
										"name": "string",
										"nodeType": "ElementaryTypeName",
										"src": "86:6:0",
										"typeDescriptions": {
											"typeIdentifier": "t_string_storage_ptr",
											"typeString": "string"
										}
									},
									"visibility": "private"
								}
							],
							"scope": 5,
							"src": "66:48:0",
							"usedErrors": []
						}
					],
					"src": "41:73:0"
				},
				"id": 0
			}
		}
	}
}