{
	"id": "309e9a8eb03333cf367af209b4771687",
	"_format": "hh-sol-build-info-1",
	"solcVersion": "0.8.7",
	"solcLongVersion": "0.8.7+commit.e28d00a7",
	"input": {
		"language": "Solidity",
		"sources": {
			"task3.sol": {
				"content": "pragma solidity ^0.8.0;\n\ncontract loopingPractice{\nuint [] longList = [1,2,3,4,5,6,7,8,9,10,11,12,13,14,15,16,17,18,19,20];\n\n}"
			}
		},
		"settings": {
			"optimizer": {
				"enabled": false,
				"runs": 200
			},
			"outputSelection": {
				"*": {
					"": [
						"ast"
					],
					"*": [
						"abi",
						"metadata",
						"devdoc",
						"userdoc",
						"storageLayout",
						"evm.legacyAssembly",
						"evm.bytecode",
						"evm.deployedBytecode",
						"evm.methodIdentifiers",
						"evm.gasEstimates",
						"evm.assembly"
					]
				}
			}
		}
	},
	"output": {
		"contracts": {
			"task3.sol": {
				"loopingPractice": {
					"abi": [],
					"devdoc": {
						"kind": "dev",
						"methods": {},
						"version": 1
					},
					"evm": {
						"assembly": "    /* \"task3.sol\":25:126  contract loopingPractice{... */\n  mstore(0x40, 0x80)\n    /* \"task3.sol\":51:122  uint [] longList = [1,2,3,4,5,6,7,8,9,10,11,12,13,14,15,16,17,18,19,20] */\n  mload(0x40)\n  dup1\n  0x0280\n  add\n  0x40\n  mstore\n  dup1\n    /* \"task3.sol\":71:72  1 */\n  0x01\n    /* \"task3.sol\":51:122  uint [] longList = [1,2,3,4,5,6,7,8,9,10,11,12,13,14,15,16,17,18,19,20] */\n  0xff\n  and\n  dup2\n  mstore\n  0x20\n  add\n    /* \"task3.sol\":73:74  2 */\n  0x02\n    /* \"task3.sol\":51:122  uint [] longList = [1,2,3,4,5,6,7,8,9,10,11,12,13,14,15,16,17,18,19,20] */\n  0xff\n  and\n  dup2\n  mstore\n  0x20\n  add\n    /* \"task3.sol\":75:76  3 */\n  0x03\n    /* \"task3.sol\":51:122  uint [] longList = [1,2,3,4,5,6,7,8,9,10,11,12,13,14,15,16,17,18,19,20] */\n  0xff\n  and\n  dup2\n  mstore\n  0x20\n  add\n    /* \"task3.sol\":77:78  4 */\n  0x04\n    /* \"task3.sol\":51:122  uint [] longList = [1,2,3,4,5,6,7,8,9,10,11,12,13,14,15,16,17,18,19,20] */\n  0xff\n  and\n  dup2\n  mstore\n  0x20\n  add\n    /* \"task3.sol\":79:80  5 */\n  0x05\n    /* \"task3.sol\":51:122  uint [] longList = [1,2,3,4,5,6,7,8,9,10,11,12,13,14,15,16,17,18,19,20] */\n  0xff\n  and\n  dup2\n  mstore\n  0x20\n  add\n    /* \"task3.sol\":81:82  6 */\n  0x06\n    /* \"task3.sol\":51:122  uint [] longList = [1,2,3,4,5,6,7,8,9,10,11,12,13,14,15,16,17,18,19,20] */\n  0xff\n  and\n  dup2\n  mstore\n  0x20\n  add\n    /* \"task3.sol\":83:84  7 */\n  0x07\n    /* \"task3.sol\":51:122  uint [] longList = [1,2,3,4,5,6,7,8,9,10,11,12,13,14,15,16,17,18,19,20] */\n  0xff\n  and\n  dup2\n  mstore\n  0x20\n  add\n    /* \"task3.sol\":85:86  8 */\n  0x08\n    /* \"task3.sol\":51:122  uint [] longList = [1,2,3,4,5,6,7,8,9,10,11,12,13,14,15,16,17,18,19,20] */\n  0xff\n  and\n  dup2\n  mstore\n  0x20\n  add\n    /* \"task3.sol\":87:88  9 */\n  0x09\n    /* \"task3.sol\":51:122  uint [] longList = [1,2,3,4,5,6,7,8,9,10,11,12,13,14,15,16,17,18,19,20] */\n  0xff\n  and\n  dup2\n  mstore\n  0x20\n  add\n    /* \"task3.sol\":89:91  10 */\n  0x0a\n    /* \"task3.sol\":51:122  uint [] longList = [1,2,3,4,5,6,7,8,9,10,11,12,13,14,15,16,17,18,19,20] */\n  0xff\n  and\n  dup2\n  mstore\n  0x20\n  add\n    /* \"task3.sol\":92:94  11 */\n  0x0b\n    /* \"task3.sol\":51:122  uint [] longList = [1,2,3,4,5,6,7,8,9,10,11,12,13,14,15,16,17,18,19,20] */\n  0xff\n  and\n  dup2\n  mstore\n  0x20\n  add\n    /* \"task3.sol\":95:97  12 */\n  0x0c\n    /* \"task3.sol\":51:122  uint [] longList = [1,2,3,4,5,6,7,8,9,10,11,12,13,14,15,16,17,18,19,20] */\n  0xff\n  and\n  dup2\n  mstore\n  0x20\n  add\n    /* \"task3.sol\":98:100  13 */\n  0x0d\n    /* \"task3.sol\":51:122  uint [] longList = [1,2,3,4,5,6,7,8,9,10,11,12,13,14,15,16,17,18,19,20] */\n  0xff\n  and\n  dup2\n  mstore\n  0x20\n  add\n    /* \"task3.sol\":101:103  14 */\n  0x0e\n    /* \"task3.sol\":51:122  uint [] longList = [1,2,3,4,5,6,7,8,9,10,11,12,13,14,15,16,17,18,19,20] */\n  0xff\n  and\n  dup2\n  mstore\n  0x20\n  add\n    /* \"task3.sol\":104:106  15 */\n  0x0f\n    /* \"task3.sol\":51:122  uint [] longList = [1,2,3,4,5,6,7,8,9,10,11,12,13,14,15,16,17,18,19,20] */\n  0xff\n  and\n  dup2\n  mstore\n  0x20\n  add\n    /* \"task3.sol\":107:109  16 */\n  0x10\n    /* \"task3.sol\":51:122  uint [] longList = [1,2,3,4,5,6,7,8,9,10,11,12,13,14,15,16,17,18,19,20] */\n  0xff\n  and\n  dup2\n  mstore\n  0x20\n  add\n    /* \"task3.sol\":110:112  17 */\n  0x11\n    /* \"task3.sol\":51:122  uint [] longList = [1,2,3,4,5,6,7,8,9,10,11,12,13,14,15,16,17,18,19,20] */\n  0xff\n  and\n  dup2\n  mstore\n  0x20\n  add\n    /* \"task3.sol\":113:115  18 */\n  0x12\n    /* \"task3.sol\":51:122  uint [] longList = [1,2,3,4,5,6,7,8,9,10,11,12,13,14,15,16,17,18,19,20] */\n  0xff\n  and\n  dup2\n  mstore\n  0x20\n  add\n    /* \"task3.sol\":116:118  19 */\n  0x13\n    /* \"task3.sol\":51:122  uint [] longList = [1,2,3,4,5,6,7,8,9,10,11,12,13,14,15,16,17,18,19,20] */\n  0xff\n  and\n  dup2\n  mstore\n  0x20\n  add\n    /* \"task3.sol\":119:121  20 */\n  0x14\n    /* \"task3.sol\":51:122  uint [] longList = [1,2,3,4,5,6,7,8,9,10,11,12,13,14,15,16,17,18,19,20] */\n  0xff\n  and\n  dup2\n  mstore\n  pop\n  0x00\n  swap1\n  0x14\n  tag_1\n  swap3\n  swap2\n  swap1\n  tag_2\n  jump\t// in\ntag_1:\n  pop\n    /* \"task3.sol\":25:126  contract loopingPractice{... */\n  callvalue\n  dup1\n  iszero\n  tag_3\n  jumpi\n  0x00\n  dup1\n  revert\ntag_3:\n  pop\n  jump(tag_4)\ntag_2:\n  dup3\n  dup1\n  sload\n  dup3\n  dup3\n  sstore\n  swap1\n  0x00\n  mstore\n  keccak256(0x00, 0x20)\n  swap1\n  dup2\n  add\n  swap3\n  dup3\n  iszero\n  tag_5\n  jumpi\n  swap2\n  0x20\n  mul\n  dup3\n  add\ntag_6:\n  dup3\n  dup2\n  gt\n  iszero\n  tag_7\n  jumpi\n  dup3\n  mload\n  dup3\n  swap1\n  0xff\n  and\n  swap1\n  sstore\n  swap2\n  0x20\n  add\n  swap2\n  swap1\n  0x01\n  add\n  swap1\n  jump(tag_6)\ntag_7:\ntag_5:\n  pop\n  swap1\n  pop\n  tag_8\n  swap2\n  swap1\n  tag_9\n  jump\t// in\ntag_8:\n  pop\n  swap1\n  jump\t// out\ntag_9:\ntag_10:\n  dup1\n  dup3\n  gt\n  iszero\n  tag_11\n  jumpi\n  0x00\n  dup2\n  0x00\n  swap1\n  sstore\n  pop\n  0x01\n  add\n  jump(tag_10)\ntag_11:\n  pop\n  swap1\n  jump\t// out\ntag_4:\n  dataSize(sub_0)\n  dup1\n  dataOffset(sub_0)\n  0x00\n  codecopy\n  0x00\n  return\nstop\n\nsub_0: assembly {\n        /* \"task3.sol\":25:126  contract loopingPractice{... */\n      mstore(0x40, 0x80)\n      0x00\n      dup1\n      revert\n\n    auxdata: 0xa264697066735822122002e4367793bbdce41a588fe3b20274f4f503db9bca214ccd86de59a42cf1cd8c64736f6c63430008070033\n}\n",
						"bytecode": {
							"functionDebugData": {},
							"generatedSources": [],
							"linkReferences": {},
							"object": "6080604052604051806102800160405280600160ff168152602001600260ff168152602001600360ff168152602001600460ff168152602001600560ff168152602001600660ff168152602001600760ff168152602001600860ff168152602001600960ff168152602001600a60ff168152602001600b60ff168152602001600c60ff168152602001600d60ff168152602001600e60ff168152602001600f60ff168152602001601060ff168152602001601160ff168152602001601260ff168152602001601360ff168152602001601460ff1681525060009060146100e69291906100f9565b503480156100f357600080fd5b50610168565b82805482825590600052602060002090810192821561013a579160200282015b82811115610139578251829060ff16905591602001919060010190610119565b5b509050610147919061014b565b5090565b5b8082111561016457600081600090555060010161014c565b5090565b603f806101766000396000f3fe6080604052600080fdfea264697066735822122002e4367793bbdce41a588fe3b20274f4f503db9bca214ccd86de59a42cf1cd8c64736f6c63430008070033",
							"opcodes": "PUSH1 0x80 PUSH1 0x40 MSTORE PUSH1 0x40 MLOAD DUP1 PUSH2 0x280 ADD PUSH1 0x40 MSTORE DUP1 PUSH1 0x1 PUSH1 0xFF AND DUP2 MSTORE PUSH1 0x20 ADD PUSH1 0x2 PUSH1 0xFF AND DUP2 MSTORE PUSH1 0x20 ADD PUSH1 0x3 PUSH1 0xFF AND DUP2 MSTORE PUSH1 0x20 ADD PUSH1 0x4 PUSH1 0xFF AND DUP2 MSTORE PUSH1 0x20 ADD PUSH1 0x5 PUSH1 0xFF AND DUP2 MSTORE PUSH1 0x20 ADD PUSH1 0x6 PUSH1 0xFF AND DUP2 MSTORE PUSH1 0x20 ADD PUSH1 0x7 PUSH1 0xFF AND DUP2 MSTORE PUSH1 0x20 ADD PUSH1 0x8 PUSH1 0xFF AND DUP2 MSTORE PUSH1 0x20 ADD PUSH1 0x9 PUSH1 0xFF AND DUP2 MSTORE PUSH1 0x20 ADD PUSH1 0xA PUSH1 0xFF AND DUP2 MSTORE PUSH1 0x20 ADD PUSH1 0xB PUSH1 0xFF AND DUP2 MSTORE PUSH1 0x20 ADD PUSH1 0xC PUSH1 0xFF AND DUP2 MSTORE PUSH1 0x20 ADD PUSH1 0xD PUSH1 0xFF AND DUP2 MSTORE PUSH1 0x20 ADD PUSH1 0xE PUSH1 0xFF AND DUP2 MSTORE PUSH1 0x20 ADD PUSH1 0xF PUSH1 0xFF AND DUP2 MSTORE PUSH1 0x20 ADD PUSH1 0x10 PUSH1 0xFF AND DUP2 MSTORE PUSH1 0x20 ADD PUSH1 0x11 PUSH1 0xFF AND DUP2 MSTORE PUSH1 0x20 ADD PUSH1 0x12 PUSH1 0xFF AND DUP2 MSTORE PUSH1 0x20 ADD PUSH1 0x13 PUSH1 0xFF AND DUP2 MSTORE PUSH1 0x20 ADD PUSH1 0x14 PUSH1 0xFF AND DUP2 MSTORE POP PUSH1 0x0 SWAP1 PUSH1 0x14 PUSH2 0xE6 SWAP3 SWAP2 SWAP1 PUSH2 0xF9 JUMP JUMPDEST POP CALLVALUE DUP1 ISZERO PUSH2 0xF3 JUMPI PUSH1 0x0 DUP1 REVERT JUMPDEST POP PUSH2 0x168 JUMP JUMPDEST DUP3 DUP1 SLOAD DUP3 DUP3 SSTORE SWAP1 PUSH1 0x0 MSTORE PUSH1 0x20 PUSH1 0x0 KECCAK256 SWAP1 DUP2 ADD SWAP3 DUP3 ISZERO PUSH2 0x13A JUMPI SWAP2 PUSH1 0x20 MUL DUP3 ADD JUMPDEST DUP3 DUP2 GT ISZERO PUSH2 0x139 JUMPI DUP3 MLOAD DUP3 SWAP1 PUSH1 0xFF AND SWAP1 SSTORE SWAP2 PUSH1 0x20 ADD SWAP2 SWAP1 PUSH1 0x1 ADD SWAP1 PUSH2 0x119 JUMP JUMPDEST JUMPDEST POP SWAP1 POP PUSH2 0x147 SWAP2 SWAP1 PUSH2 0x14B JUMP JUMPDEST POP SWAP1 JUMP JUMPDEST JUMPDEST DUP1 DUP3 GT ISZERO PUSH2 0x164 JUMPI PUSH1 0x0 DUP2 PUSH1 0x0 SWAP1 SSTORE POP PUSH1 0x1 ADD PUSH2 0x14C JUMP JUMPDEST POP SWAP1 JUMP JUMPDEST PUSH1 0x3F DUP1 PUSH2 0x176 PUSH1 0x0 CODECOPY PUSH1 0x0 RETURN INVALID PUSH1 0x80 PUSH1 0x40 MSTORE PUSH1 0x0 DUP1 REVERT INVALID LOG2 PUSH5 0x6970667358 0x22 SLT KECCAK256 MUL 0xE4 CALLDATASIZE PUSH24 0x93BBDCE41A588FE3B20274F4F503DB9BCA214CCD86DE59A4 0x2C CALL 0xCD DUP13 PUSH5 0x736F6C6343 STOP ADDMOD SMOD STOP CALLER ",
							"sourceMap": "25:101:0:-:0;;;51:71;;;;;;;;71:1;51:71;;;;;;73:1;51:71;;;;;;75:1;51:71;;;;;;77:1;51:71;;;;;;79:1;51:71;;;;;;81:1;51:71;;;;;;83:1;51:71;;;;;;85:1;51:71;;;;;;87:1;51:71;;;;;;89:2;51:71;;;;;;92:2;51:71;;;;;;95:2;51:71;;;;;;98:2;51:71;;;;;;101:2;51:71;;;;;;104:2;51:71;;;;;;107:2;51:71;;;;;;110:2;51:71;;;;;;113:2;51:71;;;;;;116:2;51:71;;;;;;119:2;51:71;;;;;;;;;;;;;:::i;:::-;;25:101;;;;;;;;;;;;;;;;;;;;;;;;;;;;;;;;;;;;;;;;;;;;;;;;;;;;;;;;;;;;;;;;;;;;;;;;:::i;:::-;;;:::o;:::-;;;;;;;;;;;;;;;;;;;;;:::o;:::-;;;;;;;"
						},
						"deployedBytecode": {
							"functionDebugData": {},
							"generatedSources": [],
							"immutableReferences": {},
							"linkReferences": {},
							"object": "6080604052600080fdfea264697066735822122002e4367793bbdce41a588fe3b20274f4f503db9bca214ccd86de59a42cf1cd8c64736f6c63430008070033",
							"opcodes": "PUSH1 0x80 PUSH1 0x40 MSTORE PUSH1 0x0 DUP1 REVERT INVALID LOG2 PUSH5 0x6970667358 0x22 SLT KECCAK256 MUL 0xE4 CALLDATASIZE PUSH24 0x93BBDCE41A588FE3B20274F4F503DB9BCA214CCD86DE59A4 0x2C CALL 0xCD DUP13 PUSH5 0x736F6C6343 STOP ADDMOD SMOD STOP CALLER ",
							"sourceMap": "25:101:0:-:0;;;;;"
						},
						"gasEstimates": {
							"creation": {
								"codeDepositCost": "12600",
								"executionCost": "infinite",
								"totalCost": "infinite"
							}
						},
						"legacyAssembly": {
							".code": [
								{
									"begin": 25,
									"end": 126,
									"name": "PUSH",
									"source": 0,
									"value": "80"
								},
								{
									"begin": 25,
									"end": 126,
									"name": "PUSH",
									"source": 0,
									"value": "40"
								},
								{
									"begin": 25,
									"end": 126,
									"name": "MSTORE",
									"source": 0
								},
								{
									"begin": 51,
									"end": 122,
									"name": "PUSH",
									"source": 0,
									"value": "40"
								},
								{
									"begin": 51,
									"end": 122,
									"name": "MLOAD",
									"source": 0
								},
								{
									"begin": 51,
									"end": 122,
									"name": "DUP1",
									"source": 0
								},
								{
									"begin": 51,
									"end": 122,
									"name": "PUSH",
									"source": 0,
									"value": "280"
								},
								{
									"begin": 51,
									"end": 122,
									"name": "ADD",
									"source": 0
								},
								{
									"begin": 51,
									"end": 122,
									"name": "PUSH",
									"source": 0,
									"value": "40"
								},
								{
									"begin": 51,
									"end": 122,
									"name": "MSTORE",
									"source": 0
								},
								{
									"begin": 51,
									"end": 122,
									"name": "DUP1",
									"source": 0
								},
								{
									"begin": 71,
									"end": 72,
									"name": "PUSH",
									"source": 0,
									"value": "1"
								},
								{
									"begin": 51,
									"end": 122,
									"name": "PUSH",
									"source": 0,
									"value": "FF"
								},
								{
									"begin": 51,
									"end": 122,
									"name": "AND",
									"source": 0
								},
								{
									"begin": 51,
									"end": 122,
									"name": "DUP2",
									"source": 0
								},
								{
									"begin": 51,
									"end": 122,
									"name": "MSTORE",
									"source": 0
								},
								{
									"begin": 51,
									"end": 122,
									"name": "PUSH",
									"source": 0,
									"value": "20"
								},
								{
									"begin": 51,
									"end": 122,
									"name": "ADD",
									"source": 0
								},
								{
									"begin": 73,
									"end": 74,
									"name": "PUSH",
									"source": 0,
									"value": "2"
								},
								{
									"begin": 51,
									"end": 122,
									"name": "PUSH",
									"source": 0,
									"value": "FF"
								},
								{
									"begin": 51,
									"end": 122,
									"name": "AND",
									"source": 0
								},
								{
									"begin": 51,
									"end": 122,
									"name": "DUP2",
									"source": 0
								},
								{
									"begin": 51,
									"end": 122,
									"name": "MSTORE",
									"source": 0
								},
								{
									"begin": 51,
									"end": 122,
									"name": "PUSH",
									"source": 0,
									"value": "20"
								},
								{
									"begin": 51,
									"end": 122,
									"name": "ADD",
									"source": 0
								},
								{
									"begin": 75,
									"end": 76,
									"name": "PUSH",
									"source": 0,
									"value": "3"
								},
								{
									"begin": 51,
									"end": 122,
									"name": "PUSH",
									"source": 0,
									"value": "FF"
								},
								{
									"begin": 51,
									"end": 122,
									"name": "AND",
									"source": 0
								},
								{
									"begin": 51,
									"end": 122,
									"name": "DUP2",
									"source": 0
								},
								{
									"begin": 51,
									"end": 122,
									"name": "MSTORE",
									"source": 0
								},
								{
									"begin": 51,
									"end": 122,
									"name": "PUSH",
									"source": 0,
									"value": "20"
								},
								{
									"begin": 51,
									"end": 122,
									"name": "ADD",
									"source": 0
								},
								{
									"begin": 77,
									"end": 78,
									"name": "PUSH",
									"source": 0,
									"value": "4"
								},
								{
									"begin": 51,
									"end": 122,
									"name": "PUSH",
									"source": 0,
									"value": "FF"
								},
								{
									"begin": 51,
									"end": 122,
									"name": "AND",
									"source": 0
								},
								{
									"begin": 51,
									"end": 122,
									"name": "DUP2",
									"source": 0
								},
								{
									"begin": 51,
									"end": 122,
									"name": "MSTORE",
									"source": 0
								},
								{
									"begin": 51,
									"end": 122,
									"name": "PUSH",
									"source": 0,
									"value": "20"
								},
								{
									"begin": 51,
									"end": 122,
									"name": "ADD",
									"source": 0
								},
								{
									"begin": 79,
									"end": 80,
									"name": "PUSH",
									"source": 0,
									"value": "5"
								},
								{
									"begin": 51,
									"end": 122,
									"name": "PUSH",
									"source": 0,
									"value": "FF"
								},
								{
									"begin": 51,
									"end": 122,
									"name": "AND",
									"source": 0
								},
								{
									"begin": 51,
									"end": 122,
									"name": "DUP2",
									"source": 0
								},
								{
									"begin": 51,
									"end": 122,
									"name": "MSTORE",
									"source": 0
								},
								{
									"begin": 51,
									"end": 122,
									"name": "PUSH",
									"source": 0,
									"value": "20"
								},
								{
									"begin": 51,
									"end": 122,
									"name": "ADD",
									"source": 0
								},
								{
									"begin": 81,
									"end": 82,
									"name": "PUSH",
									"source": 0,
									"value": "6"
								},
								{
									"begin": 51,
									"end": 122,
									"name": "PUSH",
									"source": 0,
									"value": "FF"
								},
								{
									"begin": 51,
									"end": 122,
									"name": "AND",
									"source": 0
								},
								{
									"begin": 51,
									"end": 122,
									"name": "DUP2",
									"source": 0
								},
								{
									"begin": 51,
									"end": 122,
									"name": "MSTORE",
									"source": 0
								},
								{
									"begin": 51,
									"end": 122,
									"name": "PUSH",
									"source": 0,
									"value": "20"
								},
								{
									"begin": 51,
									"end": 122,
									"name": "ADD",
									"source": 0
								},
								{
									"begin": 83,
									"end": 84,
									"name": "PUSH",
									"source": 0,
									"value": "7"
								},
								{
									"begin": 51,
									"end": 122,
									"name": "PUSH",
									"source": 0,
									"value": "FF"
								},
								{
									"begin": 51,
									"end": 122,
									"name": "AND",
									"source": 0
								},
								{
									"begin": 51,
									"end": 122,
									"name": "DUP2",
									"source": 0
								},
								{
									"begin": 51,
									"end": 122,
									"name": "MSTORE",
									"source": 0
								},
								{
									"begin": 51,
									"end": 122,
									"name": "PUSH",
									"source": 0,
									"value": "20"
								},
								{
									"begin": 51,
									"end": 122,
									"name": "ADD",
									"source": 0
								},
								{
									"begin": 85,
									"end": 86,
									"name": "PUSH",
									"source": 0,
									"value": "8"
								},
								{
									"begin": 51,
									"end": 122,
									"name": "PUSH",
									"source": 0,
									"value": "FF"
								},
								{
									"begin": 51,
									"end": 122,
									"name": "AND",
									"source": 0
								},
								{
									"begin": 51,
									"end": 122,
									"name": "DUP2",
									"source": 0
								},
								{
									"begin": 51,
									"end": 122,
									"name": "MSTORE",
									"source": 0
								},
								{
									"begin": 51,
									"end": 122,
									"name": "PUSH",
									"source": 0,
									"value": "20"
								},
								{
									"begin": 51,
									"end": 122,
									"name": "ADD",
									"source": 0
								},
								{
									"begin": 87,
									"end": 88,
									"name": "PUSH",
									"source": 0,
									"value": "9"
								},
								{
									"begin": 51,
									"end": 122,
									"name": "PUSH",
									"source": 0,
									"value": "FF"
								},
								{
									"begin": 51,
									"end": 122,
									"name": "AND",
									"source": 0
								},
								{
									"begin": 51,
									"end": 122,
									"name": "DUP2",
									"source": 0
								},
								{
									"begin": 51,
									"end": 122,
									"name": "MSTORE",
									"source": 0
								},
								{
									"begin": 51,
									"end": 122,
									"name": "PUSH",
									"source": 0,
									"value": "20"
								},
								{
									"begin": 51,
									"end": 122,
									"name": "ADD",
									"source": 0
								},
								{
									"begin": 89,
									"end": 91,
									"name": "PUSH",
									"source": 0,
									"value": "A"
								},
								{
									"begin": 51,
									"end": 122,
									"name": "PUSH",
									"source": 0,
									"value": "FF"
								},
								{
									"begin": 51,
									"end": 122,
									"name": "AND",
									"source": 0
								},
								{
									"begin": 51,
									"end": 122,
									"name": "DUP2",
									"source": 0
								},
								{
									"begin": 51,
									"end": 122,
									"name": "MSTORE",
									"source": 0
								},
								{
									"begin": 51,
									"end": 122,
									"name": "PUSH",
									"source": 0,
									"value": "20"
								},
								{
									"begin": 51,
									"end": 122,
									"name": "ADD",
									"source": 0
								},
								{
									"begin": 92,
									"end": 94,
									"name": "PUSH",
									"source": 0,
									"value": "B"
								},
								{
									"begin": 51,
									"end": 122,
									"name": "PUSH",
									"source": 0,
									"value": "FF"
								},
								{
									"begin": 51,
									"end": 122,
									"name": "AND",
									"source": 0
								},
								{
									"begin": 51,
									"end": 122,
									"name": "DUP2",
									"source": 0
								},
								{
									"begin": 51,
									"end": 122,
									"name": "MSTORE",
									"source": 0
								},
								{
									"begin": 51,
									"end": 122,
									"name": "PUSH",
									"source": 0,
									"value": "20"
								},
								{
									"begin": 51,
									"end": 122,
									"name": "ADD",
									"source": 0
								},
								{
									"begin": 95,
									"end": 97,
									"name": "PUSH",
									"source": 0,
									"value": "C"
								},
								{
									"begin": 51,
									"end": 122,
									"name": "PUSH",
									"source": 0,
									"value": "FF"
								},
								{
									"begin": 51,
									"end": 122,
									"name": "AND",
									"source": 0
								},
								{
									"begin": 51,
									"end": 122,
									"name": "DUP2",
									"source": 0
								},
								{
									"begin": 51,
									"end": 122,
									"name": "MSTORE",
									"source": 0
								},
								{
									"begin": 51,
									"end": 122,
									"name": "PUSH",
									"source": 0,
									"value": "20"
								},
								{
									"begin": 51,
									"end": 122,
									"name": "ADD",
									"source": 0
								},
								{
									"begin": 98,
									"end": 100,
									"name": "PUSH",
									"source": 0,
									"value": "D"
								},
								{
									"begin": 51,
									"end": 122,
									"name": "PUSH",
									"source": 0,
									"value": "FF"
								},
								{
									"begin": 51,
									"end": 122,
									"name": "AND",
									"source": 0
								},
								{
									"begin": 51,
									"end": 122,
									"name": "DUP2",
									"source": 0
								},
								{
									"begin": 51,
									"end": 122,
									"name": "MSTORE",
									"source": 0
								},
								{
									"begin": 51,
									"end": 122,
									"name": "PUSH",
									"source": 0,
									"value": "20"
								},
								{
									"begin": 51,
									"end": 122,
									"name": "ADD",
									"source": 0
								},
								{
									"begin": 101,
									"end": 103,
									"name": "PUSH",
									"source": 0,
									"value": "E"
								},
								{
									"begin": 51,
									"end": 122,
									"name": "PUSH",
									"source": 0,
									"value": "FF"
								},
								{
									"begin": 51,
									"end": 122,
									"name": "AND",
									"source": 0
								},
								{
									"begin": 51,
									"end": 122,
									"name": "DUP2",
									"source": 0
								},
								{
									"begin": 51,
									"end": 122,
									"name": "MSTORE",
									"source": 0
								},
								{
									"begin": 51,
									"end": 122,
									"name": "PUSH",
									"source": 0,
									"value": "20"
								},
								{
									"begin": 51,
									"end": 122,
									"name": "ADD",
									"source": 0
								},
								{
									"begin": 104,
									"end": 106,
									"name": "PUSH",
									"source": 0,
									"value": "F"
								},
								{
									"begin": 51,
									"end": 122,
									"name": "PUSH",
									"source": 0,
									"value": "FF"
								},
								{
									"begin": 51,
									"end": 122,
									"name": "AND",
									"source": 0
								},
								{
									"begin": 51,
									"end": 122,
									"name": "DUP2",
									"source": 0
								},
								{
									"begin": 51,
									"end": 122,
									"name": "MSTORE",
									"source": 0
								},
								{
									"begin": 51,
									"end": 122,
									"name": "PUSH",
									"source": 0,
									"value": "20"
								},
								{
									"begin": 51,
									"end": 122,
									"name": "ADD",
									"source": 0
								},
								{
									"begin": 107,
									"end": 109,
									"name": "PUSH",
									"source": 0,
									"value": "10"
								},
								{
									"begin": 51,
									"end": 122,
									"name": "PUSH",
									"source": 0,
									"value": "FF"
								},
								{
									"begin": 51,
									"end": 122,
									"name": "AND",
									"source": 0
								},
								{
									"begin": 51,
									"end": 122,
									"name": "DUP2",
									"source": 0
								},
								{
									"begin": 51,
									"end": 122,
									"name": "MSTORE",
									"source": 0
								},
								{
									"begin": 51,
									"end": 122,
									"name": "PUSH",
									"source": 0,
									"value": "20"
								},
								{
									"begin": 51,
									"end": 122,
									"name": "ADD",
									"source": 0
								},
								{
									"begin": 110,
									"end": 112,
									"name": "PUSH",
									"source": 0,
									"value": "11"
								},
								{
									"begin": 51,
									"end": 122,
									"name": "PUSH",
									"source": 0,
									"value": "FF"
								},
								{
									"begin": 51,
									"end": 122,
									"name": "AND",
									"source": 0
								},
								{
									"begin": 51,
									"end": 122,
									"name": "DUP2",
									"source": 0
								},
								{
									"begin": 51,
									"end": 122,
									"name": "MSTORE",
									"source": 0
								},
								{
									"begin": 51,
									"end": 122,
									"name": "PUSH",
									"source": 0,
									"value": "20"
								},
								{
									"begin": 51,
									"end": 122,
									"name": "ADD",
									"source": 0
								},
								{
									"begin": 113,
									"end": 115,
									"name": "PUSH",
									"source": 0,
									"value": "12"
								},
								{
									"begin": 51,
									"end": 122,
									"name": "PUSH",
									"source": 0,
									"value": "FF"
								},
								{
									"begin": 51,
									"end": 122,
									"name": "AND",
									"source": 0
								},
								{
									"begin": 51,
									"end": 122,
									"name": "DUP2",
									"source": 0
								},
								{
									"begin": 51,
									"end": 122,
									"name": "MSTORE",
									"source": 0
								},
								{
									"begin": 51,
									"end": 122,
									"name": "PUSH",
									"source": 0,
									"value": "20"
								},
								{
									"begin": 51,
									"end": 122,
									"name": "ADD",
									"source": 0
								},
								{
									"begin": 116,
									"end": 118,
									"name": "PUSH",
									"source": 0,
									"value": "13"
								},
								{
									"begin": 51,
									"end": 122,
									"name": "PUSH",
									"source": 0,
									"value": "FF"
								},
								{
									"begin": 51,
									"end": 122,
									"name": "AND",
									"source": 0
								},
								{
									"begin": 51,
									"end": 122,
									"name": "DUP2",
									"source": 0
								},
								{
									"begin": 51,
									"end": 122,
									"name": "MSTORE",
									"source": 0
								},
								{
									"begin": 51,
									"end": 122,
									"name": "PUSH",
									"source": 0,
									"value": "20"
								},
								{
									"begin": 51,
									"end": 122,
									"name": "ADD",
									"source": 0
								},
								{
									"begin": 119,
									"end": 121,
									"name": "PUSH",
									"source": 0,
									"value": "14"
								},
								{
									"begin": 51,
									"end": 122,
									"name": "PUSH",
									"source": 0,
									"value": "FF"
								},
								{
									"begin": 51,
									"end": 122,
									"name": "AND",
									"source": 0
								},
								{
									"begin": 51,
									"end": 122,
									"name": "DUP2",
									"source": 0
								},
								{
									"begin": 51,
									"end": 122,
									"name": "MSTORE",
									"source": 0
								},
								{
									"begin": 51,
									"end": 122,
									"name": "POP",
									"source": 0
								},
								{
									"begin": 51,
									"end": 122,
									"name": "PUSH",
									"source": 0,
									"value": "0"
								},
								{
									"begin": 51,
									"end": 122,
									"name": "SWAP1",
									"source": 0
								},
								{
									"begin": 51,
									"end": 122,
									"name": "PUSH",
									"source": 0,
									"value": "14"
								},
								{
									"begin": 51,
									"end": 122,
									"name": "PUSH [tag]",
									"source": 0,
									"value": "1"
								},
								{
									"begin": 51,
									"end": 122,
									"name": "SWAP3",
									"source": 0
								},
								{
									"begin": 51,
									"end": 122,
									"name": "SWAP2",
									"source": 0
								},
								{
									"begin": 51,
									"end": 122,
									"name": "SWAP1",
									"source": 0
								},
								{
									"begin": 51,
									"end": 122,
									"name": "PUSH [tag]",
									"source": 0,
									"value": "2"
								},
								{
									"begin": 51,
									"end": 122,
									"name": "JUMP",
									"source": 0,
									"value": "[in]"
								},
								{
									"begin": 51,
									"end": 122,
									"name": "tag",
									"source": 0,
									"value": "1"
								},
								{
									"begin": 51,
									"end": 122,
									"name": "JUMPDEST",
									"source": 0
								},
								{
									"begin": 51,
									"end": 122,
									"name": "POP",
									"source": 0
								},
								{
									"begin": 25,
									"end": 126,
									"name": "CALLVALUE",
									"source": 0
								},
								{
									"begin": 25,
									"end": 126,
									"name": "DUP1",
									"source": 0
								},
								{
									"begin": 25,
									"end": 126,
									"name": "ISZERO",
									"source": 0
								},
								{
									"begin": 25,
									"end": 126,
									"name": "PUSH [tag]",
									"source": 0,
									"value": "3"
								},
								{
									"begin": 25,
									"end": 126,
									"name": "JUMPI",
									"source": 0
								},
								{
									"begin": 25,
									"end": 126,
									"name": "PUSH",
									"source": 0,
									"value": "0"
								},
								{
									"begin": 25,
									"end": 126,
									"name": "DUP1",
									"source": 0
								},
								{
									"begin": 25,
									"end": 126,
									"name": "REVERT",
									"source": 0
								},
								{
									"begin": 25,
									"end": 126,
									"name": "tag",
									"source": 0,
									"value": "3"
								},
								{
									"begin": 25,
									"end": 126,
									"name": "JUMPDEST",
									"source": 0
								},
								{
									"begin": 25,
									"end": 126,
									"name": "POP",
									"source": 0
								},
								{
									"begin": 25,
									"end": 126,
									"name": "PUSH [tag]",
									"source": 0,
									"value": "4"
								},
								{
									"begin": 25,
									"end": 126,
									"name": "JUMP",
									"source": 0
								},
								{
									"begin": 25,
									"end": 126,
									"name": "tag",
									"source": 0,
									"value": "2"
								},
								{
									"begin": 25,
									"end": 126,
									"name": "JUMPDEST",
									"source": 0
								},
								{
									"begin": 25,
									"end": 126,
									"name": "DUP3",
									"source": 0
								},
								{
									"begin": 25,
									"end": 126,
									"name": "DUP1",
									"source": 0
								},
								{
									"begin": 25,
									"end": 126,
									"name": "SLOAD",
									"source": 0
								},
								{
									"begin": 25,
									"end": 126,
									"name": "DUP3",
									"source": 0
								},
								{
									"begin": 25,
									"end": 126,
									"name": "DUP3",
									"source": 0
								},
								{
									"begin": 25,
									"end": 126,
									"name": "SSTORE",
									"source": 0
								},
								{
									"begin": 25,
									"end": 126,
									"name": "SWAP1",
									"source": 0
								},
								{
									"begin": 25,
									"end": 126,
									"name": "PUSH",
									"source": 0,
									"value": "0"
								},
								{
									"begin": 25,
									"end": 126,
									"name": "MSTORE",
									"source": 0
								},
								{
									"begin": 25,
									"end": 126,
									"name": "PUSH",
									"source": 0,
									"value": "20"
								},
								{
									"begin": 25,
									"end": 126,
									"name": "PUSH",
									"source": 0,
									"value": "0"
								},
								{
									"begin": 25,
									"end": 126,
									"name": "KECCAK256",
									"source": 0
								},
								{
									"begin": 25,
									"end": 126,
									"name": "SWAP1",
									"source": 0
								},
								{
									"begin": 25,
									"end": 126,
									"name": "DUP2",
									"source": 0
								},
								{
									"begin": 25,
									"end": 126,
									"name": "ADD",
									"source": 0
								},
								{
									"begin": 25,
									"end": 126,
									"name": "SWAP3",
									"source": 0
								},
								{
									"begin": 25,
									"end": 126,
									"name": "DUP3",
									"source": 0
								},
								{
									"begin": 25,
									"end": 126,
									"name": "ISZERO",
									"source": 0
								},
								{
									"begin": 25,
									"end": 126,
									"name": "PUSH [tag]",
									"source": 0,
									"value": "5"
								},
								{
									"begin": 25,
									"end": 126,
									"name": "JUMPI",
									"source": 0
								},
								{
									"begin": 25,
									"end": 126,
									"name": "SWAP2",
									"source": 0
								},
								{
									"begin": 25,
									"end": 126,
									"name": "PUSH",
									"source": 0,
									"value": "20"
								},
								{
									"begin": 25,
									"end": 126,
									"name": "MUL",
									"source": 0
								},
								{
									"begin": 25,
									"end": 126,
									"name": "DUP3",
									"source": 0
								},
								{
									"begin": 25,
									"end": 126,
									"name": "ADD",
									"source": 0
								},
								{
									"begin": 25,
									"end": 126,
									"name": "tag",
									"source": 0,
									"value": "6"
								},
								{
									"begin": 25,
									"end": 126,
									"name": "JUMPDEST",
									"source": 0
								},
								{
									"begin": 25,
									"end": 126,
									"name": "DUP3",
									"source": 0
								},
								{
									"begin": 25,
									"end": 126,
									"name": "DUP2",
									"source": 0
								},
								{
									"begin": 25,
									"end": 126,
									"name": "GT",
									"source": 0
								},
								{
									"begin": 25,
									"end": 126,
									"name": "ISZERO",
									"source": 0
								},
								{
									"begin": 25,
									"end": 126,
									"name": "PUSH [tag]",
									"source": 0,
									"value": "7"
								},
								{
									"begin": 25,
									"end": 126,
									"name": "JUMPI",
									"source": 0
								},
								{
									"begin": 25,
									"end": 126,
									"name": "DUP3",
									"source": 0
								},
								{
									"begin": 25,
									"end": 126,
									"name": "MLOAD",
									"source": 0
								},
								{
									"begin": 25,
									"end": 126,
									"name": "DUP3",
									"source": 0
								},
								{
									"begin": 25,
									"end": 126,
									"name": "SWAP1",
									"source": 0
								},
								{
									"begin": 25,
									"end": 126,
									"name": "PUSH",
									"source": 0,
									"value": "FF"
								},
								{
									"begin": 25,
									"end": 126,
									"name": "AND",
									"source": 0
								},
								{
									"begin": 25,
									"end": 126,
									"name": "SWAP1",
									"source": 0
								},
								{
									"begin": 25,
									"end": 126,
									"name": "SSTORE",
									"source": 0
								},
								{
									"begin": 25,
									"end": 126,
									"name": "SWAP2",
									"source": 0
								},
								{
									"begin": 25,
									"end": 126,
									"name": "PUSH",
									"source": 0,
									"value": "20"
								},
								{
									"begin": 25,
									"end": 126,
									"name": "ADD",
									"source": 0
								},
								{
									"begin": 25,
									"end": 126,
									"name": "SWAP2",
									"source": 0
								},
								{
									"begin": 25,
									"end": 126,
									"name": "SWAP1",
									"source": 0
								},
								{
									"begin": 25,
									"end": 126,
									"name": "PUSH",
									"source": 0,
									"value": "1"
								},
								{
									"begin": 25,
									"end": 126,
									"name": "ADD",
									"source": 0
								},
								{
									"begin": 25,
									"end": 126,
									"name": "SWAP1",
									"source": 0
								},
								{
									"begin": 25,
									"end": 126,
									"name": "PUSH [tag]",
									"source": 0,
									"value": "6"
								},
								{
									"begin": 25,
									"end": 126,
									"name": "JUMP",
									"source": 0
								},
								{
									"begin": 25,
									"end": 126,
									"name": "tag",
									"source": 0,
									"value": "7"
								},
								{
									"begin": 25,
									"end": 126,
									"name": "JUMPDEST",
									"source": 0
								},
								{
									"begin": 25,
									"end": 126,
									"name": "tag",
									"source": 0,
									"value": "5"
								},
								{
									"begin": 25,
									"end": 126,
									"name": "JUMPDEST",
									"source": 0
								},
								{
									"begin": 25,
									"end": 126,
									"name": "POP",
									"source": 0
								},
								{
									"begin": 25,
									"end": 126,
									"name": "SWAP1",
									"source": 0
								},
								{
									"begin": 25,
									"end": 126,
									"name": "POP",
									"source": 0
								},
								{
									"begin": 25,
									"end": 126,
									"name": "PUSH [tag]",
									"source": 0,
									"value": "8"
								},
								{
									"begin": 25,
									"end": 126,
									"name": "SWAP2",
									"source": 0
								},
								{
									"begin": 25,
									"end": 126,
									"name": "SWAP1",
									"source": 0
								},
								{
									"begin": 25,
									"end": 126,
									"name": "PUSH [tag]",
									"source": 0,
									"value": "9"
								},
								{
									"begin": 25,
									"end": 126,
									"name": "JUMP",
									"source": 0,
									"value": "[in]"
								},
								{
									"begin": 25,
									"end": 126,
									"name": "tag",
									"source": 0,
									"value": "8"
								},
								{
									"begin": 25,
									"end": 126,
									"name": "JUMPDEST",
									"source": 0
								},
								{
									"begin": 25,
									"end": 126,
									"name": "POP",
									"source": 0
								},
								{
									"begin": 25,
									"end": 126,
									"name": "SWAP1",
									"source": 0
								},
								{
									"begin": 25,
									"end": 126,
									"name": "JUMP",
									"source": 0,
									"value": "[out]"
								},
								{
									"begin": 25,
									"end": 126,
									"name": "tag",
									"source": 0,
									"value": "9"
								},
								{
									"begin": 25,
									"end": 126,
									"name": "JUMPDEST",
									"source": 0
								},
								{
									"begin": 25,
									"end": 126,
									"name": "tag",
									"source": 0,
									"value": "10"
								},
								{
									"begin": 25,
									"end": 126,
									"name": "JUMPDEST",
									"source": 0
								},
								{
									"begin": 25,
									"end": 126,
									"name": "DUP1",
									"source": 0
								},
								{
									"begin": 25,
									"end": 126,
									"name": "DUP3",
									"source": 0
								},
								{
									"begin": 25,
									"end": 126,
									"name": "GT",
									"source": 0
								},
								{
									"begin": 25,
									"end": 126,
									"name": "ISZERO",
									"source": 0
								},
								{
									"begin": 25,
									"end": 126,
									"name": "PUSH [tag]",
									"source": 0,
									"value": "11"
								},
								{
									"begin": 25,
									"end": 126,
									"name": "JUMPI",
									"source": 0
								},
								{
									"begin": 25,
									"end": 126,
									"name": "PUSH",
									"source": 0,
									"value": "0"
								},
								{
									"begin": 25,
									"end": 126,
									"name": "DUP2",
									"source": 0
								},
								{
									"begin": 25,
									"end": 126,
									"name": "PUSH",
									"source": 0,
									"value": "0"
								},
								{
									"begin": 25,
									"end": 126,
									"name": "SWAP1",
									"source": 0
								},
								{
									"begin": 25,
									"end": 126,
									"name": "SSTORE",
									"source": 0
								},
								{
									"begin": 25,
									"end": 126,
									"name": "POP",
									"source": 0
								},
								{
									"begin": 25,
									"end": 126,
									"name": "PUSH",
									"source": 0,
									"value": "1"
								},
								{
									"begin": 25,
									"end": 126,
									"name": "ADD",
									"source": 0
								},
								{
									"begin": 25,
									"end": 126,
									"name": "PUSH [tag]",
									"source": 0,
									"value": "10"
								},
								{
									"begin": 25,
									"end": 126,
									"name": "JUMP",
									"source": 0
								},
								{
									"begin": 25,
									"end": 126,
									"name": "tag",
									"source": 0,
									"value": "11"
								},
								{
									"begin": 25,
									"end": 126,
									"name": "JUMPDEST",
									"source": 0
								},
								{
									"begin": 25,
									"end": 126,
									"name": "POP",
									"source": 0
								},
								{
									"begin": 25,
									"end": 126,
									"name": "SWAP1",
									"source": 0
								},
								{
									"begin": 25,
									"end": 126,
									"name": "JUMP",
									"source": 0,
									"value": "[out]"
								},
								{
									"begin": 25,
									"end": 126,
									"name": "tag",
									"source": 0,
									"value": "4"
								},
								{
									"begin": 25,
									"end": 126,
									"name": "JUMPDEST",
									"source": 0
								},
								{
									"begin": 25,
									"end": 126,
									"name": "PUSH #[$]",
									"source": 0,
									"value": "0000000000000000000000000000000000000000000000000000000000000000"
								},
								{
									"begin": 25,
									"end": 126,
									"name": "DUP1",
									"source": 0
								},
								{
									"begin": 25,
									"end": 126,
									"name": "PUSH [$]",
									"source": 0,
									"value": "0000000000000000000000000000000000000000000000000000000000000000"
								},
								{
									"begin": 25,
									"end": 126,
									"name": "PUSH",
									"source": 0,
									"value": "0"
								},
								{
									"begin": 25,
									"end": 126,
									"name": "CODECOPY",
									"source": 0
								},
								{
									"begin": 25,
									"end": 126,
									"name": "PUSH",
									"source": 0,
									"value": "0"
								},
								{
									"begin": 25,
									"end": 126,
									"name": "RETURN",
									"source": 0
								}
							],
							".data": {
								"0": {
									".auxdata": "a264697066735822122002e4367793bbdce41a588fe3b20274f4f503db9bca214ccd86de59a42cf1cd8c64736f6c63430008070033",
									".code": [
										{
											"begin": 25,
											"end": 126,
											"name": "PUSH",
											"source": 0,
											"value": "80"
										},
										{
											"begin": 25,
											"end": 126,
											"name": "PUSH",
											"source": 0,
											"value": "40"
										},
										{
											"begin": 25,
											"end": 126,
											"name": "MSTORE",
											"source": 0
										},
										{
											"begin": 25,
											"end": 126,
											"name": "PUSH",
											"source": 0,
											"value": "0"
										},
										{
											"begin": 25,
											"end": 126,
											"name": "DUP1",
											"source": 0
										},
										{
											"begin": 25,
											"end": 126,
											"name": "REVERT",
											"source": 0
										}
									]
								}
							}
						},
						"methodIdentifiers": {}
					},
					"metadata": "{\"compiler\":{\"version\":\"0.8.7+commit.e28d00a7\"},\"language\":\"Solidity\",\"output\":{\"abi\":[],\"devdoc\":{\"kind\":\"dev\",\"methods\":{},\"version\":1},\"userdoc\":{\"kind\":\"user\",\"methods\":{},\"version\":1}},\"settings\":{\"compilationTarget\":{\"task3.sol\":\"loopingPractice\"},\"evmVersion\":\"london\",\"libraries\":{},\"metadata\":{\"bytecodeHash\":\"ipfs\"},\"optimizer\":{\"enabled\":false,\"runs\":200},\"remappings\":[]},\"sources\":{\"task3.sol\":{\"keccak256\":\"0xbf025708240de0e3e7401230fbfa183f0e545c0fa518e950de6e510da30a3cdc\",\"urls\":[\"bzz-raw://7b37e99e09010971f3f90618f037bd7e4c579725bb15fc2ae41d5f45f39545fb\",\"dweb:/ipfs/QmZyvER2VTqncBFwva9p1yREn7nzPM89d9UjKSixaPoELm\"]}},\"version\":1}",
					"storageLayout": {
						"storage": [
							{
								"astId": 25,
								"contract": "task3.sol:loopingPractice",
								"label": "longList",
								"offset": 0,
								"slot": "0",
								"type": "t_array(t_uint256)dyn_storage"
							}
						],
						"types": {
							"t_array(t_uint256)dyn_storage": {
								"base": "t_uint256",
								"encoding": "dynamic_array",
								"label": "uint256[]",
								"numberOfBytes": "32"
							},
							"t_uint256": {
								"encoding": "inplace",
								"label": "uint256",
								"numberOfBytes": "32"
							}
						}
					},
					"userdoc": {
						"kind": "user",
						"methods": {},
						"version": 1
					}
				}
			}
		},
		"errors": [
			{
				"component": "general",
				"errorCode": "1878",
				"formattedMessage": "Warning: SPDX license identifier not provided in source file. Before publishing, consider adding a comment containing \"SPDX-License-Identifier: <SPDX-License>\" to each source file. Use \"SPDX-License-Identifier: UNLICENSED\" for non-open-source code. Please see https://spdx.org for more information.\n--> task3.sol\n\n",
				"message": "SPDX license identifier not provided in source file. Before publishing, consider adding a comment containing \"SPDX-License-Identifier: <SPDX-License>\" to each source file. Use \"SPDX-License-Identifier: UNLICENSED\" for non-open-source code. Please see https://spdx.org for more information.",
				"severity": "warning",
				"sourceLocation": {
					"end": -1,
					"file": "task3.sol",
					"start": -1
				},
				"type": "Warning"
			}
		],
		"sources": {
			"task3.sol": {
				"ast": {
					"absolutePath": "task3.sol",
					"exportedSymbols": {
						"loopingPractice": [
							26
						]
					},
					"id": 27,
					"nodeType": "SourceUnit",
					"nodes": [
						{
							"id": 1,
							"literals": [
								"solidity",
								"^",
								"0.8",
								".0"
							],
							"nodeType": "PragmaDirective",
							"src": "0:23:0"
						},
						{
							"abstract": false,
							"baseContracts": [],
							"contractDependencies": [],
							"contractKind": "contract",
							"fullyImplemented": true,
							"id": 26,
							"linearizedBaseContracts": [
								26
							],
							"name": "loopingPractice",
							"nameLocation": "34:15:0",
							"nodeType": "ContractDefinition",
							"nodes": [
								{
									"constant": false,
									"id": 25,
									"mutability": "mutable",
									"name": "longList",
									"nameLocation": "59:8:0",
									"nodeType": "VariableDeclaration",
									"scope": 26,
									"src": "51:71:0",
									"stateVariable": true,
									"storageLocation": "default",
									"typeDescriptions": {
										"typeIdentifier": "t_array$_t_uint256_$dyn_storage",
										"typeString": "uint256[]"
									},
									"typeName": {
										"baseType": {
											"id": 2,
											"name": "uint",
											"nodeType": "ElementaryTypeName",
											"src": "51:4:0",
											"typeDescriptions": {
												"typeIdentifier": "t_uint256",
												"typeString": "uint256"
											}
										},
										"id": 3,
										"nodeType": "ArrayTypeName",
										"src": "51:7:0",
										"typeDescriptions": {
											"typeIdentifier": "t_array$_t_uint256_$dyn_storage_ptr",
											"typeString": "uint256[]"
										}
									},
									"value": {
										"components": [
											{
												"hexValue": "31",
												"id": 4,
												"isConstant": false,
												"isLValue": false,
												"isPure": true,
												"kind": "number",
												"lValueRequested": false,
												"nodeType": "Literal",
												"src": "71:1:0",
												"typeDescriptions": {
													"typeIdentifier": "t_rational_1_by_1",
													"typeString": "int_const 1"
												},
												"value": "1"
											},
											{
												"hexValue": "32",
												"id": 5,
												"isConstant": false,
												"isLValue": false,
												"isPure": true,
												"kind": "number",
												"lValueRequested": false,
												"nodeType": "Literal",
												"src": "73:1:0",
												"typeDescriptions": {
													"typeIdentifier": "t_rational_2_by_1",
													"typeString": "int_const 2"
												},
												"value": "2"
											},
											{
												"hexValue": "33",
												"id": 6,
												"isConstant": false,
												"isLValue": false,
												"isPure": true,
												"kind": "number",
												"lValueRequested": false,
												"nodeType": "Literal",
												"src": "75:1:0",
												"typeDescriptions": {
													"typeIdentifier": "t_rational_3_by_1",
													"typeString": "int_const 3"
												},
												"value": "3"
											},
											{
												"hexValue": "34",
												"id": 7,
												"isConstant": false,
												"isLValue": false,
												"isPure": true,
												"kind": "number",
												"lValueRequested": false,
												"nodeType": "Literal",
												"src": "77:1:0",
												"typeDescriptions": {
													"typeIdentifier": "t_rational_4_by_1",
													"typeString": "int_const 4"
												},
												"value": "4"
											},
											{
												"hexValue": "35",
												"id": 8,
												"isConstant": false,
												"isLValue": false,
												"isPure": true,
												"kind": "number",
												"lValueRequested": false,
												"nodeType": "Literal",
												"src": "79:1:0",
												"typeDescriptions": {
													"typeIdentifier": "t_rational_5_by_1",
													"typeString": "int_const 5"
												},
												"value": "5"
											},
											{
												"hexValue": "36",
												"id": 9,
												"isConstant": false,
												"isLValue": false,
												"isPure": true,
												"kind": "number",
												"lValueRequested": false,
												"nodeType": "Literal",
												"src": "81:1:0",
												"typeDescriptions": {
													"typeIdentifier": "t_rational_6_by_1",
													"typeString": "int_const 6"
												},
												"value": "6"
											},
											{
												"hexValue": "37",
												"id": 10,
												"isConstant": false,
												"isLValue": false,
												"isPure": true,
												"kind": "number",
												"lValueRequested": false,
												"nodeType": "Literal",
												"src": "83:1:0",
												"typeDescriptions": {
													"typeIdentifier": "t_rational_7_by_1",
													"typeString": "int_const 7"
												},
												"value": "7"
											},
											{
												"hexValue": "38",
												"id": 11,
												"isConstant": false,
												"isLValue": false,
												"isPure": true,
												"kind": "number",
												"lValueRequested": false,
												"nodeType": "Literal",
												"src": "85:1:0",
												"typeDescriptions": {
													"typeIdentifier": "t_rational_8_by_1",
													"typeString": "int_const 8"
												},
												"value": "8"
											},
											{
												"hexValue": "39",
												"id": 12,
												"isConstant": false,
												"isLValue": false,
												"isPure": true,
												"kind": "number",
												"lValueRequested": false,
												"nodeType": "Literal",
												"src": "87:1:0",
												"typeDescriptions": {
													"typeIdentifier": "t_rational_9_by_1",
													"typeString": "int_const 9"
												},
												"value": "9"
											},
											{
												"hexValue": "3130",
												"id": 13,
												"isConstant": false,
												"isLValue": false,
												"isPure": true,
												"kind": "number",
												"lValueRequested": false,
												"nodeType": "Literal",
												"src": "89:2:0",
												"typeDescriptions": {
													"typeIdentifier": "t_rational_10_by_1",
													"typeString": "int_const 10"
												},
												"value": "10"
											},
											{
												"hexValue": "3131",
												"id": 14,
												"isConstant": false,
												"isLValue": false,
												"isPure": true,
												"kind": "number",
												"lValueRequested": false,
												"nodeType": "Literal",
												"src": "92:2:0",
												"typeDescriptions": {
													"typeIdentifier": "t_rational_11_by_1",
													"typeString": "int_const 11"
												},
												"value": "11"
											},
											{
												"hexValue": "3132",
												"id": 15,
												"isConstant": false,
												"isLValue": false,
												"isPure": true,
												"kind": "number",
												"lValueRequested": false,
												"nodeType": "Literal",
												"src": "95:2:0",
												"typeDescriptions": {
													"typeIdentifier": "t_rational_12_by_1",
													"typeString": "int_const 12"
												},
												"value": "12"
											},
											{
												"hexValue": "3133",
												"id": 16,
												"isConstant": false,
												"isLValue": false,
												"isPure": true,
												"kind": "number",
												"lValueRequested": false,
												"nodeType": "Literal",
												"src": "98:2:0",
												"typeDescriptions": {
													"typeIdentifier": "t_rational_13_by_1",
													"typeString": "int_const 13"
												},
												"value": "13"
											},
											{
												"hexValue": "3134",
												"id": 17,
												"isConstant": false,
												"isLValue": false,
												"isPure": true,
												"kind": "number",
												"lValueRequested": false,
												"nodeType": "Literal",
												"src": "101:2:0",
												"typeDescriptions": {
													"typeIdentifier": "t_rational_14_by_1",
													"typeString": "int_const 14"
												},
												"value": "14"
											},
											{
												"hexValue": "3135",
												"id": 18,
												"isConstant": false,
												"isLValue": false,
												"isPure": true,
												"kind": "number",
												"lValueRequested": false,
												"nodeType": "Literal",
												"src": "104:2:0",
												"typeDescriptions": {
													"typeIdentifier": "t_rational_15_by_1",
													"typeString": "int_const 15"
												},
												"value": "15"
											},
											{
												"hexValue": "3136",
												"id": 19,
												"isConstant": false,
												"isLValue": false,
												"isPure": true,
												"kind": "number",
												"lValueRequested": false,
												"nodeType": "Literal",
												"src": "107:2:0",
												"typeDescriptions": {
													"typeIdentifier": "t_rational_16_by_1",
													"typeString": "int_const 16"
												},
												"value": "16"
											},
											{
												"hexValue": "3137",
												"id": 20,
												"isConstant": false,
												"isLValue": false,
												"isPure": true,
												"kind": "number",
												"lValueRequested": false,
												"nodeType": "Literal",
												"src": "110:2:0",
												"typeDescriptions": {
													"typeIdentifier": "t_rational_17_by_1",
													"typeString": "int_const 17"
												},
												"value": "17"
											},
											{
												"hexValue": "3138",
												"id": 21,
												"isConstant": false,
												"isLValue": false,
												"isPure": true,
												"kind": "number",
												"lValueRequested": false,
												"nodeType": "Literal",
												"src": "113:2:0",
												"typeDescriptions": {
													"typeIdentifier": "t_rational_18_by_1",
													"typeString": "int_const 18"
												},
												"value": "18"
											},
											{
												"hexValue": "3139",
												"id": 22,
												"isConstant": false,
												"isLValue": false,
												"isPure": true,
												"kind": "number",
												"lValueRequested": false,
												"nodeType": "Literal",
												"src": "116:2:0",
												"typeDescriptions": {
													"typeIdentifier": "t_rational_19_by_1",
													"typeString": "int_const 19"
												},
												"value": "19"
											},
											{
												"hexValue": "3230",
												"id": 23,
												"isConstant": false,
												"isLValue": false,
												"isPure": true,
												"kind": "number",
												"lValueRequested": false,
												"nodeType": "Literal",
												"src": "119:2:0",
												"typeDescriptions": {
													"typeIdentifier": "t_rational_20_by_1",
													"typeString": "int_const 20"
												},
												"value": "20"
											}
										],
										"id": 24,
										"isConstant": false,
										"isInlineArray": true,
										"isLValue": false,
										"isPure": true,
										"lValueRequested": false,
										"nodeType": "TupleExpression",
										"src": "70:52:0",
										"typeDescriptions": {
											"typeIdentifier": "t_array$_t_uint8_$20_memory_ptr",
											"typeString": "uint8[20] memory"
										}
									},
									"visibility": "internal"
								}
							],
							"scope": 27,
							"src": "25:101:0",
							"usedErrors": []
						}
					],
					"src": "0:126:0"
				},
				"id": 0
			}
		}
	}
}