{
	"id": "3253f05084ef3d2695e8e22d06cb5444",
	"_format": "hh-sol-build-info-1",
	"solcVersion": "0.8.16",
	"solcLongVersion": "0.8.16+commit.07a7930e",
	"input": {
		"language": "Solidity",
		"sources": {
			"fallback.sol": {
				"content": "pragma solidity ^0.8.0;\n\ncontract fallbacks{\n    \n}"
			}
		},
		"settings": {
			"optimizer": {
				"enabled": false,
				"runs": 200
			},
			"outputSelection": {
				"*": {
					"": [
						"ast"
					],
					"*": [
						"abi",
						"metadata",
						"devdoc",
						"userdoc",
						"storageLayout",
						"evm.legacyAssembly",
						"evm.bytecode",
						"evm.deployedBytecode",
						"evm.methodIdentifiers",
						"evm.gasEstimates",
						"evm.assembly"
					]
				}
			}
		}
	},
	"output": {
		"contracts": {
			"fallback.sol": {
				"fallbacks": {
					"abi": [],
					"devdoc": {
						"kind": "dev",
						"methods": {},
						"version": 1
					},
					"evm": {
						"assembly": "    /* \"fallback.sol\":25:51  contract fallbacks{... */\n  mstore(0x40, 0x80)\n  callvalue\n  dup1\n  iszero\n  tag_1\n  jumpi\n  0x00\n  dup1\n  revert\ntag_1:\n  pop\n  dataSize(sub_0)\n  dup1\n  dataOffset(sub_0)\n  0x00\n  codecopy\n  0x00\n  return\nstop\n\nsub_0: assembly {\n        /* \"fallback.sol\":25:51  contract fallbacks{... */\n      mstore(0x40, 0x80)\n      0x00\n      dup1\n      revert\n\n    auxdata: 0xa264697066735822122011470fb8ea1b504d39b402a7e0e8e09c23f6a528c17f30c12011f2ac45e2e7d264736f6c63430008100033\n}\n",
						"bytecode": {
							"functionDebugData": {},
							"generatedSources": [],
							"linkReferences": {},
							"object": "6080604052348015600f57600080fd5b50603f80601d6000396000f3fe6080604052600080fdfea264697066735822122011470fb8ea1b504d39b402a7e0e8e09c23f6a528c17f30c12011f2ac45e2e7d264736f6c63430008100033",
							"opcodes": "PUSH1 0x80 PUSH1 0x40 MSTORE CALLVALUE DUP1 ISZERO PUSH1 0xF JUMPI PUSH1 0x0 DUP1 REVERT JUMPDEST POP PUSH1 0x3F DUP1 PUSH1 0x1D PUSH1 0x0 CODECOPY PUSH1 0x0 RETURN INVALID PUSH1 0x80 PUSH1 0x40 MSTORE PUSH1 0x0 DUP1 REVERT INVALID LOG2 PUSH5 0x6970667358 0x22 SLT KECCAK256 GT SELFBALANCE 0xF 0xB8 0xEA SHL POP 0x4D CODECOPY 0xB4 MUL 0xA7 0xE0 0xE8 0xE0 SWAP13 0x23 0xF6 0xA5 0x28 0xC1 PUSH32 0x30C12011F2AC45E2E7D264736F6C634300081000330000000000000000000000 ",
							"sourceMap": "25:26:0:-:0;;;;;;;;;;;;;;;;;;;"
						},
						"deployedBytecode": {
							"functionDebugData": {},
							"generatedSources": [],
							"immutableReferences": {},
							"linkReferences": {},
							"object": "6080604052600080fdfea264697066735822122011470fb8ea1b504d39b402a7e0e8e09c23f6a528c17f30c12011f2ac45e2e7d264736f6c63430008100033",
							"opcodes": "PUSH1 0x80 PUSH1 0x40 MSTORE PUSH1 0x0 DUP1 REVERT INVALID LOG2 PUSH5 0x6970667358 0x22 SLT KECCAK256 GT SELFBALANCE 0xF 0xB8 0xEA SHL POP 0x4D CODECOPY 0xB4 MUL 0xA7 0xE0 0xE8 0xE0 SWAP13 0x23 0xF6 0xA5 0x28 0xC1 PUSH32 0x30C12011F2AC45E2E7D264736F6C634300081000330000000000000000000000 ",
							"sourceMap": "25:26:0:-:0;;;;;"
						},
						"gasEstimates": {
							"creation": {
								"codeDepositCost": "12600",
								"executionCost": "66",
								"totalCost": "12666"
							}
						},
						"legacyAssembly": {
							".code": [
								{
									"begin": 25,
									"end": 51,
									"name": "PUSH",
									"source": 0,
									"value": "80"
								},
								{
									"begin": 25,
									"end": 51,
									"name": "PUSH",
									"source": 0,
									"value": "40"
								},
								{
									"begin": 25,
									"end": 51,
									"name": "MSTORE",
									"source": 0
								},
								{
									"begin": 25,
									"end": 51,
									"name": "CALLVALUE",
									"source": 0
								},
								{
									"begin": 25,
									"end": 51,
									"name": "DUP1",
									"source": 0
								},
								{
									"begin": 25,
									"end": 51,
									"name": "ISZERO",
									"source": 0
								},
								{
									"begin": 25,
									"end": 51,
									"name": "PUSH [tag]",
									"source": 0,
									"value": "1"
								},
								{
									"begin": 25,
									"end": 51,
									"name": "JUMPI",
									"source": 0
								},
								{
									"begin": 25,
									"end": 51,
									"name": "PUSH",
									"source": 0,
									"value": "0"
								},
								{
									"begin": 25,
									"end": 51,
									"name": "DUP1",
									"source": 0
								},
								{
									"begin": 25,
									"end": 51,
									"name": "REVERT",
									"source": 0
								},
								{
									"begin": 25,
									"end": 51,
									"name": "tag",
									"source": 0,
									"value": "1"
								},
								{
									"begin": 25,
									"end": 51,
									"name": "JUMPDEST",
									"source": 0
								},
								{
									"begin": 25,
									"end": 51,
									"name": "POP",
									"source": 0
								},
								{
									"begin": 25,
									"end": 51,
									"name": "PUSH #[$]",
									"source": 0,
									"value": "0000000000000000000000000000000000000000000000000000000000000000"
								},
								{
									"begin": 25,
									"end": 51,
									"name": "DUP1",
									"source": 0
								},
								{
									"begin": 25,
									"end": 51,
									"name": "PUSH [$]",
									"source": 0,
									"value": "0000000000000000000000000000000000000000000000000000000000000000"
								},
								{
									"begin": 25,
									"end": 51,
									"name": "PUSH",
									"source": 0,
									"value": "0"
								},
								{
									"begin": 25,
									"end": 51,
									"name": "CODECOPY",
									"source": 0
								},
								{
									"begin": 25,
									"end": 51,
									"name": "PUSH",
									"source": 0,
									"value": "0"
								},
								{
									"begin": 25,
									"end": 51,
									"name": "RETURN",
									"source": 0
								}
							],
							".data": {
								"0": {
									".auxdata": "a264697066735822122011470fb8ea1b504d39b402a7e0e8e09c23f6a528c17f30c12011f2ac45e2e7d264736f6c63430008100033",
									".code": [
										{
											"begin": 25,
											"end": 51,
											"name": "PUSH",
											"source": 0,
											"value": "80"
										},
										{
											"begin": 25,
											"end": 51,
											"name": "PUSH",
											"source": 0,
											"value": "40"
										},
										{
											"begin": 25,
											"end": 51,
											"name": "MSTORE",
											"source": 0
										},
										{
											"begin": 25,
											"end": 51,
											"name": "PUSH",
											"source": 0,
											"value": "0"
										},
										{
											"begin": 25,
											"end": 51,
											"name": "DUP1",
											"source": 0
										},
										{
											"begin": 25,
											"end": 51,
											"name": "REVERT",
											"source": 0
										}
									]
								}
							},
							"sourceList": [
								"fallback.sol",
								"#utility.yul"
							]
						},
						"methodIdentifiers": {}
					},
					"metadata": "{\"compiler\":{\"version\":\"0.8.16+commit.07a7930e\"},\"language\":\"Solidity\",\"output\":{\"abi\":[],\"devdoc\":{\"kind\":\"dev\",\"methods\":{},\"version\":1},\"userdoc\":{\"kind\":\"user\",\"methods\":{},\"version\":1}},\"settings\":{\"compilationTarget\":{\"fallback.sol\":\"fallbacks\"},\"evmVersion\":\"london\",\"libraries\":{},\"metadata\":{\"bytecodeHash\":\"ipfs\"},\"optimizer\":{\"enabled\":false,\"runs\":200},\"remappings\":[]},\"sources\":{\"fallback.sol\":{\"keccak256\":\"0xd809f50056f2d8d997daf802b936c1380b6ae238ed115f3db816b4dac0f5e6db\",\"urls\":[\"bzz-raw://22f7e1cc18bc36b7c3f595b060427a36cd7dd432280f7b0426267ed5cd7b20a2\",\"dweb:/ipfs/QmNqtD3QxCyd8fpZi5WCqTTY47NsjVced9z1g1S5TMsQpq\"]}},\"version\":1}",
					"storageLayout": {
						"storage": [],
						"types": null
					},
					"userdoc": {
						"kind": "user",
						"methods": {},
						"version": 1
					}
				}
			}
		},
		"errors": [
			{
				"component": "general",
				"errorCode": "1878",
				"formattedMessage": "Warning: SPDX license identifier not provided in source file. Before publishing, consider adding a comment containing \"SPDX-License-Identifier: <SPDX-License>\" to each source file. Use \"SPDX-License-Identifier: UNLICENSED\" for non-open-source code. Please see https://spdx.org for more information.\n--> fallback.sol\n\n",
				"message": "SPDX license identifier not provided in source file. Before publishing, consider adding a comment containing \"SPDX-License-Identifier: <SPDX-License>\" to each source file. Use \"SPDX-License-Identifier: UNLICENSED\" for non-open-source code. Please see https://spdx.org for more information.",
				"severity": "warning",
				"sourceLocation": {
					"end": -1,
					"file": "fallback.sol",
					"start": -1
				},
				"type": "Warning"
			}
		],
		"sources": {
			"fallback.sol": {
				"ast": {
					"absolutePath": "fallback.sol",
					"exportedSymbols": {
						"fallbacks": [
							2
						]
					},
					"id": 3,
					"nodeType": "SourceUnit",
					"nodes": [
						{
							"id": 1,
							"literals": [
								"solidity",
								"^",
								"0.8",
								".0"
							],
							"nodeType": "PragmaDirective",
							"src": "0:23:0"
						},
						{
							"abstract": false,
							"baseContracts": [],
							"canonicalName": "fallbacks",
							"contractDependencies": [],
							"contractKind": "contract",
							"fullyImplemented": true,
							"id": 2,
							"linearizedBaseContracts": [
								2
							],
							"name": "fallbacks",
							"nameLocation": "34:9:0",
							"nodeType": "ContractDefinition",
							"nodes": [],
							"scope": 3,
							"src": "25:26:0",
							"usedErrors": []
						}
					],
					"src": "0:51:0"
				},
				"id": 0
			}
		}
	}
}