{
	"id": "3b9735e438ebd87201376b974300e94b",
	"_format": "hh-sol-build-info-1",
	"solcVersion": "0.8.7",
	"solcLongVersion": "0.8.7+commit.e28d00a7",
	"input": {
		"language": "Solidity",
		"sources": {
			"ERC721.sol": {
				"content": "//SPDX-License-Identifier: Rahul pithadia\n\npragma solidity ^0.8.0;\n\ncontract ERC721{\n    string private name;\n    string private symbol;\n    uint private totalSupply;\n    string private baseUrl;\n\n      mapping(uint256 => address) private _owners;\n    event Transfer(address indexed _from, address indexed _to, uint256 indexed _tokenId);\n    event Approval(address indexed _owner, address indexed _approved, uint256 indexed _tokenId);\n    event ApprovalForAll(address indexed _owner, address indexed _operator, bool _approved);\n}"
			}
		},
		"settings": {
			"optimizer": {
				"enabled": false,
				"runs": 200
			},
			"outputSelection": {
				"*": {
					"": [
						"ast"
					],
					"*": [
						"abi",
						"metadata",
						"devdoc",
						"userdoc",
						"storageLayout",
						"evm.legacyAssembly",
						"evm.bytecode",
						"evm.deployedBytecode",
						"evm.methodIdentifiers",
						"evm.gasEstimates",
						"evm.assembly"
					]
				}
			}
		}
	},
	"output": {
		"contracts": {
			"ERC721.sol": {
				"ERC721": {
					"abi": [
						{
							"anonymous": false,
							"inputs": [
								{
									"indexed": true,
									"internalType": "address",
									"name": "_owner",
									"type": "address"
								},
								{
									"indexed": true,
									"internalType": "address",
									"name": "_approved",
									"type": "address"
								},
								{
									"indexed": true,
									"internalType": "uint256",
									"name": "_tokenId",
									"type": "uint256"
								}
							],
							"name": "Approval",
							"type": "event"
						},
						{
							"anonymous": false,
							"inputs": [
								{
									"indexed": true,
									"internalType": "address",
									"name": "_owner",
									"type": "address"
								},
								{
									"indexed": true,
									"internalType": "address",
									"name": "_operator",
									"type": "address"
								},
								{
									"indexed": false,
									"internalType": "bool",
									"name": "_approved",
									"type": "bool"
								}
							],
							"name": "ApprovalForAll",
							"type": "event"
						},
						{
							"anonymous": false,
							"inputs": [
								{
									"indexed": true,
									"internalType": "address",
									"name": "_from",
									"type": "address"
								},
								{
									"indexed": true,
									"internalType": "address",
									"name": "_to",
									"type": "address"
								},
								{
									"indexed": true,
									"internalType": "uint256",
									"name": "_tokenId",
									"type": "uint256"
								}
							],
							"name": "Transfer",
							"type": "event"
						}
					],
					"devdoc": {
						"kind": "dev",
						"methods": {},
						"version": 1
					},
					"evm": {
						"assembly": "    /* \"ERC721.sol\":68:528  contract ERC721{... */\n  mstore(0x40, 0x80)\n  callvalue\n  dup1\n  iszero\n  tag_1\n  jumpi\n  0x00\n  dup1\n  revert\ntag_1:\n  pop\n  dataSize(sub_0)\n  dup1\n  dataOffset(sub_0)\n  0x00\n  codecopy\n  0x00\n  return\nstop\n\nsub_0: assembly {\n        /* \"ERC721.sol\":68:528  contract ERC721{... */\n      mstore(0x40, 0x80)\n      0x00\n      dup1\n      revert\n\n    auxdata: 0xa26469706673582212204e11d66df739f998e05a32343e53a1e1651e36480c9420c6069eebc4a7a4fbcd64736f6c63430008070033\n}\n",
						"bytecode": {
							"functionDebugData": {},
							"generatedSources": [],
							"linkReferences": {},
							"object": "6080604052348015600f57600080fd5b50603f80601d6000396000f3fe6080604052600080fdfea26469706673582212204e11d66df739f998e05a32343e53a1e1651e36480c9420c6069eebc4a7a4fbcd64736f6c63430008070033",
							"opcodes": "PUSH1 0x80 PUSH1 0x40 MSTORE CALLVALUE DUP1 ISZERO PUSH1 0xF JUMPI PUSH1 0x0 DUP1 REVERT JUMPDEST POP PUSH1 0x3F DUP1 PUSH1 0x1D PUSH1 0x0 CODECOPY PUSH1 0x0 RETURN INVALID PUSH1 0x80 PUSH1 0x40 MSTORE PUSH1 0x0 DUP1 REVERT INVALID LOG2 PUSH5 0x6970667358 0x22 SLT KECCAK256 0x4E GT 0xD6 PUSH14 0xF739F998E05A32343E53A1E1651E CALLDATASIZE BASEFEE 0xC SWAP5 KECCAK256 0xC6 MOD SWAP15 0xEB 0xC4 0xA7 LOG4 0xFB 0xCD PUSH5 0x736F6C6343 STOP ADDMOD SMOD STOP CALLER ",
							"sourceMap": "68:460:0:-:0;;;;;;;;;;;;;;;;;;;"
						},
						"deployedBytecode": {
							"functionDebugData": {},
							"generatedSources": [],
							"immutableReferences": {},
							"linkReferences": {},
							"object": "6080604052600080fdfea26469706673582212204e11d66df739f998e05a32343e53a1e1651e36480c9420c6069eebc4a7a4fbcd64736f6c63430008070033",
							"opcodes": "PUSH1 0x80 PUSH1 0x40 MSTORE PUSH1 0x0 DUP1 REVERT INVALID LOG2 PUSH5 0x6970667358 0x22 SLT KECCAK256 0x4E GT 0xD6 PUSH14 0xF739F998E05A32343E53A1E1651E CALLDATASIZE BASEFEE 0xC SWAP5 KECCAK256 0xC6 MOD SWAP15 0xEB 0xC4 0xA7 LOG4 0xFB 0xCD PUSH5 0x736F6C6343 STOP ADDMOD SMOD STOP CALLER ",
							"sourceMap": "68:460:0:-:0;;;;;"
						},
						"gasEstimates": {
							"creation": {
								"codeDepositCost": "12600",
								"executionCost": "66",
								"totalCost": "12666"
							}
						},
						"legacyAssembly": {
							".code": [
								{
									"begin": 68,
									"end": 528,
									"name": "PUSH",
									"source": 0,
									"value": "80"
								},
								{
									"begin": 68,
									"end": 528,
									"name": "PUSH",
									"source": 0,
									"value": "40"
								},
								{
									"begin": 68,
									"end": 528,
									"name": "MSTORE",
									"source": 0
								},
								{
									"begin": 68,
									"end": 528,
									"name": "CALLVALUE",
									"source": 0
								},
								{
									"begin": 68,
									"end": 528,
									"name": "DUP1",
									"source": 0
								},
								{
									"begin": 68,
									"end": 528,
									"name": "ISZERO",
									"source": 0
								},
								{
									"begin": 68,
									"end": 528,
									"name": "PUSH [tag]",
									"source": 0,
									"value": "1"
								},
								{
									"begin": 68,
									"end": 528,
									"name": "JUMPI",
									"source": 0
								},
								{
									"begin": 68,
									"end": 528,
									"name": "PUSH",
									"source": 0,
									"value": "0"
								},
								{
									"begin": 68,
									"end": 528,
									"name": "DUP1",
									"source": 0
								},
								{
									"begin": 68,
									"end": 528,
									"name": "REVERT",
									"source": 0
								},
								{
									"begin": 68,
									"end": 528,
									"name": "tag",
									"source": 0,
									"value": "1"
								},
								{
									"begin": 68,
									"end": 528,
									"name": "JUMPDEST",
									"source": 0
								},
								{
									"begin": 68,
									"end": 528,
									"name": "POP",
									"source": 0
								},
								{
									"begin": 68,
									"end": 528,
									"name": "PUSH #[$]",
									"source": 0,
									"value": "0000000000000000000000000000000000000000000000000000000000000000"
								},
								{
									"begin": 68,
									"end": 528,
									"name": "DUP1",
									"source": 0
								},
								{
									"begin": 68,
									"end": 528,
									"name": "PUSH [$]",
									"source": 0,
									"value": "0000000000000000000000000000000000000000000000000000000000000000"
								},
								{
									"begin": 68,
									"end": 528,
									"name": "PUSH",
									"source": 0,
									"value": "0"
								},
								{
									"begin": 68,
									"end": 528,
									"name": "CODECOPY",
									"source": 0
								},
								{
									"begin": 68,
									"end": 528,
									"name": "PUSH",
									"source": 0,
									"value": "0"
								},
								{
									"begin": 68,
									"end": 528,
									"name": "RETURN",
									"source": 0
								}
							],
							".data": {
								"0": {
									".auxdata": "a26469706673582212204e11d66df739f998e05a32343e53a1e1651e36480c9420c6069eebc4a7a4fbcd64736f6c63430008070033",
									".code": [
										{
											"begin": 68,
											"end": 528,
											"name": "PUSH",
											"source": 0,
											"value": "80"
										},
										{
											"begin": 68,
											"end": 528,
											"name": "PUSH",
											"source": 0,
											"value": "40"
										},
										{
											"begin": 68,
											"end": 528,
											"name": "MSTORE",
											"source": 0
										},
										{
											"begin": 68,
											"end": 528,
											"name": "PUSH",
											"source": 0,
											"value": "0"
										},
										{
											"begin": 68,
											"end": 528,
											"name": "DUP1",
											"source": 0
										},
										{
											"begin": 68,
											"end": 528,
											"name": "REVERT",
											"source": 0
										}
									]
								}
							}
						},
						"methodIdentifiers": {}
					},
					"metadata": "{\"compiler\":{\"version\":\"0.8.7+commit.e28d00a7\"},\"language\":\"Solidity\",\"output\":{\"abi\":[{\"anonymous\":false,\"inputs\":[{\"indexed\":true,\"internalType\":\"address\",\"name\":\"_owner\",\"type\":\"address\"},{\"indexed\":true,\"internalType\":\"address\",\"name\":\"_approved\",\"type\":\"address\"},{\"indexed\":true,\"internalType\":\"uint256\",\"name\":\"_tokenId\",\"type\":\"uint256\"}],\"name\":\"Approval\",\"type\":\"event\"},{\"anonymous\":false,\"inputs\":[{\"indexed\":true,\"internalType\":\"address\",\"name\":\"_owner\",\"type\":\"address\"},{\"indexed\":true,\"internalType\":\"address\",\"name\":\"_operator\",\"type\":\"address\"},{\"indexed\":false,\"internalType\":\"bool\",\"name\":\"_approved\",\"type\":\"bool\"}],\"name\":\"ApprovalForAll\",\"type\":\"event\"},{\"anonymous\":false,\"inputs\":[{\"indexed\":true,\"internalType\":\"address\",\"name\":\"_from\",\"type\":\"address\"},{\"indexed\":true,\"internalType\":\"address\",\"name\":\"_to\",\"type\":\"address\"},{\"indexed\":true,\"internalType\":\"uint256\",\"name\":\"_tokenId\",\"type\":\"uint256\"}],\"name\":\"Transfer\",\"type\":\"event\"}],\"devdoc\":{\"kind\":\"dev\",\"methods\":{},\"version\":1},\"userdoc\":{\"kind\":\"user\",\"methods\":{},\"version\":1}},\"settings\":{\"compilationTarget\":{\"ERC721.sol\":\"ERC721\"},\"evmVersion\":\"london\",\"libraries\":{},\"metadata\":{\"bytecodeHash\":\"ipfs\"},\"optimizer\":{\"enabled\":false,\"runs\":200},\"remappings\":[]},\"sources\":{\"ERC721.sol\":{\"keccak256\":\"0xb3634fc9529992b82b13047f09de6aacf3b6c23a3e55bbdd36b46a309085d8d5\",\"license\":\"Rahul pithadia\",\"urls\":[\"bzz-raw://a79bf6ea8f4a0046cbb2eb1e39f4d743fb7fa73701b50525bbf6cfd87708b964\",\"dweb:/ipfs/QmZH19DKLVBGJtj8bjMUzFie6jE9P3eLhdme5S5A3ziF9C\"]}},\"version\":1}",
					"storageLayout": {
						"storage": [
							{
								"astId": 3,
								"contract": "ERC721.sol:ERC721",
								"label": "name",
								"offset": 0,
								"slot": "0",
								"type": "t_string_storage"
							},
							{
								"astId": 5,
								"contract": "ERC721.sol:ERC721",
								"label": "symbol",
								"offset": 0,
								"slot": "1",
								"type": "t_string_storage"
							},
							{
								"astId": 7,
								"contract": "ERC721.sol:ERC721",
								"label": "totalSupply",
								"offset": 0,
								"slot": "2",
								"type": "t_uint256"
							},
							{
								"astId": 9,
								"contract": "ERC721.sol:ERC721",
								"label": "baseUrl",
								"offset": 0,
								"slot": "3",
								"type": "t_string_storage"
							},
							{
								"astId": 13,
								"contract": "ERC721.sol:ERC721",
								"label": "_owners",
								"offset": 0,
								"slot": "4",
								"type": "t_mapping(t_uint256,t_address)"
							}
						],
						"types": {
							"t_address": {
								"encoding": "inplace",
								"label": "address",
								"numberOfBytes": "20"
							},
							"t_mapping(t_uint256,t_address)": {
								"encoding": "mapping",
								"key": "t_uint256",
								"label": "mapping(uint256 => address)",
								"numberOfBytes": "32",
								"value": "t_address"
							},
							"t_string_storage": {
								"encoding": "bytes",
								"label": "string",
								"numberOfBytes": "32"
							},
							"t_uint256": {
								"encoding": "inplace",
								"label": "uint256",
								"numberOfBytes": "32"
							}
						}
					},
					"userdoc": {
						"kind": "user",
						"methods": {},
						"version": 1
					}
				}
			}
		},
		"sources": {
			"ERC721.sol": {
				"ast": {
					"absolutePath": "ERC721.sol",
					"exportedSymbols": {
						"ERC721": [
							38
						]
					},
					"id": 39,
					"license": "Rahul pithadia",
					"nodeType": "SourceUnit",
					"nodes": [
						{
							"id": 1,
							"literals": [
								"solidity",
								"^",
								"0.8",
								".0"
							],
							"nodeType": "PragmaDirective",
							"src": "43:23:0"
						},
						{
							"abstract": false,
							"baseContracts": [],
							"contractDependencies": [],
							"contractKind": "contract",
							"fullyImplemented": true,
							"id": 38,
							"linearizedBaseContracts": [
								38
							],
							"name": "ERC721",
							"nameLocation": "77:6:0",
							"nodeType": "ContractDefinition",
							"nodes": [
								{
									"constant": false,
									"id": 3,
									"mutability": "mutable",
									"name": "name",
									"nameLocation": "104:4:0",
									"nodeType": "VariableDeclaration",
									"scope": 38,
									"src": "89:19:0",
									"stateVariable": true,
									"storageLocation": "default",
									"typeDescriptions": {
										"typeIdentifier": "t_string_storage",
										"typeString": "string"
									},
									"typeName": {
										"id": 2,
										"name": "string",
										"nodeType": "ElementaryTypeName",
										"src": "89:6:0",
										"typeDescriptions": {
											"typeIdentifier": "t_string_storage_ptr",
											"typeString": "string"
										}
									},
									"visibility": "private"
								},
								{
									"constant": false,
									"id": 5,
									"mutability": "mutable",
									"name": "symbol",
									"nameLocation": "129:6:0",
									"nodeType": "VariableDeclaration",
									"scope": 38,
									"src": "114:21:0",
									"stateVariable": true,
									"storageLocation": "default",
									"typeDescriptions": {
										"typeIdentifier": "t_string_storage",
										"typeString": "string"
									},
									"typeName": {
										"id": 4,
										"name": "string",
										"nodeType": "ElementaryTypeName",
										"src": "114:6:0",
										"typeDescriptions": {
											"typeIdentifier": "t_string_storage_ptr",
											"typeString": "string"
										}
									},
									"visibility": "private"
								},
								{
									"constant": false,
									"id": 7,
									"mutability": "mutable",
									"name": "totalSupply",
									"nameLocation": "154:11:0",
									"nodeType": "VariableDeclaration",
									"scope": 38,
									"src": "141:24:0",
									"stateVariable": true,
									"storageLocation": "default",
									"typeDescriptions": {
										"typeIdentifier": "t_uint256",
										"typeString": "uint256"
									},
									"typeName": {
										"id": 6,
										"name": "uint",
										"nodeType": "ElementaryTypeName",
										"src": "141:4:0",
										"typeDescriptions": {
											"typeIdentifier": "t_uint256",
											"typeString": "uint256"
										}
									},
									"visibility": "private"
								},
								{
									"constant": false,
									"id": 9,
									"mutability": "mutable",
									"name": "baseUrl",
									"nameLocation": "186:7:0",
									"nodeType": "VariableDeclaration",
									"scope": 38,
									"src": "171:22:0",
									"stateVariable": true,
									"storageLocation": "default",
									"typeDescriptions": {
										"typeIdentifier": "t_string_storage",
										"typeString": "string"
									},
									"typeName": {
										"id": 8,
										"name": "string",
										"nodeType": "ElementaryTypeName",
										"src": "171:6:0",
										"typeDescriptions": {
											"typeIdentifier": "t_string_storage_ptr",
											"typeString": "string"
										}
									},
									"visibility": "private"
								},
								{
									"constant": false,
									"id": 13,
									"mutability": "mutable",
									"name": "_owners",
									"nameLocation": "238:7:0",
									"nodeType": "VariableDeclaration",
									"scope": 38,
									"src": "202:43:0",
									"stateVariable": true,
									"storageLocation": "default",
									"typeDescriptions": {
										"typeIdentifier": "t_mapping$_t_uint256_$_t_address_$",
										"typeString": "mapping(uint256 => address)"
									},
									"typeName": {
										"id": 12,
										"keyType": {
											"id": 10,
											"name": "uint256",
											"nodeType": "ElementaryTypeName",
											"src": "210:7:0",
											"typeDescriptions": {
												"typeIdentifier": "t_uint256",
												"typeString": "uint256"
											}
										},
										"nodeType": "Mapping",
										"src": "202:27:0",
										"typeDescriptions": {
											"typeIdentifier": "t_mapping$_t_uint256_$_t_address_$",
											"typeString": "mapping(uint256 => address)"
										},
										"valueType": {
											"id": 11,
											"name": "address",
											"nodeType": "ElementaryTypeName",
											"src": "221:7:0",
											"stateMutability": "nonpayable",
											"typeDescriptions": {
												"typeIdentifier": "t_address",
												"typeString": "address"
											}
										}
									},
									"visibility": "private"
								},
								{
									"anonymous": false,
									"id": 21,
									"name": "Transfer",
									"nameLocation": "257:8:0",
									"nodeType": "EventDefinition",
									"parameters": {
										"id": 20,
										"nodeType": "ParameterList",
										"parameters": [
											{
												"constant": false,
												"id": 15,
												"indexed": true,
												"mutability": "mutable",
												"name": "_from",
												"nameLocation": "282:5:0",
												"nodeType": "VariableDeclaration",
												"scope": 21,
												"src": "266:21:0",
												"stateVariable": false,
												"storageLocation": "default",
												"typeDescriptions": {
													"typeIdentifier": "t_address",
													"typeString": "address"
												},
												"typeName": {
													"id": 14,
													"name": "address",
													"nodeType": "ElementaryTypeName",
													"src": "266:7:0",
													"stateMutability": "nonpayable",
													"typeDescriptions": {
														"typeIdentifier": "t_address",
														"typeString": "address"
													}
												},
												"visibility": "internal"
											},
											{
												"constant": false,
												"id": 17,
												"indexed": true,
												"mutability": "mutable",
												"name": "_to",
												"nameLocation": "305:3:0",
												"nodeType": "VariableDeclaration",
												"scope": 21,
												"src": "289:19:0",
												"stateVariable": false,
												"storageLocation": "default",
												"typeDescriptions": {
													"typeIdentifier": "t_address",
													"typeString": "address"
												},
												"typeName": {
													"id": 16,
													"name": "address",
													"nodeType": "ElementaryTypeName",
													"src": "289:7:0",
													"stateMutability": "nonpayable",
													"typeDescriptions": {
														"typeIdentifier": "t_address",
														"typeString": "address"
													}
												},
												"visibility": "internal"
											},
											{
												"constant": false,
												"id": 19,
												"indexed": true,
												"mutability": "mutable",
												"name": "_tokenId",
												"nameLocation": "326:8:0",
												"nodeType": "VariableDeclaration",
												"scope": 21,
												"src": "310:24:0",
												"stateVariable": false,
												"storageLocation": "default",
												"typeDescriptions": {
													"typeIdentifier": "t_uint256",
													"typeString": "uint256"
												},
												"typeName": {
													"id": 18,
													"name": "uint256",
													"nodeType": "ElementaryTypeName",
													"src": "310:7:0",
													"typeDescriptions": {
														"typeIdentifier": "t_uint256",
														"typeString": "uint256"
													}
												},
												"visibility": "internal"
											}
										],
										"src": "265:70:0"
									},
									"src": "251:85:0"
								},
								{
									"anonymous": false,
									"id": 29,
									"name": "Approval",
									"nameLocation": "347:8:0",
									"nodeType": "EventDefinition",
									"parameters": {
										"id": 28,
										"nodeType": "ParameterList",
										"parameters": [
											{
												"constant": false,
												"id": 23,
												"indexed": true,
												"mutability": "mutable",
												"name": "_owner",
												"nameLocation": "372:6:0",
												"nodeType": "VariableDeclaration",
												"scope": 29,
												"src": "356:22:0",
												"stateVariable": false,
												"storageLocation": "default",
												"typeDescriptions": {
													"typeIdentifier": "t_address",
													"typeString": "address"
												},
												"typeName": {
													"id": 22,
													"name": "address",
													"nodeType": "ElementaryTypeName",
													"src": "356:7:0",
													"stateMutability": "nonpayable",
													"typeDescriptions": {
														"typeIdentifier": "t_address",
														"typeString": "address"
													}
												},
												"visibility": "internal"
											},
											{
												"constant": false,
												"id": 25,
												"indexed": true,
												"mutability": "mutable",
												"name": "_approved",
												"nameLocation": "396:9:0",
												"nodeType": "VariableDeclaration",
												"scope": 29,
												"src": "380:25:0",
												"stateVariable": false,
												"storageLocation": "default",
												"typeDescriptions": {
													"typeIdentifier": "t_address",
													"typeString": "address"
												},
												"typeName": {
													"id": 24,
													"name": "address",
													"nodeType": "ElementaryTypeName",
													"src": "380:7:0",
													"stateMutability": "nonpayable",
													"typeDescriptions": {
														"typeIdentifier": "t_address",
														"typeString": "address"
													}
												},
												"visibility": "internal"
											},
											{
												"constant": false,
												"id": 27,
												"indexed": true,
												"mutability": "mutable",
												"name": "_tokenId",
												"nameLocation": "423:8:0",
												"nodeType": "VariableDeclaration",
												"scope": 29,
												"src": "407:24:0",
												"stateVariable": false,
												"storageLocation": "default",
												"typeDescriptions": {
													"typeIdentifier": "t_uint256",
													"typeString": "uint256"
												},
												"typeName": {
													"id": 26,
													"name": "uint256",
													"nodeType": "ElementaryTypeName",
													"src": "407:7:0",
													"typeDescriptions": {
														"typeIdentifier": "t_uint256",
														"typeString": "uint256"
													}
												},
												"visibility": "internal"
											}
										],
										"src": "355:77:0"
									},
									"src": "341:92:0"
								},
								{
									"anonymous": false,
									"id": 37,
									"name": "ApprovalForAll",
									"nameLocation": "444:14:0",
									"nodeType": "EventDefinition",
									"parameters": {
										"id": 36,
										"nodeType": "ParameterList",
										"parameters": [
											{
												"constant": false,
												"id": 31,
												"indexed": true,
												"mutability": "mutable",
												"name": "_owner",
												"nameLocation": "475:6:0",
												"nodeType": "VariableDeclaration",
												"scope": 37,
												"src": "459:22:0",
												"stateVariable": false,
												"storageLocation": "default",
												"typeDescriptions": {
													"typeIdentifier": "t_address",
													"typeString": "address"
												},
												"typeName": {
													"id": 30,
													"name": "address",
													"nodeType": "ElementaryTypeName",
													"src": "459:7:0",
													"stateMutability": "nonpayable",
													"typeDescriptions": {
														"typeIdentifier": "t_address",
														"typeString": "address"
													}
												},
												"visibility": "internal"
											},
											{
												"constant": false,
												"id": 33,
												"indexed": true,
												"mutability": "mutable",
												"name": "_operator",
												"nameLocation": "499:9:0",
												"nodeType": "VariableDeclaration",
												"scope": 37,
												"src": "483:25:0",
												"stateVariable": false,
												"storageLocation": "default",
												"typeDescriptions": {
													"typeIdentifier": "t_address",
													"typeString": "address"
												},
												"typeName": {
													"id": 32,
													"name": "address",
													"nodeType": "ElementaryTypeName",
													"src": "483:7:0",
													"stateMutability": "nonpayable",
													"typeDescriptions": {
														"typeIdentifier": "t_address",
														"typeString": "address"
													}
												},
												"visibility": "internal"
											},
											{
												"constant": false,
												"id": 35,
												"indexed": false,
												"mutability": "mutable",
												"name": "_approved",
												"nameLocation": "515:9:0",
												"nodeType": "VariableDeclaration",
												"scope": 37,
												"src": "510:14:0",
												"stateVariable": false,
												"storageLocation": "default",
												"typeDescriptions": {
													"typeIdentifier": "t_bool",
													"typeString": "bool"
												},
												"typeName": {
													"id": 34,
													"name": "bool",
													"nodeType": "ElementaryTypeName",
													"src": "510:4:0",
													"typeDescriptions": {
														"typeIdentifier": "t_bool",
														"typeString": "bool"
													}
												},
												"visibility": "internal"
											}
										],
										"src": "458:67:0"
									},
									"src": "438:88:0"
								}
							],
							"scope": 39,
							"src": "68:460:0",
							"usedErrors": []
						}
					],
					"src": "43:485:0"
				},
				"id": 0
			}
		}
	}
}