{
	"id": "4bef0a234d933030e8c0c99a4d1f368a",
	"_format": "hh-sol-build-info-1",
	"solcVersion": "0.8.7",
	"solcLongVersion": "0.8.7+commit.e28d00a7",
	"input": {
		"language": "Solidity",
		"sources": {
			"ERC721.sol": {
				"content": "//SPDX-License-Identifier: Rahul pithadia\n\npragma solidity ^0.8.0;\n\ncontract ERC721{\n\n    event Transfer(address indexed _from, address indexed _to, uint256 indexed _tokenId);\n    event Approval(address indexed _owner, address indexed _approved, uint256 indexed _tokenId);\n    event ApprovalForAll(address indexed _owner, address indexed _operator, bool _approved);\n}"
			}
		},
		"settings": {
			"optimizer": {
				"enabled": false,
				"runs": 200
			},
			"outputSelection": {
				"*": {
					"": [
						"ast"
					],
					"*": [
						"abi",
						"metadata",
						"devdoc",
						"userdoc",
						"storageLayout",
						"evm.legacyAssembly",
						"evm.bytecode",
						"evm.deployedBytecode",
						"evm.methodIdentifiers",
						"evm.gasEstimates",
						"evm.assembly"
					]
				}
			}
		}
	},
	"output": {
		"contracts": {
			"ERC721.sol": {
				"ERC721": {
					"abi": [
						{
							"anonymous": false,
							"inputs": [
								{
									"indexed": true,
									"internalType": "address",
									"name": "_owner",
									"type": "address"
								},
								{
									"indexed": true,
									"internalType": "address",
									"name": "_approved",
									"type": "address"
								},
								{
									"indexed": true,
									"internalType": "uint256",
									"name": "_tokenId",
									"type": "uint256"
								}
							],
							"name": "Approval",
							"type": "event"
						},
						{
							"anonymous": false,
							"inputs": [
								{
									"indexed": true,
									"internalType": "address",
									"name": "_owner",
									"type": "address"
								},
								{
									"indexed": true,
									"internalType": "address",
									"name": "_operator",
									"type": "address"
								},
								{
									"indexed": false,
									"internalType": "bool",
									"name": "_approved",
									"type": "bool"
								}
							],
							"name": "ApprovalForAll",
							"type": "event"
						},
						{
							"anonymous": false,
							"inputs": [
								{
									"indexed": true,
									"internalType": "address",
									"name": "_from",
									"type": "address"
								},
								{
									"indexed": true,
									"internalType": "address",
									"name": "_to",
									"type": "address"
								},
								{
									"indexed": true,
									"internalType": "uint256",
									"name": "_tokenId",
									"type": "uint256"
								}
							],
							"name": "Transfer",
							"type": "event"
						}
					],
					"devdoc": {
						"kind": "dev",
						"methods": {},
						"version": 1
					},
					"evm": {
						"assembly": "    /* \"ERC721.sol\":68:367  contract ERC721{... */\n  mstore(0x40, 0x80)\n  callvalue\n  dup1\n  iszero\n  tag_1\n  jumpi\n  0x00\n  dup1\n  revert\ntag_1:\n  pop\n  dataSize(sub_0)\n  dup1\n  dataOffset(sub_0)\n  0x00\n  codecopy\n  0x00\n  return\nstop\n\nsub_0: assembly {\n        /* \"ERC721.sol\":68:367  contract ERC721{... */\n      mstore(0x40, 0x80)\n      0x00\n      dup1\n      revert\n\n    auxdata: 0xa2646970667358221220bec4a7a1c53549c5aac79b26c1936a27bd974f7025659c0955a4c65998cb349564736f6c63430008070033\n}\n",
						"bytecode": {
							"functionDebugData": {},
							"generatedSources": [],
							"linkReferences": {},
							"object": "6080604052348015600f57600080fd5b50603f80601d6000396000f3fe6080604052600080fdfea2646970667358221220bec4a7a1c53549c5aac79b26c1936a27bd974f7025659c0955a4c65998cb349564736f6c63430008070033",
							"opcodes": "PUSH1 0x80 PUSH1 0x40 MSTORE CALLVALUE DUP1 ISZERO PUSH1 0xF JUMPI PUSH1 0x0 DUP1 REVERT JUMPDEST POP PUSH1 0x3F DUP1 PUSH1 0x1D PUSH1 0x0 CODECOPY PUSH1 0x0 RETURN INVALID PUSH1 0x80 PUSH1 0x40 MSTORE PUSH1 0x0 DUP1 REVERT INVALID LOG2 PUSH5 0x6970667358 0x22 SLT KECCAK256 0xBE 0xC4 0xA7 LOG1 0xC5 CALLDATALOAD 0x49 0xC5 0xAA 0xC7 SWAP12 0x26 0xC1 SWAP4 PUSH11 0x27BD974F7025659C0955A4 0xC6 MSIZE SWAP9 0xCB CALLVALUE SWAP6 PUSH5 0x736F6C6343 STOP ADDMOD SMOD STOP CALLER ",
							"sourceMap": "68:299:0:-:0;;;;;;;;;;;;;;;;;;;"
						},
						"deployedBytecode": {
							"functionDebugData": {},
							"generatedSources": [],
							"immutableReferences": {},
							"linkReferences": {},
							"object": "6080604052600080fdfea2646970667358221220bec4a7a1c53549c5aac79b26c1936a27bd974f7025659c0955a4c65998cb349564736f6c63430008070033",
							"opcodes": "PUSH1 0x80 PUSH1 0x40 MSTORE PUSH1 0x0 DUP1 REVERT INVALID LOG2 PUSH5 0x6970667358 0x22 SLT KECCAK256 0xBE 0xC4 0xA7 LOG1 0xC5 CALLDATALOAD 0x49 0xC5 0xAA 0xC7 SWAP12 0x26 0xC1 SWAP4 PUSH11 0x27BD974F7025659C0955A4 0xC6 MSIZE SWAP9 0xCB CALLVALUE SWAP6 PUSH5 0x736F6C6343 STOP ADDMOD SMOD STOP CALLER ",
							"sourceMap": "68:299:0:-:0;;;;;"
						},
						"gasEstimates": {
							"creation": {
								"codeDepositCost": "12600",
								"executionCost": "66",
								"totalCost": "12666"
							}
						},
						"legacyAssembly": {
							".code": [
								{
									"begin": 68,
									"end": 367,
									"name": "PUSH",
									"source": 0,
									"value": "80"
								},
								{
									"begin": 68,
									"end": 367,
									"name": "PUSH",
									"source": 0,
									"value": "40"
								},
								{
									"begin": 68,
									"end": 367,
									"name": "MSTORE",
									"source": 0
								},
								{
									"begin": 68,
									"end": 367,
									"name": "CALLVALUE",
									"source": 0
								},
								{
									"begin": 68,
									"end": 367,
									"name": "DUP1",
									"source": 0
								},
								{
									"begin": 68,
									"end": 367,
									"name": "ISZERO",
									"source": 0
								},
								{
									"begin": 68,
									"end": 367,
									"name": "PUSH [tag]",
									"source": 0,
									"value": "1"
								},
								{
									"begin": 68,
									"end": 367,
									"name": "JUMPI",
									"source": 0
								},
								{
									"begin": 68,
									"end": 367,
									"name": "PUSH",
									"source": 0,
									"value": "0"
								},
								{
									"begin": 68,
									"end": 367,
									"name": "DUP1",
									"source": 0
								},
								{
									"begin": 68,
									"end": 367,
									"name": "REVERT",
									"source": 0
								},
								{
									"begin": 68,
									"end": 367,
									"name": "tag",
									"source": 0,
									"value": "1"
								},
								{
									"begin": 68,
									"end": 367,
									"name": "JUMPDEST",
									"source": 0
								},
								{
									"begin": 68,
									"end": 367,
									"name": "POP",
									"source": 0
								},
								{
									"begin": 68,
									"end": 367,
									"name": "PUSH #[$]",
									"source": 0,
									"value": "0000000000000000000000000000000000000000000000000000000000000000"
								},
								{
									"begin": 68,
									"end": 367,
									"name": "DUP1",
									"source": 0
								},
								{
									"begin": 68,
									"end": 367,
									"name": "PUSH [$]",
									"source": 0,
									"value": "0000000000000000000000000000000000000000000000000000000000000000"
								},
								{
									"begin": 68,
									"end": 367,
									"name": "PUSH",
									"source": 0,
									"value": "0"
								},
								{
									"begin": 68,
									"end": 367,
									"name": "CODECOPY",
									"source": 0
								},
								{
									"begin": 68,
									"end": 367,
									"name": "PUSH",
									"source": 0,
									"value": "0"
								},
								{
									"begin": 68,
									"end": 367,
									"name": "RETURN",
									"source": 0
								}
							],
							".data": {
								"0": {
									".auxdata": "a2646970667358221220bec4a7a1c53549c5aac79b26c1936a27bd974f7025659c0955a4c65998cb349564736f6c63430008070033",
									".code": [
										{
											"begin": 68,
											"end": 367,
											"name": "PUSH",
											"source": 0,
											"value": "80"
										},
										{
											"begin": 68,
											"end": 367,
											"name": "PUSH",
											"source": 0,
											"value": "40"
										},
										{
											"begin": 68,
											"end": 367,
											"name": "MSTORE",
											"source": 0
										},
										{
											"begin": 68,
											"end": 367,
											"name": "PUSH",
											"source": 0,
											"value": "0"
										},
										{
											"begin": 68,
											"end": 367,
											"name": "DUP1",
											"source": 0
										},
										{
											"begin": 68,
											"end": 367,
											"name": "REVERT",
											"source": 0
										}
									]
								}
							}
						},
						"methodIdentifiers": {}
					},
					"metadata": "{\"compiler\":{\"version\":\"0.8.7+commit.e28d00a7\"},\"language\":\"Solidity\",\"output\":{\"abi\":[{\"anonymous\":false,\"inputs\":[{\"indexed\":true,\"internalType\":\"address\",\"name\":\"_owner\",\"type\":\"address\"},{\"indexed\":true,\"internalType\":\"address\",\"name\":\"_approved\",\"type\":\"address\"},{\"indexed\":true,\"internalType\":\"uint256\",\"name\":\"_tokenId\",\"type\":\"uint256\"}],\"name\":\"Approval\",\"type\":\"event\"},{\"anonymous\":false,\"inputs\":[{\"indexed\":true,\"internalType\":\"address\",\"name\":\"_owner\",\"type\":\"address\"},{\"indexed\":true,\"internalType\":\"address\",\"name\":\"_operator\",\"type\":\"address\"},{\"indexed\":false,\"internalType\":\"bool\",\"name\":\"_approved\",\"type\":\"bool\"}],\"name\":\"ApprovalForAll\",\"type\":\"event\"},{\"anonymous\":false,\"inputs\":[{\"indexed\":true,\"internalType\":\"address\",\"name\":\"_from\",\"type\":\"address\"},{\"indexed\":true,\"internalType\":\"address\",\"name\":\"_to\",\"type\":\"address\"},{\"indexed\":true,\"internalType\":\"uint256\",\"name\":\"_tokenId\",\"type\":\"uint256\"}],\"name\":\"Transfer\",\"type\":\"event\"}],\"devdoc\":{\"kind\":\"dev\",\"methods\":{},\"version\":1},\"userdoc\":{\"kind\":\"user\",\"methods\":{},\"version\":1}},\"settings\":{\"compilationTarget\":{\"ERC721.sol\":\"ERC721\"},\"evmVersion\":\"london\",\"libraries\":{},\"metadata\":{\"bytecodeHash\":\"ipfs\"},\"optimizer\":{\"enabled\":false,\"runs\":200},\"remappings\":[]},\"sources\":{\"ERC721.sol\":{\"keccak256\":\"0x139ad7a93ad2e26446cfb3c0d73a3d1e61aba207b157f375df48c1d47861b1db\",\"license\":\"Rahul pithadia\",\"urls\":[\"bzz-raw://7326f7bc56295be7012d24e68382d625f6c644426452eb8d0305e88747c967ed\",\"dweb:/ipfs/QmPznBLPpPCVCn4cBFG7naAoT69XEqBChs9xwKeT2RCbXM\"]}},\"version\":1}",
					"storageLayout": {
						"storage": [],
						"types": null
					},
					"userdoc": {
						"kind": "user",
						"methods": {},
						"version": 1
					}
				}
			}
		},
		"sources": {
			"ERC721.sol": {
				"ast": {
					"absolutePath": "ERC721.sol",
					"exportedSymbols": {
						"ERC721": [
							26
						]
					},
					"id": 27,
					"license": "Rahul pithadia",
					"nodeType": "SourceUnit",
					"nodes": [
						{
							"id": 1,
							"literals": [
								"solidity",
								"^",
								"0.8",
								".0"
							],
							"nodeType": "PragmaDirective",
							"src": "43:23:0"
						},
						{
							"abstract": false,
							"baseContracts": [],
							"contractDependencies": [],
							"contractKind": "contract",
							"fullyImplemented": true,
							"id": 26,
							"linearizedBaseContracts": [
								26
							],
							"name": "ERC721",
							"nameLocation": "77:6:0",
							"nodeType": "ContractDefinition",
							"nodes": [
								{
									"anonymous": false,
									"id": 9,
									"name": "Transfer",
									"nameLocation": "96:8:0",
									"nodeType": "EventDefinition",
									"parameters": {
										"id": 8,
										"nodeType": "ParameterList",
										"parameters": [
											{
												"constant": false,
												"id": 3,
												"indexed": true,
												"mutability": "mutable",
												"name": "_from",
												"nameLocation": "121:5:0",
												"nodeType": "VariableDeclaration",
												"scope": 9,
												"src": "105:21:0",
												"stateVariable": false,
												"storageLocation": "default",
												"typeDescriptions": {
													"typeIdentifier": "t_address",
													"typeString": "address"
												},
												"typeName": {
													"id": 2,
													"name": "address",
													"nodeType": "ElementaryTypeName",
													"src": "105:7:0",
													"stateMutability": "nonpayable",
													"typeDescriptions": {
														"typeIdentifier": "t_address",
														"typeString": "address"
													}
												},
												"visibility": "internal"
											},
											{
												"constant": false,
												"id": 5,
												"indexed": true,
												"mutability": "mutable",
												"name": "_to",
												"nameLocation": "144:3:0",
												"nodeType": "VariableDeclaration",
												"scope": 9,
												"src": "128:19:0",
												"stateVariable": false,
												"storageLocation": "default",
												"typeDescriptions": {
													"typeIdentifier": "t_address",
													"typeString": "address"
												},
												"typeName": {
													"id": 4,
													"name": "address",
													"nodeType": "ElementaryTypeName",
													"src": "128:7:0",
													"stateMutability": "nonpayable",
													"typeDescriptions": {
														"typeIdentifier": "t_address",
														"typeString": "address"
													}
												},
												"visibility": "internal"
											},
											{
												"constant": false,
												"id": 7,
												"indexed": true,
												"mutability": "mutable",
												"name": "_tokenId",
												"nameLocation": "165:8:0",
												"nodeType": "VariableDeclaration",
												"scope": 9,
												"src": "149:24:0",
												"stateVariable": false,
												"storageLocation": "default",
												"typeDescriptions": {
													"typeIdentifier": "t_uint256",
													"typeString": "uint256"
												},
												"typeName": {
													"id": 6,
													"name": "uint256",
													"nodeType": "ElementaryTypeName",
													"src": "149:7:0",
													"typeDescriptions": {
														"typeIdentifier": "t_uint256",
														"typeString": "uint256"
													}
												},
												"visibility": "internal"
											}
										],
										"src": "104:70:0"
									},
									"src": "90:85:0"
								},
								{
									"anonymous": false,
									"id": 17,
									"name": "Approval",
									"nameLocation": "186:8:0",
									"nodeType": "EventDefinition",
									"parameters": {
										"id": 16,
										"nodeType": "ParameterList",
										"parameters": [
											{
												"constant": false,
												"id": 11,
												"indexed": true,
												"mutability": "mutable",
												"name": "_owner",
												"nameLocation": "211:6:0",
												"nodeType": "VariableDeclaration",
												"scope": 17,
												"src": "195:22:0",
												"stateVariable": false,
												"storageLocation": "default",
												"typeDescriptions": {
													"typeIdentifier": "t_address",
													"typeString": "address"
												},
												"typeName": {
													"id": 10,
													"name": "address",
													"nodeType": "ElementaryTypeName",
													"src": "195:7:0",
													"stateMutability": "nonpayable",
													"typeDescriptions": {
														"typeIdentifier": "t_address",
														"typeString": "address"
													}
												},
												"visibility": "internal"
											},
											{
												"constant": false,
												"id": 13,
												"indexed": true,
												"mutability": "mutable",
												"name": "_approved",
												"nameLocation": "235:9:0",
												"nodeType": "VariableDeclaration",
												"scope": 17,
												"src": "219:25:0",
												"stateVariable": false,
												"storageLocation": "default",
												"typeDescriptions": {
													"typeIdentifier": "t_address",
													"typeString": "address"
												},
												"typeName": {
													"id": 12,
													"name": "address",
													"nodeType": "ElementaryTypeName",
													"src": "219:7:0",
													"stateMutability": "nonpayable",
													"typeDescriptions": {
														"typeIdentifier": "t_address",
														"typeString": "address"
													}
												},
												"visibility": "internal"
											},
											{
												"constant": false,
												"id": 15,
												"indexed": true,
												"mutability": "mutable",
												"name": "_tokenId",
												"nameLocation": "262:8:0",
												"nodeType": "VariableDeclaration",
												"scope": 17,
												"src": "246:24:0",
												"stateVariable": false,
												"storageLocation": "default",
												"typeDescriptions": {
													"typeIdentifier": "t_uint256",
													"typeString": "uint256"
												},
												"typeName": {
													"id": 14,
													"name": "uint256",
													"nodeType": "ElementaryTypeName",
													"src": "246:7:0",
													"typeDescriptions": {
														"typeIdentifier": "t_uint256",
														"typeString": "uint256"
													}
												},
												"visibility": "internal"
											}
										],
										"src": "194:77:0"
									},
									"src": "180:92:0"
								},
								{
									"anonymous": false,
									"id": 25,
									"name": "ApprovalForAll",
									"nameLocation": "283:14:0",
									"nodeType": "EventDefinition",
									"parameters": {
										"id": 24,
										"nodeType": "ParameterList",
										"parameters": [
											{
												"constant": false,
												"id": 19,
												"indexed": true,
												"mutability": "mutable",
												"name": "_owner",
												"nameLocation": "314:6:0",
												"nodeType": "VariableDeclaration",
												"scope": 25,
												"src": "298:22:0",
												"stateVariable": false,
												"storageLocation": "default",
												"typeDescriptions": {
													"typeIdentifier": "t_address",
													"typeString": "address"
												},
												"typeName": {
													"id": 18,
													"name": "address",
													"nodeType": "ElementaryTypeName",
													"src": "298:7:0",
													"stateMutability": "nonpayable",
													"typeDescriptions": {
														"typeIdentifier": "t_address",
														"typeString": "address"
													}
												},
												"visibility": "internal"
											},
											{
												"constant": false,
												"id": 21,
												"indexed": true,
												"mutability": "mutable",
												"name": "_operator",
												"nameLocation": "338:9:0",
												"nodeType": "VariableDeclaration",
												"scope": 25,
												"src": "322:25:0",
												"stateVariable": false,
												"storageLocation": "default",
												"typeDescriptions": {
													"typeIdentifier": "t_address",
													"typeString": "address"
												},
												"typeName": {
													"id": 20,
													"name": "address",
													"nodeType": "ElementaryTypeName",
													"src": "322:7:0",
													"stateMutability": "nonpayable",
													"typeDescriptions": {
														"typeIdentifier": "t_address",
														"typeString": "address"
													}
												},
												"visibility": "internal"
											},
											{
												"constant": false,
												"id": 23,
												"indexed": false,
												"mutability": "mutable",
												"name": "_approved",
												"nameLocation": "354:9:0",
												"nodeType": "VariableDeclaration",
												"scope": 25,
												"src": "349:14:0",
												"stateVariable": false,
												"storageLocation": "default",
												"typeDescriptions": {
													"typeIdentifier": "t_bool",
													"typeString": "bool"
												},
												"typeName": {
													"id": 22,
													"name": "bool",
													"nodeType": "ElementaryTypeName",
													"src": "349:4:0",
													"typeDescriptions": {
														"typeIdentifier": "t_bool",
														"typeString": "bool"
													}
												},
												"visibility": "internal"
											}
										],
										"src": "297:67:0"
									},
									"src": "277:88:0"
								}
							],
							"scope": 27,
							"src": "68:299:0",
							"usedErrors": []
						}
					],
					"src": "43:324:0"
				},
				"id": 0
			}
		}
	}
}