{
	"id": "5459d434c8f12a29c65ba20cb19a46cf",
	"_format": "hh-sol-build-info-1",
	"solcVersion": "0.8.7",
	"solcLongVersion": "0.8.7+commit.e28d00a7",
	"input": {
		"language": "Solidity",
		"sources": {
			"task7.sol": {
				"content": "pragma solidity ^0.8.0;\n\ncontract learnEnum{\n\n    enum shirtColor {RED, WHITE, GREEN , BLUE}\n    shirtColor choice;\n    shirtColor constant defaultChoice = shirtColor.BLUE;\n}\n\n"
			}
		},
		"settings": {
			"optimizer": {
				"enabled": false,
				"runs": 200
			},
			"outputSelection": {
				"*": {
					"": [
						"ast"
					],
					"*": [
						"abi",
						"metadata",
						"devdoc",
						"userdoc",
						"storageLayout",
						"evm.legacyAssembly",
						"evm.bytecode",
						"evm.deployedBytecode",
						"evm.methodIdentifiers",
						"evm.gasEstimates",
						"evm.assembly"
					]
				}
			}
		}
	},
	"output": {
		"contracts": {
			"task7.sol": {
				"learnEnum": {
					"abi": [],
					"devdoc": {
						"kind": "dev",
						"methods": {},
						"version": 1
					},
					"evm": {
						"assembly": "    /* \"task7.sol\":25:174  contract learnEnum{... */\n  mstore(0x40, 0x80)\n  callvalue\n  dup1\n  iszero\n  tag_1\n  jumpi\n  0x00\n  dup1\n  revert\ntag_1:\n  pop\n  dataSize(sub_0)\n  dup1\n  dataOffset(sub_0)\n  0x00\n  codecopy\n  0x00\n  return\nstop\n\nsub_0: assembly {\n        /* \"task7.sol\":25:174  contract learnEnum{... */\n      mstore(0x40, 0x80)\n      0x00\n      dup1\n      revert\n\n    auxdata: 0xa264697066735822122026d7babc5abefcbae764daebe4f9021a1018e38508212680c317e3462f50257364736f6c63430008070033\n}\n",
						"bytecode": {
							"functionDebugData": {},
							"generatedSources": [],
							"linkReferences": {},
							"object": "6080604052348015600f57600080fd5b50603f80601d6000396000f3fe6080604052600080fdfea264697066735822122026d7babc5abefcbae764daebe4f9021a1018e38508212680c317e3462f50257364736f6c63430008070033",
							"opcodes": "PUSH1 0x80 PUSH1 0x40 MSTORE CALLVALUE DUP1 ISZERO PUSH1 0xF JUMPI PUSH1 0x0 DUP1 REVERT JUMPDEST POP PUSH1 0x3F DUP1 PUSH1 0x1D PUSH1 0x0 CODECOPY PUSH1 0x0 RETURN INVALID PUSH1 0x80 PUSH1 0x40 MSTORE PUSH1 0x0 DUP1 REVERT INVALID LOG2 PUSH5 0x6970667358 0x22 SLT KECCAK256 0x26 0xD7 0xBA 0xBC GAS 0xBE 0xFC 0xBA 0xE7 PUSH5 0xDAEBE4F902 BYTE LT XOR 0xE3 DUP6 ADDMOD 0x21 0x26 DUP1 0xC3 OR 0xE3 CHAINID 0x2F POP 0x25 PUSH20 0x64736F6C63430008070033000000000000000000 ",
							"sourceMap": "25:149:0:-:0;;;;;;;;;;;;;;;;;;;"
						},
						"deployedBytecode": {
							"functionDebugData": {},
							"generatedSources": [],
							"immutableReferences": {},
							"linkReferences": {},
							"object": "6080604052600080fdfea264697066735822122026d7babc5abefcbae764daebe4f9021a1018e38508212680c317e3462f50257364736f6c63430008070033",
							"opcodes": "PUSH1 0x80 PUSH1 0x40 MSTORE PUSH1 0x0 DUP1 REVERT INVALID LOG2 PUSH5 0x6970667358 0x22 SLT KECCAK256 0x26 0xD7 0xBA 0xBC GAS 0xBE 0xFC 0xBA 0xE7 PUSH5 0xDAEBE4F902 BYTE LT XOR 0xE3 DUP6 ADDMOD 0x21 0x26 DUP1 0xC3 OR 0xE3 CHAINID 0x2F POP 0x25 PUSH20 0x64736F6C63430008070033000000000000000000 ",
							"sourceMap": "25:149:0:-:0;;;;;"
						},
						"gasEstimates": {
							"creation": {
								"codeDepositCost": "12600",
								"executionCost": "66",
								"totalCost": "12666"
							}
						},
						"legacyAssembly": {
							".code": [
								{
									"begin": 25,
									"end": 174,
									"name": "PUSH",
									"source": 0,
									"value": "80"
								},
								{
									"begin": 25,
									"end": 174,
									"name": "PUSH",
									"source": 0,
									"value": "40"
								},
								{
									"begin": 25,
									"end": 174,
									"name": "MSTORE",
									"source": 0
								},
								{
									"begin": 25,
									"end": 174,
									"name": "CALLVALUE",
									"source": 0
								},
								{
									"begin": 25,
									"end": 174,
									"name": "DUP1",
									"source": 0
								},
								{
									"begin": 25,
									"end": 174,
									"name": "ISZERO",
									"source": 0
								},
								{
									"begin": 25,
									"end": 174,
									"name": "PUSH [tag]",
									"source": 0,
									"value": "1"
								},
								{
									"begin": 25,
									"end": 174,
									"name": "JUMPI",
									"source": 0
								},
								{
									"begin": 25,
									"end": 174,
									"name": "PUSH",
									"source": 0,
									"value": "0"
								},
								{
									"begin": 25,
									"end": 174,
									"name": "DUP1",
									"source": 0
								},
								{
									"begin": 25,
									"end": 174,
									"name": "REVERT",
									"source": 0
								},
								{
									"begin": 25,
									"end": 174,
									"name": "tag",
									"source": 0,
									"value": "1"
								},
								{
									"begin": 25,
									"end": 174,
									"name": "JUMPDEST",
									"source": 0
								},
								{
									"begin": 25,
									"end": 174,
									"name": "POP",
									"source": 0
								},
								{
									"begin": 25,
									"end": 174,
									"name": "PUSH #[$]",
									"source": 0,
									"value": "0000000000000000000000000000000000000000000000000000000000000000"
								},
								{
									"begin": 25,
									"end": 174,
									"name": "DUP1",
									"source": 0
								},
								{
									"begin": 25,
									"end": 174,
									"name": "PUSH [$]",
									"source": 0,
									"value": "0000000000000000000000000000000000000000000000000000000000000000"
								},
								{
									"begin": 25,
									"end": 174,
									"name": "PUSH",
									"source": 0,
									"value": "0"
								},
								{
									"begin": 25,
									"end": 174,
									"name": "CODECOPY",
									"source": 0
								},
								{
									"begin": 25,
									"end": 174,
									"name": "PUSH",
									"source": 0,
									"value": "0"
								},
								{
									"begin": 25,
									"end": 174,
									"name": "RETURN",
									"source": 0
								}
							],
							".data": {
								"0": {
									".auxdata": "a264697066735822122026d7babc5abefcbae764daebe4f9021a1018e38508212680c317e3462f50257364736f6c63430008070033",
									".code": [
										{
											"begin": 25,
											"end": 174,
											"name": "PUSH",
											"source": 0,
											"value": "80"
										},
										{
											"begin": 25,
											"end": 174,
											"name": "PUSH",
											"source": 0,
											"value": "40"
										},
										{
											"begin": 25,
											"end": 174,
											"name": "MSTORE",
											"source": 0
										},
										{
											"begin": 25,
											"end": 174,
											"name": "PUSH",
											"source": 0,
											"value": "0"
										},
										{
											"begin": 25,
											"end": 174,
											"name": "DUP1",
											"source": 0
										},
										{
											"begin": 25,
											"end": 174,
											"name": "REVERT",
											"source": 0
										}
									]
								}
							}
						},
						"methodIdentifiers": {}
					},
					"metadata": "{\"compiler\":{\"version\":\"0.8.7+commit.e28d00a7\"},\"language\":\"Solidity\",\"output\":{\"abi\":[],\"devdoc\":{\"kind\":\"dev\",\"methods\":{},\"version\":1},\"userdoc\":{\"kind\":\"user\",\"methods\":{},\"version\":1}},\"settings\":{\"compilationTarget\":{\"task7.sol\":\"learnEnum\"},\"evmVersion\":\"london\",\"libraries\":{},\"metadata\":{\"bytecodeHash\":\"ipfs\"},\"optimizer\":{\"enabled\":false,\"runs\":200},\"remappings\":[]},\"sources\":{\"task7.sol\":{\"keccak256\":\"0xeca1b102303748194d7a78e7fe5b072caadc62852d451106796653fbc1fdb78e\",\"urls\":[\"bzz-raw://795e6a9974afb83e83017418db780ebf74e7e1b05fb8f6c94abe46a98c2ebca8\",\"dweb:/ipfs/Qma2MrR8VnXQA6ieTjQbbSwc1BsmeyXAMkbN5VSjEHiSK1\"]}},\"version\":1}",
					"storageLayout": {
						"storage": [
							{
								"astId": 9,
								"contract": "task7.sol:learnEnum",
								"label": "choice",
								"offset": 0,
								"slot": "0",
								"type": "t_enum(shirtColor)6"
							}
						],
						"types": {
							"t_enum(shirtColor)6": {
								"encoding": "inplace",
								"label": "enum learnEnum.shirtColor",
								"numberOfBytes": "1"
							}
						}
					},
					"userdoc": {
						"kind": "user",
						"methods": {},
						"version": 1
					}
				}
			}
		},
		"errors": [
			{
				"component": "general",
				"errorCode": "1878",
				"formattedMessage": "Warning: SPDX license identifier not provided in source file. Before publishing, consider adding a comment containing \"SPDX-License-Identifier: <SPDX-License>\" to each source file. Use \"SPDX-License-Identifier: UNLICENSED\" for non-open-source code. Please see https://spdx.org for more information.\n--> task7.sol\n\n",
				"message": "SPDX license identifier not provided in source file. Before publishing, consider adding a comment containing \"SPDX-License-Identifier: <SPDX-License>\" to each source file. Use \"SPDX-License-Identifier: UNLICENSED\" for non-open-source code. Please see https://spdx.org for more information.",
				"severity": "warning",
				"sourceLocation": {
					"end": -1,
					"file": "task7.sol",
					"start": -1
				},
				"type": "Warning"
			}
		],
		"sources": {
			"task7.sol": {
				"ast": {
					"absolutePath": "task7.sol",
					"exportedSymbols": {
						"learnEnum": [
							15
						]
					},
					"id": 16,
					"nodeType": "SourceUnit",
					"nodes": [
						{
							"id": 1,
							"literals": [
								"solidity",
								"^",
								"0.8",
								".0"
							],
							"nodeType": "PragmaDirective",
							"src": "0:23:0"
						},
						{
							"abstract": false,
							"baseContracts": [],
							"contractDependencies": [],
							"contractKind": "contract",
							"fullyImplemented": true,
							"id": 15,
							"linearizedBaseContracts": [
								15
							],
							"name": "learnEnum",
							"nameLocation": "34:9:0",
							"nodeType": "ContractDefinition",
							"nodes": [
								{
									"canonicalName": "learnEnum.shirtColor",
									"id": 6,
									"members": [
										{
											"id": 2,
											"name": "RED",
											"nameLocation": "67:3:0",
											"nodeType": "EnumValue",
											"src": "67:3:0"
										},
										{
											"id": 3,
											"name": "WHITE",
											"nameLocation": "72:5:0",
											"nodeType": "EnumValue",
											"src": "72:5:0"
										},
										{
											"id": 4,
											"name": "GREEN",
											"nameLocation": "79:5:0",
											"nodeType": "EnumValue",
											"src": "79:5:0"
										},
										{
											"id": 5,
											"name": "BLUE",
											"nameLocation": "87:4:0",
											"nodeType": "EnumValue",
											"src": "87:4:0"
										}
									],
									"name": "shirtColor",
									"nameLocation": "55:10:0",
									"nodeType": "EnumDefinition",
									"src": "50:42:0"
								},
								{
									"constant": false,
									"id": 9,
									"mutability": "mutable",
									"name": "choice",
									"nameLocation": "108:6:0",
									"nodeType": "VariableDeclaration",
									"scope": 15,
									"src": "97:17:0",
									"stateVariable": true,
									"storageLocation": "default",
									"typeDescriptions": {
										"typeIdentifier": "t_enum$_shirtColor_$6",
										"typeString": "enum learnEnum.shirtColor"
									},
									"typeName": {
										"id": 8,
										"nodeType": "UserDefinedTypeName",
										"pathNode": {
											"id": 7,
											"name": "shirtColor",
											"nodeType": "IdentifierPath",
											"referencedDeclaration": 6,
											"src": "97:10:0"
										},
										"referencedDeclaration": 6,
										"src": "97:10:0",
										"typeDescriptions": {
											"typeIdentifier": "t_enum$_shirtColor_$6",
											"typeString": "enum learnEnum.shirtColor"
										}
									},
									"visibility": "internal"
								},
								{
									"constant": true,
									"id": 14,
									"mutability": "constant",
									"name": "defaultChoice",
									"nameLocation": "140:13:0",
									"nodeType": "VariableDeclaration",
									"scope": 15,
									"src": "120:51:0",
									"stateVariable": true,
									"storageLocation": "default",
									"typeDescriptions": {
										"typeIdentifier": "t_enum$_shirtColor_$6",
										"typeString": "enum learnEnum.shirtColor"
									},
									"typeName": {
										"id": 11,
										"nodeType": "UserDefinedTypeName",
										"pathNode": {
											"id": 10,
											"name": "shirtColor",
											"nodeType": "IdentifierPath",
											"referencedDeclaration": 6,
											"src": "120:10:0"
										},
										"referencedDeclaration": 6,
										"src": "120:10:0",
										"typeDescriptions": {
											"typeIdentifier": "t_enum$_shirtColor_$6",
											"typeString": "enum learnEnum.shirtColor"
										}
									},
									"value": {
										"expression": {
											"id": 12,
											"name": "shirtColor",
											"nodeType": "Identifier",
											"overloadedDeclarations": [],
											"referencedDeclaration": 6,
											"src": "156:10:0",
											"typeDescriptions": {
												"typeIdentifier": "t_type$_t_enum$_shirtColor_$6_$",
												"typeString": "type(enum learnEnum.shirtColor)"
											}
										},
										"id": 13,
										"isConstant": false,
										"isLValue": false,
										"isPure": true,
										"lValueRequested": false,
										"memberName": "BLUE",
										"nodeType": "MemberAccess",
										"referencedDeclaration": 5,
										"src": "156:15:0",
										"typeDescriptions": {
											"typeIdentifier": "t_enum$_shirtColor_$6",
											"typeString": "enum learnEnum.shirtColor"
										}
									},
									"visibility": "internal"
								}
							],
							"scope": 16,
							"src": "25:149:0",
							"usedErrors": []
						}
					],
					"src": "0:176:0"
				},
				"id": 0
			}
		}
	}
}