{
	"id": "6691d6f092504b6ed73e460c79a7cd5a",
	"_format": "hh-sol-build-info-1",
	"solcVersion": "0.8.7",
	"solcLongVersion": "0.8.7+commit.e28d00a7",
	"input": {
		"language": "Solidity",
		"sources": {
			"task8.sol": {
				"content": "pragma solidity ^0.8.0;\n\ncontract learnStruct {\n    \n}"
			}
		},
		"settings": {
			"optimizer": {
				"enabled": false,
				"runs": 200
			},
			"outputSelection": {
				"*": {
					"": [
						"ast"
					],
					"*": [
						"abi",
						"metadata",
						"devdoc",
						"userdoc",
						"storageLayout",
						"evm.legacyAssembly",
						"evm.bytecode",
						"evm.deployedBytecode",
						"evm.methodIdentifiers",
						"evm.gasEstimates",
						"evm.assembly"
					]
				}
			}
		}
	},
	"output": {
		"contracts": {
			"task8.sol": {
				"learnStruct": {
					"abi": [],
					"devdoc": {
						"kind": "dev",
						"methods": {},
						"version": 1
					},
					"evm": {
						"assembly": "    /* \"task8.sol\":25:54  contract learnStruct {... */\n  mstore(0x40, 0x80)\n  callvalue\n  dup1\n  iszero\n  tag_1\n  jumpi\n  0x00\n  dup1\n  revert\ntag_1:\n  pop\n  dataSize(sub_0)\n  dup1\n  dataOffset(sub_0)\n  0x00\n  codecopy\n  0x00\n  return\nstop\n\nsub_0: assembly {\n        /* \"task8.sol\":25:54  contract learnStruct {... */\n      mstore(0x40, 0x80)\n      0x00\n      dup1\n      revert\n\n    auxdata: 0xa2646970667358221220c6e5bbb5a22051a585082f7e7ae0d6640150d6c7a5796bfcd6b8c02bd6f4602164736f6c63430008070033\n}\n",
						"bytecode": {
							"functionDebugData": {},
							"generatedSources": [],
							"linkReferences": {},
							"object": "6080604052348015600f57600080fd5b50603f80601d6000396000f3fe6080604052600080fdfea2646970667358221220c6e5bbb5a22051a585082f7e7ae0d6640150d6c7a5796bfcd6b8c02bd6f4602164736f6c63430008070033",
							"opcodes": "PUSH1 0x80 PUSH1 0x40 MSTORE CALLVALUE DUP1 ISZERO PUSH1 0xF JUMPI PUSH1 0x0 DUP1 REVERT JUMPDEST POP PUSH1 0x3F DUP1 PUSH1 0x1D PUSH1 0x0 CODECOPY PUSH1 0x0 RETURN INVALID PUSH1 0x80 PUSH1 0x40 MSTORE PUSH1 0x0 DUP1 REVERT INVALID LOG2 PUSH5 0x6970667358 0x22 SLT KECCAK256 0xC6 0xE5 0xBB 0xB5 LOG2 KECCAK256 MLOAD 0xA5 DUP6 ADDMOD 0x2F PUSH31 0x7AE0D6640150D6C7A5796BFCD6B8C02BD6F4602164736F6C63430008070033 ",
							"sourceMap": "25:29:0:-:0;;;;;;;;;;;;;;;;;;;"
						},
						"deployedBytecode": {
							"functionDebugData": {},
							"generatedSources": [],
							"immutableReferences": {},
							"linkReferences": {},
							"object": "6080604052600080fdfea2646970667358221220c6e5bbb5a22051a585082f7e7ae0d6640150d6c7a5796bfcd6b8c02bd6f4602164736f6c63430008070033",
							"opcodes": "PUSH1 0x80 PUSH1 0x40 MSTORE PUSH1 0x0 DUP1 REVERT INVALID LOG2 PUSH5 0x6970667358 0x22 SLT KECCAK256 0xC6 0xE5 0xBB 0xB5 LOG2 KECCAK256 MLOAD 0xA5 DUP6 ADDMOD 0x2F PUSH31 0x7AE0D6640150D6C7A5796BFCD6B8C02BD6F4602164736F6C63430008070033 ",
							"sourceMap": "25:29:0:-:0;;;;;"
						},
						"gasEstimates": {
							"creation": {
								"codeDepositCost": "12600",
								"executionCost": "66",
								"totalCost": "12666"
							}
						},
						"legacyAssembly": {
							".code": [
								{
									"begin": 25,
									"end": 54,
									"name": "PUSH",
									"source": 0,
									"value": "80"
								},
								{
									"begin": 25,
									"end": 54,
									"name": "PUSH",
									"source": 0,
									"value": "40"
								},
								{
									"begin": 25,
									"end": 54,
									"name": "MSTORE",
									"source": 0
								},
								{
									"begin": 25,
									"end": 54,
									"name": "CALLVALUE",
									"source": 0
								},
								{
									"begin": 25,
									"end": 54,
									"name": "DUP1",
									"source": 0
								},
								{
									"begin": 25,
									"end": 54,
									"name": "ISZERO",
									"source": 0
								},
								{
									"begin": 25,
									"end": 54,
									"name": "PUSH [tag]",
									"source": 0,
									"value": "1"
								},
								{
									"begin": 25,
									"end": 54,
									"name": "JUMPI",
									"source": 0
								},
								{
									"begin": 25,
									"end": 54,
									"name": "PUSH",
									"source": 0,
									"value": "0"
								},
								{
									"begin": 25,
									"end": 54,
									"name": "DUP1",
									"source": 0
								},
								{
									"begin": 25,
									"end": 54,
									"name": "REVERT",
									"source": 0
								},
								{
									"begin": 25,
									"end": 54,
									"name": "tag",
									"source": 0,
									"value": "1"
								},
								{
									"begin": 25,
									"end": 54,
									"name": "JUMPDEST",
									"source": 0
								},
								{
									"begin": 25,
									"end": 54,
									"name": "POP",
									"source": 0
								},
								{
									"begin": 25,
									"end": 54,
									"name": "PUSH #[$]",
									"source": 0,
									"value": "0000000000000000000000000000000000000000000000000000000000000000"
								},
								{
									"begin": 25,
									"end": 54,
									"name": "DUP1",
									"source": 0
								},
								{
									"begin": 25,
									"end": 54,
									"name": "PUSH [$]",
									"source": 0,
									"value": "0000000000000000000000000000000000000000000000000000000000000000"
								},
								{
									"begin": 25,
									"end": 54,
									"name": "PUSH",
									"source": 0,
									"value": "0"
								},
								{
									"begin": 25,
									"end": 54,
									"name": "CODECOPY",
									"source": 0
								},
								{
									"begin": 25,
									"end": 54,
									"name": "PUSH",
									"source": 0,
									"value": "0"
								},
								{
									"begin": 25,
									"end": 54,
									"name": "RETURN",
									"source": 0
								}
							],
							".data": {
								"0": {
									".auxdata": "a2646970667358221220c6e5bbb5a22051a585082f7e7ae0d6640150d6c7a5796bfcd6b8c02bd6f4602164736f6c63430008070033",
									".code": [
										{
											"begin": 25,
											"end": 54,
											"name": "PUSH",
											"source": 0,
											"value": "80"
										},
										{
											"begin": 25,
											"end": 54,
											"name": "PUSH",
											"source": 0,
											"value": "40"
										},
										{
											"begin": 25,
											"end": 54,
											"name": "MSTORE",
											"source": 0
										},
										{
											"begin": 25,
											"end": 54,
											"name": "PUSH",
											"source": 0,
											"value": "0"
										},
										{
											"begin": 25,
											"end": 54,
											"name": "DUP1",
											"source": 0
										},
										{
											"begin": 25,
											"end": 54,
											"name": "REVERT",
											"source": 0
										}
									]
								}
							}
						},
						"methodIdentifiers": {}
					},
					"metadata": "{\"compiler\":{\"version\":\"0.8.7+commit.e28d00a7\"},\"language\":\"Solidity\",\"output\":{\"abi\":[],\"devdoc\":{\"kind\":\"dev\",\"methods\":{},\"version\":1},\"userdoc\":{\"kind\":\"user\",\"methods\":{},\"version\":1}},\"settings\":{\"compilationTarget\":{\"task8.sol\":\"learnStruct\"},\"evmVersion\":\"london\",\"libraries\":{},\"metadata\":{\"bytecodeHash\":\"ipfs\"},\"optimizer\":{\"enabled\":false,\"runs\":200},\"remappings\":[]},\"sources\":{\"task8.sol\":{\"keccak256\":\"0x15a5e65dc134c4763d1273cb94ba05f4bf455a31c2b7bedbae34f28a166f3e68\",\"urls\":[\"bzz-raw://a6190d3942090645d2254bc6d5969ede86964e3aa3de6d4ea82ac45c37e4b27d\",\"dweb:/ipfs/QmYpYXM9PFm2p7Ckr78yZt8mSy34AzYHEm4emtHQ8pdJVs\"]}},\"version\":1}",
					"storageLayout": {
						"storage": [],
						"types": null
					},
					"userdoc": {
						"kind": "user",
						"methods": {},
						"version": 1
					}
				}
			}
		},
		"errors": [
			{
				"component": "general",
				"errorCode": "1878",
				"formattedMessage": "Warning: SPDX license identifier not provided in source file. Before publishing, consider adding a comment containing \"SPDX-License-Identifier: <SPDX-License>\" to each source file. Use \"SPDX-License-Identifier: UNLICENSED\" for non-open-source code. Please see https://spdx.org for more information.\n--> task8.sol\n\n",
				"message": "SPDX license identifier not provided in source file. Before publishing, consider adding a comment containing \"SPDX-License-Identifier: <SPDX-License>\" to each source file. Use \"SPDX-License-Identifier: UNLICENSED\" for non-open-source code. Please see https://spdx.org for more information.",
				"severity": "warning",
				"sourceLocation": {
					"end": -1,
					"file": "task8.sol",
					"start": -1
				},
				"type": "Warning"
			}
		],
		"sources": {
			"task8.sol": {
				"ast": {
					"absolutePath": "task8.sol",
					"exportedSymbols": {
						"learnStruct": [
							2
						]
					},
					"id": 3,
					"nodeType": "SourceUnit",
					"nodes": [
						{
							"id": 1,
							"literals": [
								"solidity",
								"^",
								"0.8",
								".0"
							],
							"nodeType": "PragmaDirective",
							"src": "0:23:0"
						},
						{
							"abstract": false,
							"baseContracts": [],
							"contractDependencies": [],
							"contractKind": "contract",
							"fullyImplemented": true,
							"id": 2,
							"linearizedBaseContracts": [
								2
							],
							"name": "learnStruct",
							"nameLocation": "34:11:0",
							"nodeType": "ContractDefinition",
							"nodes": [],
							"scope": 3,
							"src": "25:29:0",
							"usedErrors": []
						}
					],
					"src": "0:54:0"
				},
				"id": 0
			}
		}
	}
}