{
	"id": "97650ceeb278b5b4119924e4a43813ca",
	"_format": "hh-sol-build-info-1",
	"solcVersion": "0.8.15",
	"solcLongVersion": "0.8.15+commit.e14f2714",
	"input": {
		"language": "Solidity",
		"sources": {
			"contracts/FundChain.sol": {
				"content": "//SPDX-License-Identifier: Rahul pithadia\n\npragma solidity ^0.8.13;\n\ncontract FundChain{\n    struct Donor{\n        string fullName;\n        address donorAddress;\n        string  Idproof;\n    }\n\n    struct NGO{\n        string ngoName;\n        string websiteURL;\n        string ngoPanNumber;\n        address detail;\n    }\n}\n\n"
			}
		},
		"settings": {
			"optimizer": {
				"enabled": false,
				"runs": 200
			},
			"outputSelection": {
				"*": {
					"": [
						"ast"
					],
					"*": [
						"abi",
						"metadata",
						"devdoc",
						"userdoc",
						"storageLayout",
						"evm.legacyAssembly",
						"evm.bytecode",
						"evm.deployedBytecode",
						"evm.methodIdentifiers",
						"evm.gasEstimates",
						"evm.assembly"
					]
				}
			}
		}
	},
	"output": {
		"contracts": {
			"contracts/FundChain.sol": {
				"FundChain": {
					"abi": [],
					"devdoc": {
						"kind": "dev",
						"methods": {},
						"version": 1
					},
					"evm": {
						"assembly": "    /* \"contracts/FundChain.sol\":69:321  contract FundChain{... */\n  mstore(0x40, 0x80)\n  callvalue\n  dup1\n  iszero\n  tag_1\n  jumpi\n  0x00\n  dup1\n  revert\ntag_1:\n  pop\n  dataSize(sub_0)\n  dup1\n  dataOffset(sub_0)\n  0x00\n  codecopy\n  0x00\n  return\nstop\n\nsub_0: assembly {\n        /* \"contracts/FundChain.sol\":69:321  contract FundChain{... */\n      mstore(0x40, 0x80)\n      0x00\n      dup1\n      revert\n\n    auxdata: 0xa2646970667358221220a99f8821fa698efc5000258a6b2f034ee4ea91c06bd53749f4ab97846e12f6cf64736f6c634300080f0033\n}\n",
						"bytecode": {
							"functionDebugData": {},
							"generatedSources": [],
							"linkReferences": {},
							"object": "6080604052348015600f57600080fd5b50603f80601d6000396000f3fe6080604052600080fdfea2646970667358221220a99f8821fa698efc5000258a6b2f034ee4ea91c06bd53749f4ab97846e12f6cf64736f6c634300080f0033",
							"opcodes": "PUSH1 0x80 PUSH1 0x40 MSTORE CALLVALUE DUP1 ISZERO PUSH1 0xF JUMPI PUSH1 0x0 DUP1 REVERT JUMPDEST POP PUSH1 0x3F DUP1 PUSH1 0x1D PUSH1 0x0 CODECOPY PUSH1 0x0 RETURN INVALID PUSH1 0x80 PUSH1 0x40 MSTORE PUSH1 0x0 DUP1 REVERT INVALID LOG2 PUSH5 0x6970667358 0x22 SLT KECCAK256 0xA9 SWAP16 DUP9 0x21 STATICCALL PUSH10 0x8EFC5000258A6B2F034E 0xE4 0xEA SWAP2 0xC0 PUSH12 0xD53749F4AB97846E12F6CF64 PUSH20 0x6F6C634300080F00330000000000000000000000 ",
							"sourceMap": "69:252:0:-:0;;;;;;;;;;;;;;;;;;;"
						},
						"deployedBytecode": {
							"functionDebugData": {},
							"generatedSources": [],
							"immutableReferences": {},
							"linkReferences": {},
							"object": "6080604052600080fdfea2646970667358221220a99f8821fa698efc5000258a6b2f034ee4ea91c06bd53749f4ab97846e12f6cf64736f6c634300080f0033",
							"opcodes": "PUSH1 0x80 PUSH1 0x40 MSTORE PUSH1 0x0 DUP1 REVERT INVALID LOG2 PUSH5 0x6970667358 0x22 SLT KECCAK256 0xA9 SWAP16 DUP9 0x21 STATICCALL PUSH10 0x8EFC5000258A6B2F034E 0xE4 0xEA SWAP2 0xC0 PUSH12 0xD53749F4AB97846E12F6CF64 PUSH20 0x6F6C634300080F00330000000000000000000000 ",
							"sourceMap": "69:252:0:-:0;;;;;"
						},
						"gasEstimates": {
							"creation": {
								"codeDepositCost": "12600",
								"executionCost": "66",
								"totalCost": "12666"
							}
						},
						"legacyAssembly": {
							".code": [
								{
									"begin": 69,
									"end": 321,
									"name": "PUSH",
									"source": 0,
									"value": "80"
								},
								{
									"begin": 69,
									"end": 321,
									"name": "PUSH",
									"source": 0,
									"value": "40"
								},
								{
									"begin": 69,
									"end": 321,
									"name": "MSTORE",
									"source": 0
								},
								{
									"begin": 69,
									"end": 321,
									"name": "CALLVALUE",
									"source": 0
								},
								{
									"begin": 69,
									"end": 321,
									"name": "DUP1",
									"source": 0
								},
								{
									"begin": 69,
									"end": 321,
									"name": "ISZERO",
									"source": 0
								},
								{
									"begin": 69,
									"end": 321,
									"name": "PUSH [tag]",
									"source": 0,
									"value": "1"
								},
								{
									"begin": 69,
									"end": 321,
									"name": "JUMPI",
									"source": 0
								},
								{
									"begin": 69,
									"end": 321,
									"name": "PUSH",
									"source": 0,
									"value": "0"
								},
								{
									"begin": 69,
									"end": 321,
									"name": "DUP1",
									"source": 0
								},
								{
									"begin": 69,
									"end": 321,
									"name": "REVERT",
									"source": 0
								},
								{
									"begin": 69,
									"end": 321,
									"name": "tag",
									"source": 0,
									"value": "1"
								},
								{
									"begin": 69,
									"end": 321,
									"name": "JUMPDEST",
									"source": 0
								},
								{
									"begin": 69,
									"end": 321,
									"name": "POP",
									"source": 0
								},
								{
									"begin": 69,
									"end": 321,
									"name": "PUSH #[$]",
									"source": 0,
									"value": "0000000000000000000000000000000000000000000000000000000000000000"
								},
								{
									"begin": 69,
									"end": 321,
									"name": "DUP1",
									"source": 0
								},
								{
									"begin": 69,
									"end": 321,
									"name": "PUSH [$]",
									"source": 0,
									"value": "0000000000000000000000000000000000000000000000000000000000000000"
								},
								{
									"begin": 69,
									"end": 321,
									"name": "PUSH",
									"source": 0,
									"value": "0"
								},
								{
									"begin": 69,
									"end": 321,
									"name": "CODECOPY",
									"source": 0
								},
								{
									"begin": 69,
									"end": 321,
									"name": "PUSH",
									"source": 0,
									"value": "0"
								},
								{
									"begin": 69,
									"end": 321,
									"name": "RETURN",
									"source": 0
								}
							],
							".data": {
								"0": {
									".auxdata": "a2646970667358221220a99f8821fa698efc5000258a6b2f034ee4ea91c06bd53749f4ab97846e12f6cf64736f6c634300080f0033",
									".code": [
										{
											"begin": 69,
											"end": 321,
											"name": "PUSH",
											"source": 0,
											"value": "80"
										},
										{
											"begin": 69,
											"end": 321,
											"name": "PUSH",
											"source": 0,
											"value": "40"
										},
										{
											"begin": 69,
											"end": 321,
											"name": "MSTORE",
											"source": 0
										},
										{
											"begin": 69,
											"end": 321,
											"name": "PUSH",
											"source": 0,
											"value": "0"
										},
										{
											"begin": 69,
											"end": 321,
											"name": "DUP1",
											"source": 0
										},
										{
											"begin": 69,
											"end": 321,
											"name": "REVERT",
											"source": 0
										}
									]
								}
							},
							"sourceList": [
								"contracts/FundChain.sol",
								"#utility.yul"
							]
						},
						"methodIdentifiers": {}
					},
					"metadata": "{\"compiler\":{\"version\":\"0.8.15+commit.e14f2714\"},\"language\":\"Solidity\",\"output\":{\"abi\":[],\"devdoc\":{\"kind\":\"dev\",\"methods\":{},\"version\":1},\"userdoc\":{\"kind\":\"user\",\"methods\":{},\"version\":1}},\"settings\":{\"compilationTarget\":{\"contracts/FundChain.sol\":\"FundChain\"},\"evmVersion\":\"london\",\"libraries\":{},\"metadata\":{\"bytecodeHash\":\"ipfs\"},\"optimizer\":{\"enabled\":false,\"runs\":200},\"remappings\":[]},\"sources\":{\"contracts/FundChain.sol\":{\"keccak256\":\"0xf209773143820b7d91160c61fdaf5967a9558ca88c17980c377781ae9ea9dee4\",\"license\":\"Rahul pithadia\",\"urls\":[\"bzz-raw://19497de70c36deb2ad5737db19bed262bdf5efd83e1d561488c7940d6a83f7e0\",\"dweb:/ipfs/QmcoS4BneYdfdu7WGqnqcdbX7M9sbeUqgS8mDvvn4wK9jg\"]}},\"version\":1}",
					"storageLayout": {
						"storage": [],
						"types": null
					},
					"userdoc": {
						"kind": "user",
						"methods": {},
						"version": 1
					}
				}
			}
		},
		"sources": {
			"contracts/FundChain.sol": {
				"ast": {
					"absolutePath": "contracts/FundChain.sol",
					"exportedSymbols": {
						"FundChain": [
							18
						]
					},
					"id": 19,
					"license": "Rahul pithadia",
					"nodeType": "SourceUnit",
					"nodes": [
						{
							"id": 1,
							"literals": [
								"solidity",
								"^",
								"0.8",
								".13"
							],
							"nodeType": "PragmaDirective",
							"src": "43:24:0"
						},
						{
							"abstract": false,
							"baseContracts": [],
							"canonicalName": "FundChain",
							"contractDependencies": [],
							"contractKind": "contract",
							"fullyImplemented": true,
							"id": 18,
							"linearizedBaseContracts": [
								18
							],
							"name": "FundChain",
							"nameLocation": "78:9:0",
							"nodeType": "ContractDefinition",
							"nodes": [
								{
									"canonicalName": "FundChain.Donor",
									"id": 8,
									"members": [
										{
											"constant": false,
											"id": 3,
											"mutability": "mutable",
											"name": "fullName",
											"nameLocation": "122:8:0",
											"nodeType": "VariableDeclaration",
											"scope": 8,
											"src": "115:15:0",
											"stateVariable": false,
											"storageLocation": "default",
											"typeDescriptions": {
												"typeIdentifier": "t_string_storage_ptr",
												"typeString": "string"
											},
											"typeName": {
												"id": 2,
												"name": "string",
												"nodeType": "ElementaryTypeName",
												"src": "115:6:0",
												"typeDescriptions": {
													"typeIdentifier": "t_string_storage_ptr",
													"typeString": "string"
												}
											},
											"visibility": "internal"
										},
										{
											"constant": false,
											"id": 5,
											"mutability": "mutable",
											"name": "donorAddress",
											"nameLocation": "148:12:0",
											"nodeType": "VariableDeclaration",
											"scope": 8,
											"src": "140:20:0",
											"stateVariable": false,
											"storageLocation": "default",
											"typeDescriptions": {
												"typeIdentifier": "t_address",
												"typeString": "address"
											},
											"typeName": {
												"id": 4,
												"name": "address",
												"nodeType": "ElementaryTypeName",
												"src": "140:7:0",
												"stateMutability": "nonpayable",
												"typeDescriptions": {
													"typeIdentifier": "t_address",
													"typeString": "address"
												}
											},
											"visibility": "internal"
										},
										{
											"constant": false,
											"id": 7,
											"mutability": "mutable",
											"name": "Idproof",
											"nameLocation": "178:7:0",
											"nodeType": "VariableDeclaration",
											"scope": 8,
											"src": "170:15:0",
											"stateVariable": false,
											"storageLocation": "default",
											"typeDescriptions": {
												"typeIdentifier": "t_string_storage_ptr",
												"typeString": "string"
											},
											"typeName": {
												"id": 6,
												"name": "string",
												"nodeType": "ElementaryTypeName",
												"src": "170:6:0",
												"typeDescriptions": {
													"typeIdentifier": "t_string_storage_ptr",
													"typeString": "string"
												}
											},
											"visibility": "internal"
										}
									],
									"name": "Donor",
									"nameLocation": "100:5:0",
									"nodeType": "StructDefinition",
									"scope": 18,
									"src": "93:99:0",
									"visibility": "public"
								},
								{
									"canonicalName": "FundChain.NGO",
									"id": 17,
									"members": [
										{
											"constant": false,
											"id": 10,
											"mutability": "mutable",
											"name": "ngoName",
											"nameLocation": "225:7:0",
											"nodeType": "VariableDeclaration",
											"scope": 17,
											"src": "218:14:0",
											"stateVariable": false,
											"storageLocation": "default",
											"typeDescriptions": {
												"typeIdentifier": "t_string_storage_ptr",
												"typeString": "string"
											},
											"typeName": {
												"id": 9,
												"name": "string",
												"nodeType": "ElementaryTypeName",
												"src": "218:6:0",
												"typeDescriptions": {
													"typeIdentifier": "t_string_storage_ptr",
													"typeString": "string"
												}
											},
											"visibility": "internal"
										},
										{
											"constant": false,
											"id": 12,
											"mutability": "mutable",
											"name": "websiteURL",
											"nameLocation": "249:10:0",
											"nodeType": "VariableDeclaration",
											"scope": 17,
											"src": "242:17:0",
											"stateVariable": false,
											"storageLocation": "default",
											"typeDescriptions": {
												"typeIdentifier": "t_string_storage_ptr",
												"typeString": "string"
											},
											"typeName": {
												"id": 11,
												"name": "string",
												"nodeType": "ElementaryTypeName",
												"src": "242:6:0",
												"typeDescriptions": {
													"typeIdentifier": "t_string_storage_ptr",
													"typeString": "string"
												}
											},
											"visibility": "internal"
										},
										{
											"constant": false,
											"id": 14,
											"mutability": "mutable",
											"name": "ngoPanNumber",
											"nameLocation": "276:12:0",
											"nodeType": "VariableDeclaration",
											"scope": 17,
											"src": "269:19:0",
											"stateVariable": false,
											"storageLocation": "default",
											"typeDescriptions": {
												"typeIdentifier": "t_string_storage_ptr",
												"typeString": "string"
											},
											"typeName": {
												"id": 13,
												"name": "string",
												"nodeType": "ElementaryTypeName",
												"src": "269:6:0",
												"typeDescriptions": {
													"typeIdentifier": "t_string_storage_ptr",
													"typeString": "string"
												}
											},
											"visibility": "internal"
										},
										{
											"constant": false,
											"id": 16,
											"mutability": "mutable",
											"name": "detail",
											"nameLocation": "306:6:0",
											"nodeType": "VariableDeclaration",
											"scope": 17,
											"src": "298:14:0",
											"stateVariable": false,
											"storageLocation": "default",
											"typeDescriptions": {
												"typeIdentifier": "t_address",
												"typeString": "address"
											},
											"typeName": {
												"id": 15,
												"name": "address",
												"nodeType": "ElementaryTypeName",
												"src": "298:7:0",
												"stateMutability": "nonpayable",
												"typeDescriptions": {
													"typeIdentifier": "t_address",
													"typeString": "address"
												}
											},
											"visibility": "internal"
										}
									],
									"name": "NGO",
									"nameLocation": "205:3:0",
									"nodeType": "StructDefinition",
									"scope": 18,
									"src": "198:121:0",
									"visibility": "public"
								}
							],
							"scope": 19,
							"src": "69:252:0",
							"usedErrors": []
						}
					],
					"src": "43:280:0"
				},
				"id": 0
			}
		}
	}
}