{
	"id": "9d4e365ca8264eb20d20e18cbc168def",
	"_format": "hh-sol-build-info-1",
	"solcVersion": "0.8.7",
	"solcLongVersion": "0.8.7+commit.e28d00a7",
	"input": {
		"language": "Solidity",
		"sources": {
			"task6.sol": {
				"content": "pragma solidity ^0.8.0;\n\ncontract Array{\n\n    \n}"
			}
		},
		"settings": {
			"optimizer": {
				"enabled": false,
				"runs": 200
			},
			"outputSelection": {
				"*": {
					"": [
						"ast"
					],
					"*": [
						"abi",
						"metadata",
						"devdoc",
						"userdoc",
						"storageLayout",
						"evm.legacyAssembly",
						"evm.bytecode",
						"evm.deployedBytecode",
						"evm.methodIdentifiers",
						"evm.gasEstimates",
						"evm.assembly"
					]
				}
			}
		}
	},
	"output": {
		"contracts": {
			"task6.sol": {
				"Array": {
					"abi": [],
					"devdoc": {
						"kind": "dev",
						"methods": {},
						"version": 1
					},
					"evm": {
						"assembly": "    /* \"task6.sol\":25:48  contract Array{... */\n  mstore(0x40, 0x80)\n  callvalue\n  dup1\n  iszero\n  tag_1\n  jumpi\n  0x00\n  dup1\n  revert\ntag_1:\n  pop\n  dataSize(sub_0)\n  dup1\n  dataOffset(sub_0)\n  0x00\n  codecopy\n  0x00\n  return\nstop\n\nsub_0: assembly {\n        /* \"task6.sol\":25:48  contract Array{... */\n      mstore(0x40, 0x80)\n      0x00\n      dup1\n      revert\n\n    auxdata: 0xa2646970667358221220313491da90e8f2065961916bc083be61fa01d348f9e3292e713f681eae905f5d64736f6c63430008070033\n}\n",
						"bytecode": {
							"functionDebugData": {},
							"generatedSources": [],
							"linkReferences": {},
							"object": "6080604052348015600f57600080fd5b50603f80601d6000396000f3fe6080604052600080fdfea2646970667358221220313491da90e8f2065961916bc083be61fa01d348f9e3292e713f681eae905f5d64736f6c63430008070033",
							"opcodes": "PUSH1 0x80 PUSH1 0x40 MSTORE CALLVALUE DUP1 ISZERO PUSH1 0xF JUMPI PUSH1 0x0 DUP1 REVERT JUMPDEST POP PUSH1 0x3F DUP1 PUSH1 0x1D PUSH1 0x0 CODECOPY PUSH1 0x0 RETURN INVALID PUSH1 0x80 PUSH1 0x40 MSTORE PUSH1 0x0 DUP1 REVERT INVALID LOG2 PUSH5 0x6970667358 0x22 SLT KECCAK256 BALANCE CALLVALUE SWAP2 0xDA SWAP1 0xE8 CALLCODE MOD MSIZE PUSH2 0x916B 0xC0 DUP4 0xBE PUSH2 0xFA01 0xD3 BASEFEE 0xF9 0xE3 0x29 0x2E PUSH18 0x3F681EAE905F5D64736F6C63430008070033 ",
							"sourceMap": "25:23:0:-:0;;;;;;;;;;;;;;;;;;;"
						},
						"deployedBytecode": {
							"functionDebugData": {},
							"generatedSources": [],
							"immutableReferences": {},
							"linkReferences": {},
							"object": "6080604052600080fdfea2646970667358221220313491da90e8f2065961916bc083be61fa01d348f9e3292e713f681eae905f5d64736f6c63430008070033",
							"opcodes": "PUSH1 0x80 PUSH1 0x40 MSTORE PUSH1 0x0 DUP1 REVERT INVALID LOG2 PUSH5 0x6970667358 0x22 SLT KECCAK256 BALANCE CALLVALUE SWAP2 0xDA SWAP1 0xE8 CALLCODE MOD MSIZE PUSH2 0x916B 0xC0 DUP4 0xBE PUSH2 0xFA01 0xD3 BASEFEE 0xF9 0xE3 0x29 0x2E PUSH18 0x3F681EAE905F5D64736F6C63430008070033 ",
							"sourceMap": "25:23:0:-:0;;;;;"
						},
						"gasEstimates": {
							"creation": {
								"codeDepositCost": "12600",
								"executionCost": "66",
								"totalCost": "12666"
							}
						},
						"legacyAssembly": {
							".code": [
								{
									"begin": 25,
									"end": 48,
									"name": "PUSH",
									"source": 0,
									"value": "80"
								},
								{
									"begin": 25,
									"end": 48,
									"name": "PUSH",
									"source": 0,
									"value": "40"
								},
								{
									"begin": 25,
									"end": 48,
									"name": "MSTORE",
									"source": 0
								},
								{
									"begin": 25,
									"end": 48,
									"name": "CALLVALUE",
									"source": 0
								},
								{
									"begin": 25,
									"end": 48,
									"name": "DUP1",
									"source": 0
								},
								{
									"begin": 25,
									"end": 48,
									"name": "ISZERO",
									"source": 0
								},
								{
									"begin": 25,
									"end": 48,
									"name": "PUSH [tag]",
									"source": 0,
									"value": "1"
								},
								{
									"begin": 25,
									"end": 48,
									"name": "JUMPI",
									"source": 0
								},
								{
									"begin": 25,
									"end": 48,
									"name": "PUSH",
									"source": 0,
									"value": "0"
								},
								{
									"begin": 25,
									"end": 48,
									"name": "DUP1",
									"source": 0
								},
								{
									"begin": 25,
									"end": 48,
									"name": "REVERT",
									"source": 0
								},
								{
									"begin": 25,
									"end": 48,
									"name": "tag",
									"source": 0,
									"value": "1"
								},
								{
									"begin": 25,
									"end": 48,
									"name": "JUMPDEST",
									"source": 0
								},
								{
									"begin": 25,
									"end": 48,
									"name": "POP",
									"source": 0
								},
								{
									"begin": 25,
									"end": 48,
									"name": "PUSH #[$]",
									"source": 0,
									"value": "0000000000000000000000000000000000000000000000000000000000000000"
								},
								{
									"begin": 25,
									"end": 48,
									"name": "DUP1",
									"source": 0
								},
								{
									"begin": 25,
									"end": 48,
									"name": "PUSH [$]",
									"source": 0,
									"value": "0000000000000000000000000000000000000000000000000000000000000000"
								},
								{
									"begin": 25,
									"end": 48,
									"name": "PUSH",
									"source": 0,
									"value": "0"
								},
								{
									"begin": 25,
									"end": 48,
									"name": "CODECOPY",
									"source": 0
								},
								{
									"begin": 25,
									"end": 48,
									"name": "PUSH",
									"source": 0,
									"value": "0"
								},
								{
									"begin": 25,
									"end": 48,
									"name": "RETURN",
									"source": 0
								}
							],
							".data": {
								"0": {
									".auxdata": "a2646970667358221220313491da90e8f2065961916bc083be61fa01d348f9e3292e713f681eae905f5d64736f6c63430008070033",
									".code": [
										{
											"begin": 25,
											"end": 48,
											"name": "PUSH",
											"source": 0,
											"value": "80"
										},
										{
											"begin": 25,
											"end": 48,
											"name": "PUSH",
											"source": 0,
											"value": "40"
										},
										{
											"begin": 25,
											"end": 48,
											"name": "MSTORE",
											"source": 0
										},
										{
											"begin": 25,
											"end": 48,
											"name": "PUSH",
											"source": 0,
											"value": "0"
										},
										{
											"begin": 25,
											"end": 48,
											"name": "DUP1",
											"source": 0
										},
										{
											"begin": 25,
											"end": 48,
											"name": "REVERT",
											"source": 0
										}
									]
								}
							}
						},
						"methodIdentifiers": {}
					},
					"metadata": "{\"compiler\":{\"version\":\"0.8.7+commit.e28d00a7\"},\"language\":\"Solidity\",\"output\":{\"abi\":[],\"devdoc\":{\"kind\":\"dev\",\"methods\":{},\"version\":1},\"userdoc\":{\"kind\":\"user\",\"methods\":{},\"version\":1}},\"settings\":{\"compilationTarget\":{\"task6.sol\":\"Array\"},\"evmVersion\":\"london\",\"libraries\":{},\"metadata\":{\"bytecodeHash\":\"ipfs\"},\"optimizer\":{\"enabled\":false,\"runs\":200},\"remappings\":[]},\"sources\":{\"task6.sol\":{\"keccak256\":\"0xe843124ac533bd02f11f7e1f5b7e3240521f86e825638f15e6eee63c180f1875\",\"urls\":[\"bzz-raw://d53fb939d153f79d50784ab9fdd92fc2249fa66d21acb299ca8421e8e3b2dd10\",\"dweb:/ipfs/QmVQx7kvjWcDD9fbgh6DFA8PQ5s2qUfLqCjVXrWjb69bGe\"]}},\"version\":1}",
					"storageLayout": {
						"storage": [],
						"types": null
					},
					"userdoc": {
						"kind": "user",
						"methods": {},
						"version": 1
					}
				}
			}
		},
		"errors": [
			{
				"component": "general",
				"errorCode": "1878",
				"formattedMessage": "Warning: SPDX license identifier not provided in source file. Before publishing, consider adding a comment containing \"SPDX-License-Identifier: <SPDX-License>\" to each source file. Use \"SPDX-License-Identifier: UNLICENSED\" for non-open-source code. Please see https://spdx.org for more information.\n--> task6.sol\n\n",
				"message": "SPDX license identifier not provided in source file. Before publishing, consider adding a comment containing \"SPDX-License-Identifier: <SPDX-License>\" to each source file. Use \"SPDX-License-Identifier: UNLICENSED\" for non-open-source code. Please see https://spdx.org for more information.",
				"severity": "warning",
				"sourceLocation": {
					"end": -1,
					"file": "task6.sol",
					"start": -1
				},
				"type": "Warning"
			}
		],
		"sources": {
			"task6.sol": {
				"ast": {
					"absolutePath": "task6.sol",
					"exportedSymbols": {
						"Array": [
							2
						]
					},
					"id": 3,
					"nodeType": "SourceUnit",
					"nodes": [
						{
							"id": 1,
							"literals": [
								"solidity",
								"^",
								"0.8",
								".0"
							],
							"nodeType": "PragmaDirective",
							"src": "0:23:0"
						},
						{
							"abstract": false,
							"baseContracts": [],
							"contractDependencies": [],
							"contractKind": "contract",
							"fullyImplemented": true,
							"id": 2,
							"linearizedBaseContracts": [
								2
							],
							"name": "Array",
							"nameLocation": "34:5:0",
							"nodeType": "ContractDefinition",
							"nodes": [],
							"scope": 3,
							"src": "25:23:0",
							"usedErrors": []
						}
					],
					"src": "0:48:0"
				},
				"id": 0
			}
		}
	}
}