{
	"id": "9f1a923d8d422bd0e2be3f62236c4bf8",
	"_format": "hh-sol-build-info-1",
	"solcVersion": "0.8.7",
	"solcLongVersion": "0.8.7+commit.e28d00a7",
	"input": {
		"language": "Solidity",
		"sources": {
			"ERC721.sol": {
				"content": "//SPDX-License-Identifier: Rahul pithadia\n\npragma solidity ^0.8.0;"
			}
		},
		"settings": {
			"optimizer": {
				"enabled": false,
				"runs": 200
			},
			"outputSelection": {
				"*": {
					"": [
						"ast"
					],
					"*": [
						"abi",
						"metadata",
						"devdoc",
						"userdoc",
						"storageLayout",
						"evm.legacyAssembly",
						"evm.bytecode",
						"evm.deployedBytecode",
						"evm.methodIdentifiers",
						"evm.gasEstimates",
						"evm.assembly"
					]
				}
			}
		}
	},
	"output": {
		"sources": {
			"ERC721.sol": {
				"ast": {
					"absolutePath": "ERC721.sol",
					"exportedSymbols": {},
					"id": 2,
					"license": "Rahul pithadia",
					"nodeType": "SourceUnit",
					"nodes": [
						{
							"id": 1,
							"literals": [
								"solidity",
								"^",
								"0.8",
								".0"
							],
							"nodeType": "PragmaDirective",
							"src": "43:23:0"
						}
					],
					"src": "43:23:0"
				},
				"id": 0
			}
		}
	}
}