{
	"id": "b89f1de708b31fb62b1250c09dd5f801",
	"_format": "hh-sol-build-info-1",
	"solcVersion": "0.8.7",
	"solcLongVersion": "0.8.7+commit.e28d00a7",
	"input": {
		"language": "Solidity",
		"sources": {
			"time.sol": {
				"content": "contract MyContract {\n    uint256 lastRun;\n\n    function myFunction(uint opentime, uint closetime) public {\n        \n    }\n}"
			}
		},
		"settings": {
			"optimizer": {
				"enabled": false,
				"runs": 200
			},
			"outputSelection": {
				"*": {
					"": [
						"ast"
					],
					"*": [
						"abi",
						"metadata",
						"devdoc",
						"userdoc",
						"storageLayout",
						"evm.legacyAssembly",
						"evm.bytecode",
						"evm.deployedBytecode",
						"evm.methodIdentifiers",
						"evm.gasEstimates",
						"evm.assembly"
					]
				}
			}
		}
	},
	"output": {
		"contracts": {
			"time.sol": {
				"MyContract": {
					"abi": [
						{
							"inputs": [
								{
									"internalType": "uint256",
									"name": "opentime",
									"type": "uint256"
								},
								{
									"internalType": "uint256",
									"name": "closetime",
									"type": "uint256"
								}
							],
							"name": "myFunction",
							"outputs": [],
							"stateMutability": "nonpayable",
							"type": "function"
						}
					],
					"devdoc": {
						"kind": "dev",
						"methods": {},
						"version": 1
					},
					"evm": {
						"assembly": "    /* \"time.sol\":0:124  contract MyContract {... */\n  mstore(0x40, 0x80)\n  callvalue\n  dup1\n  iszero\n  tag_1\n  jumpi\n  0x00\n  dup1\n  revert\ntag_1:\n  pop\n  dataSize(sub_0)\n  dup1\n  dataOffset(sub_0)\n  0x00\n  codecopy\n  0x00\n  return\nstop\n\nsub_0: assembly {\n        /* \"time.sol\":0:124  contract MyContract {... */\n      mstore(0x40, 0x80)\n      callvalue\n      dup1\n      iszero\n      tag_1\n      jumpi\n      0x00\n      dup1\n      revert\n    tag_1:\n      pop\n      jumpi(tag_2, lt(calldatasize, 0x04))\n      shr(0xe0, calldataload(0x00))\n      dup1\n      0x886a044a\n      eq\n      tag_3\n      jumpi\n    tag_2:\n      0x00\n      dup1\n      revert\n        /* \"time.sol\":48:122  function myFunction(uint opentime, uint closetime) public {... */\n    tag_3:\n      tag_4\n      0x04\n      dup1\n      calldatasize\n      sub\n      dup2\n      add\n      swap1\n      tag_5\n      swap2\n      swap1\n      tag_6\n      jump\t// in\n    tag_5:\n      tag_7\n      jump\t// in\n    tag_4:\n      stop\n    tag_7:\n      pop\n      pop\n      jump\t// out\n        /* \"#utility.yul\":7:146   */\n    tag_10:\n        /* \"#utility.yul\":53:58   */\n      0x00\n        /* \"#utility.yul\":91:97   */\n      dup2\n        /* \"#utility.yul\":78:98   */\n      calldataload\n        /* \"#utility.yul\":69:98   */\n      swap1\n      pop\n        /* \"#utility.yul\":107:140   */\n      tag_12\n        /* \"#utility.yul\":134:139   */\n      dup2\n        /* \"#utility.yul\":107:140   */\n      tag_13\n      jump\t// in\n    tag_12:\n        /* \"#utility.yul\":7:146   */\n      swap3\n      swap2\n      pop\n      pop\n      jump\t// out\n        /* \"#utility.yul\":152:626   */\n    tag_6:\n        /* \"#utility.yul\":220:226   */\n      0x00\n        /* \"#utility.yul\":228:234   */\n      dup1\n        /* \"#utility.yul\":277:279   */\n      0x40\n        /* \"#utility.yul\":265:274   */\n      dup4\n        /* \"#utility.yul\":256:263   */\n      dup6\n        /* \"#utility.yul\":252:275   */\n      sub\n        /* \"#utility.yul\":248:280   */\n      slt\n        /* \"#utility.yul\":245:364   */\n      iszero\n      tag_15\n      jumpi\n        /* \"#utility.yul\":283:362   */\n      tag_16\n      tag_17\n      jump\t// in\n    tag_16:\n        /* \"#utility.yul\":245:364   */\n    tag_15:\n        /* \"#utility.yul\":403:404   */\n      0x00\n        /* \"#utility.yul\":428:481   */\n      tag_18\n        /* \"#utility.yul\":473:480   */\n      dup6\n        /* \"#utility.yul\":464:470   */\n      dup3\n        /* \"#utility.yul\":453:462   */\n      dup7\n        /* \"#utility.yul\":449:471   */\n      add\n        /* \"#utility.yul\":428:481   */\n      tag_10\n      jump\t// in\n    tag_18:\n        /* \"#utility.yul\":418:481   */\n      swap3\n      pop\n        /* \"#utility.yul\":374:491   */\n      pop\n        /* \"#utility.yul\":530:532   */\n      0x20\n        /* \"#utility.yul\":556:609   */\n      tag_19\n        /* \"#utility.yul\":601:608   */\n      dup6\n        /* \"#utility.yul\":592:598   */\n      dup3\n        /* \"#utility.yul\":581:590   */\n      dup7\n        /* \"#utility.yul\":577:599   */\n      add\n        /* \"#utility.yul\":556:609   */\n      tag_10\n      jump\t// in\n    tag_19:\n        /* \"#utility.yul\":546:609   */\n      swap2\n      pop\n        /* \"#utility.yul\":501:619   */\n      pop\n        /* \"#utility.yul\":152:626   */\n      swap3\n      pop\n      swap3\n      swap1\n      pop\n      jump\t// out\n        /* \"#utility.yul\":713:790   */\n    tag_22:\n        /* \"#utility.yul\":750:757   */\n      0x00\n        /* \"#utility.yul\":779:784   */\n      dup2\n        /* \"#utility.yul\":768:784   */\n      swap1\n      pop\n        /* \"#utility.yul\":713:790   */\n      swap2\n      swap1\n      pop\n      jump\t// out\n        /* \"#utility.yul\":919:1036   */\n    tag_17:\n        /* \"#utility.yul\":1028:1029   */\n      0x00\n        /* \"#utility.yul\":1025:1026   */\n      dup1\n        /* \"#utility.yul\":1018:1030   */\n      revert\n        /* \"#utility.yul\":1042:1164   */\n    tag_13:\n        /* \"#utility.yul\":1115:1139   */\n      tag_28\n        /* \"#utility.yul\":1133:1138   */\n      dup2\n        /* \"#utility.yul\":1115:1139   */\n      tag_22\n      jump\t// in\n    tag_28:\n        /* \"#utility.yul\":1108:1113   */\n      dup2\n        /* \"#utility.yul\":1105:1140   */\n      eq\n        /* \"#utility.yul\":1095:1158   */\n      tag_29\n      jumpi\n        /* \"#utility.yul\":1154:1155   */\n      0x00\n        /* \"#utility.yul\":1151:1152   */\n      dup1\n        /* \"#utility.yul\":1144:1156   */\n      revert\n        /* \"#utility.yul\":1095:1158   */\n    tag_29:\n        /* \"#utility.yul\":1042:1164   */\n      pop\n      jump\t// out\n\n    auxdata: 0xa2646970667358221220dc8674b2d5d755577ce1a42318c3084ad69568f542f401575bbb995b8d168daf64736f6c63430008070033\n}\n",
						"bytecode": {
							"functionDebugData": {},
							"generatedSources": [],
							"linkReferences": {},
							"object": "608060405234801561001057600080fd5b5060ee8061001f6000396000f3fe6080604052348015600f57600080fd5b506004361060285760003560e01c8063886a044a14602d575b600080fd5b60436004803603810190603f9190605c565b6045565b005b5050565b60008135905060568160a4565b92915050565b60008060408385031215607057606f609f565b5b6000607c858286016049565b9250506020608b858286016049565b9150509250929050565b6000819050919050565b600080fd5b60ab816095565b811460b557600080fd5b5056fea2646970667358221220dc8674b2d5d755577ce1a42318c3084ad69568f542f401575bbb995b8d168daf64736f6c63430008070033",
							"opcodes": "PUSH1 0x80 PUSH1 0x40 MSTORE CALLVALUE DUP1 ISZERO PUSH2 0x10 JUMPI PUSH1 0x0 DUP1 REVERT JUMPDEST POP PUSH1 0xEE DUP1 PUSH2 0x1F PUSH1 0x0 CODECOPY PUSH1 0x0 RETURN INVALID PUSH1 0x80 PUSH1 0x40 MSTORE CALLVALUE DUP1 ISZERO PUSH1 0xF JUMPI PUSH1 0x0 DUP1 REVERT JUMPDEST POP PUSH1 0x4 CALLDATASIZE LT PUSH1 0x28 JUMPI PUSH1 0x0 CALLDATALOAD PUSH1 0xE0 SHR DUP1 PUSH4 0x886A044A EQ PUSH1 0x2D JUMPI JUMPDEST PUSH1 0x0 DUP1 REVERT JUMPDEST PUSH1 0x43 PUSH1 0x4 DUP1 CALLDATASIZE SUB DUP2 ADD SWAP1 PUSH1 0x3F SWAP2 SWAP1 PUSH1 0x5C JUMP JUMPDEST PUSH1 0x45 JUMP JUMPDEST STOP JUMPDEST POP POP JUMP JUMPDEST PUSH1 0x0 DUP2 CALLDATALOAD SWAP1 POP PUSH1 0x56 DUP2 PUSH1 0xA4 JUMP JUMPDEST SWAP3 SWAP2 POP POP JUMP JUMPDEST PUSH1 0x0 DUP1 PUSH1 0x40 DUP4 DUP6 SUB SLT ISZERO PUSH1 0x70 JUMPI PUSH1 0x6F PUSH1 0x9F JUMP JUMPDEST JUMPDEST PUSH1 0x0 PUSH1 0x7C DUP6 DUP3 DUP7 ADD PUSH1 0x49 JUMP JUMPDEST SWAP3 POP POP PUSH1 0x20 PUSH1 0x8B DUP6 DUP3 DUP7 ADD PUSH1 0x49 JUMP JUMPDEST SWAP2 POP POP SWAP3 POP SWAP3 SWAP1 POP JUMP JUMPDEST PUSH1 0x0 DUP2 SWAP1 POP SWAP2 SWAP1 POP JUMP JUMPDEST PUSH1 0x0 DUP1 REVERT JUMPDEST PUSH1 0xAB DUP2 PUSH1 0x95 JUMP JUMPDEST DUP2 EQ PUSH1 0xB5 JUMPI PUSH1 0x0 DUP1 REVERT JUMPDEST POP JUMP INVALID LOG2 PUSH5 0x6970667358 0x22 SLT KECCAK256 0xDC DUP7 PUSH21 0xB2D5D755577CE1A42318C3084AD69568F542F40157 JUMPDEST 0xBB SWAP10 JUMPDEST DUP14 AND DUP14 0xAF PUSH5 0x736F6C6343 STOP ADDMOD SMOD STOP CALLER ",
							"sourceMap": "0:124:0:-:0;;;;;;;;;;;;;;;;;;;"
						},
						"deployedBytecode": {
							"functionDebugData": {
								"@myFunction_10": {
									"entryPoint": 69,
									"id": 10,
									"parameterSlots": 2,
									"returnSlots": 0
								},
								"abi_decode_t_uint256": {
									"entryPoint": 73,
									"id": null,
									"parameterSlots": 2,
									"returnSlots": 1
								},
								"abi_decode_tuple_t_uint256t_uint256": {
									"entryPoint": 92,
									"id": null,
									"parameterSlots": 2,
									"returnSlots": 2
								},
								"allocate_unbounded": {
									"entryPoint": null,
									"id": null,
									"parameterSlots": 0,
									"returnSlots": 1
								},
								"cleanup_t_uint256": {
									"entryPoint": 149,
									"id": null,
									"parameterSlots": 1,
									"returnSlots": 1
								},
								"revert_error_c1322bf8034eace5e0b5c7295db60986aa89aae5e0ea0873e4689e076861a5db": {
									"entryPoint": null,
									"id": null,
									"parameterSlots": 0,
									"returnSlots": 0
								},
								"revert_error_dbdddcbe895c83990c08b3492a0e83918d802a52331272ac6fdb6a7c4aea3b1b": {
									"entryPoint": 159,
									"id": null,
									"parameterSlots": 0,
									"returnSlots": 0
								},
								"validator_revert_t_uint256": {
									"entryPoint": 164,
									"id": null,
									"parameterSlots": 1,
									"returnSlots": 0
								}
							},
							"generatedSources": [
								{
									"ast": {
										"nodeType": "YulBlock",
										"src": "0:1167:1",
										"statements": [
											{
												"body": {
													"nodeType": "YulBlock",
													"src": "59:87:1",
													"statements": [
														{
															"nodeType": "YulAssignment",
															"src": "69:29:1",
															"value": {
																"arguments": [
																	{
																		"name": "offset",
																		"nodeType": "YulIdentifier",
																		"src": "91:6:1"
																	}
																],
																"functionName": {
																	"name": "calldataload",
																	"nodeType": "YulIdentifier",
																	"src": "78:12:1"
																},
																"nodeType": "YulFunctionCall",
																"src": "78:20:1"
															},
															"variableNames": [
																{
																	"name": "value",
																	"nodeType": "YulIdentifier",
																	"src": "69:5:1"
																}
															]
														},
														{
															"expression": {
																"arguments": [
																	{
																		"name": "value",
																		"nodeType": "YulIdentifier",
																		"src": "134:5:1"
																	}
																],
																"functionName": {
																	"name": "validator_revert_t_uint256",
																	"nodeType": "YulIdentifier",
																	"src": "107:26:1"
																},
																"nodeType": "YulFunctionCall",
																"src": "107:33:1"
															},
															"nodeType": "YulExpressionStatement",
															"src": "107:33:1"
														}
													]
												},
												"name": "abi_decode_t_uint256",
												"nodeType": "YulFunctionDefinition",
												"parameters": [
													{
														"name": "offset",
														"nodeType": "YulTypedName",
														"src": "37:6:1",
														"type": ""
													},
													{
														"name": "end",
														"nodeType": "YulTypedName",
														"src": "45:3:1",
														"type": ""
													}
												],
												"returnVariables": [
													{
														"name": "value",
														"nodeType": "YulTypedName",
														"src": "53:5:1",
														"type": ""
													}
												],
												"src": "7:139:1"
											},
											{
												"body": {
													"nodeType": "YulBlock",
													"src": "235:391:1",
													"statements": [
														{
															"body": {
																"nodeType": "YulBlock",
																"src": "281:83:1",
																"statements": [
																	{
																		"expression": {
																			"arguments": [],
																			"functionName": {
																				"name": "revert_error_dbdddcbe895c83990c08b3492a0e83918d802a52331272ac6fdb6a7c4aea3b1b",
																				"nodeType": "YulIdentifier",
																				"src": "283:77:1"
																			},
																			"nodeType": "YulFunctionCall",
																			"src": "283:79:1"
																		},
																		"nodeType": "YulExpressionStatement",
																		"src": "283:79:1"
																	}
																]
															},
															"condition": {
																"arguments": [
																	{
																		"arguments": [
																			{
																				"name": "dataEnd",
																				"nodeType": "YulIdentifier",
																				"src": "256:7:1"
																			},
																			{
																				"name": "headStart",
																				"nodeType": "YulIdentifier",
																				"src": "265:9:1"
																			}
																		],
																		"functionName": {
																			"name": "sub",
																			"nodeType": "YulIdentifier",
																			"src": "252:3:1"
																		},
																		"nodeType": "YulFunctionCall",
																		"src": "252:23:1"
																	},
																	{
																		"kind": "number",
																		"nodeType": "YulLiteral",
																		"src": "277:2:1",
																		"type": "",
																		"value": "64"
																	}
																],
																"functionName": {
																	"name": "slt",
																	"nodeType": "YulIdentifier",
																	"src": "248:3:1"
																},
																"nodeType": "YulFunctionCall",
																"src": "248:32:1"
															},
															"nodeType": "YulIf",
															"src": "245:119:1"
														},
														{
															"nodeType": "YulBlock",
															"src": "374:117:1",
															"statements": [
																{
																	"nodeType": "YulVariableDeclaration",
																	"src": "389:15:1",
																	"value": {
																		"kind": "number",
																		"nodeType": "YulLiteral",
																		"src": "403:1:1",
																		"type": "",
																		"value": "0"
																	},
																	"variables": [
																		{
																			"name": "offset",
																			"nodeType": "YulTypedName",
																			"src": "393:6:1",
																			"type": ""
																		}
																	]
																},
																{
																	"nodeType": "YulAssignment",
																	"src": "418:63:1",
																	"value": {
																		"arguments": [
																			{
																				"arguments": [
																					{
																						"name": "headStart",
																						"nodeType": "YulIdentifier",
																						"src": "453:9:1"
																					},
																					{
																						"name": "offset",
																						"nodeType": "YulIdentifier",
																						"src": "464:6:1"
																					}
																				],
																				"functionName": {
																					"name": "add",
																					"nodeType": "YulIdentifier",
																					"src": "449:3:1"
																				},
																				"nodeType": "YulFunctionCall",
																				"src": "449:22:1"
																			},
																			{
																				"name": "dataEnd",
																				"nodeType": "YulIdentifier",
																				"src": "473:7:1"
																			}
																		],
																		"functionName": {
																			"name": "abi_decode_t_uint256",
																			"nodeType": "YulIdentifier",
																			"src": "428:20:1"
																		},
																		"nodeType": "YulFunctionCall",
																		"src": "428:53:1"
																	},
																	"variableNames": [
																		{
																			"name": "value0",
																			"nodeType": "YulIdentifier",
																			"src": "418:6:1"
																		}
																	]
																}
															]
														},
														{
															"nodeType": "YulBlock",
															"src": "501:118:1",
															"statements": [
																{
																	"nodeType": "YulVariableDeclaration",
																	"src": "516:16:1",
																	"value": {
																		"kind": "number",
																		"nodeType": "YulLiteral",
																		"src": "530:2:1",
																		"type": "",
																		"value": "32"
																	},
																	"variables": [
																		{
																			"name": "offset",
																			"nodeType": "YulTypedName",
																			"src": "520:6:1",
																			"type": ""
																		}
																	]
																},
																{
																	"nodeType": "YulAssignment",
																	"src": "546:63:1",
																	"value": {
																		"arguments": [
																			{
																				"arguments": [
																					{
																						"name": "headStart",
																						"nodeType": "YulIdentifier",
																						"src": "581:9:1"
																					},
																					{
																						"name": "offset",
																						"nodeType": "YulIdentifier",
																						"src": "592:6:1"
																					}
																				],
																				"functionName": {
																					"name": "add",
																					"nodeType": "YulIdentifier",
																					"src": "577:3:1"
																				},
																				"nodeType": "YulFunctionCall",
																				"src": "577:22:1"
																			},
																			{
																				"name": "dataEnd",
																				"nodeType": "YulIdentifier",
																				"src": "601:7:1"
																			}
																		],
																		"functionName": {
																			"name": "abi_decode_t_uint256",
																			"nodeType": "YulIdentifier",
																			"src": "556:20:1"
																		},
																		"nodeType": "YulFunctionCall",
																		"src": "556:53:1"
																	},
																	"variableNames": [
																		{
																			"name": "value1",
																			"nodeType": "YulIdentifier",
																			"src": "546:6:1"
																		}
																	]
																}
															]
														}
													]
												},
												"name": "abi_decode_tuple_t_uint256t_uint256",
												"nodeType": "YulFunctionDefinition",
												"parameters": [
													{
														"name": "headStart",
														"nodeType": "YulTypedName",
														"src": "197:9:1",
														"type": ""
													},
													{
														"name": "dataEnd",
														"nodeType": "YulTypedName",
														"src": "208:7:1",
														"type": ""
													}
												],
												"returnVariables": [
													{
														"name": "value0",
														"nodeType": "YulTypedName",
														"src": "220:6:1",
														"type": ""
													},
													{
														"name": "value1",
														"nodeType": "YulTypedName",
														"src": "228:6:1",
														"type": ""
													}
												],
												"src": "152:474:1"
											},
											{
												"body": {
													"nodeType": "YulBlock",
													"src": "672:35:1",
													"statements": [
														{
															"nodeType": "YulAssignment",
															"src": "682:19:1",
															"value": {
																"arguments": [
																	{
																		"kind": "number",
																		"nodeType": "YulLiteral",
																		"src": "698:2:1",
																		"type": "",
																		"value": "64"
																	}
																],
																"functionName": {
																	"name": "mload",
																	"nodeType": "YulIdentifier",
																	"src": "692:5:1"
																},
																"nodeType": "YulFunctionCall",
																"src": "692:9:1"
															},
															"variableNames": [
																{
																	"name": "memPtr",
																	"nodeType": "YulIdentifier",
																	"src": "682:6:1"
																}
															]
														}
													]
												},
												"name": "allocate_unbounded",
												"nodeType": "YulFunctionDefinition",
												"returnVariables": [
													{
														"name": "memPtr",
														"nodeType": "YulTypedName",
														"src": "665:6:1",
														"type": ""
													}
												],
												"src": "632:75:1"
											},
											{
												"body": {
													"nodeType": "YulBlock",
													"src": "758:32:1",
													"statements": [
														{
															"nodeType": "YulAssignment",
															"src": "768:16:1",
															"value": {
																"name": "value",
																"nodeType": "YulIdentifier",
																"src": "779:5:1"
															},
															"variableNames": [
																{
																	"name": "cleaned",
																	"nodeType": "YulIdentifier",
																	"src": "768:7:1"
																}
															]
														}
													]
												},
												"name": "cleanup_t_uint256",
												"nodeType": "YulFunctionDefinition",
												"parameters": [
													{
														"name": "value",
														"nodeType": "YulTypedName",
														"src": "740:5:1",
														"type": ""
													}
												],
												"returnVariables": [
													{
														"name": "cleaned",
														"nodeType": "YulTypedName",
														"src": "750:7:1",
														"type": ""
													}
												],
												"src": "713:77:1"
											},
											{
												"body": {
													"nodeType": "YulBlock",
													"src": "885:28:1",
													"statements": [
														{
															"expression": {
																"arguments": [
																	{
																		"kind": "number",
																		"nodeType": "YulLiteral",
																		"src": "902:1:1",
																		"type": "",
																		"value": "0"
																	},
																	{
																		"kind": "number",
																		"nodeType": "YulLiteral",
																		"src": "905:1:1",
																		"type": "",
																		"value": "0"
																	}
																],
																"functionName": {
																	"name": "revert",
																	"nodeType": "YulIdentifier",
																	"src": "895:6:1"
																},
																"nodeType": "YulFunctionCall",
																"src": "895:12:1"
															},
															"nodeType": "YulExpressionStatement",
															"src": "895:12:1"
														}
													]
												},
												"name": "revert_error_c1322bf8034eace5e0b5c7295db60986aa89aae5e0ea0873e4689e076861a5db",
												"nodeType": "YulFunctionDefinition",
												"src": "796:117:1"
											},
											{
												"body": {
													"nodeType": "YulBlock",
													"src": "1008:28:1",
													"statements": [
														{
															"expression": {
																"arguments": [
																	{
																		"kind": "number",
																		"nodeType": "YulLiteral",
																		"src": "1025:1:1",
																		"type": "",
																		"value": "0"
																	},
																	{
																		"kind": "number",
																		"nodeType": "YulLiteral",
																		"src": "1028:1:1",
																		"type": "",
																		"value": "0"
																	}
																],
																"functionName": {
																	"name": "revert",
																	"nodeType": "YulIdentifier",
																	"src": "1018:6:1"
																},
																"nodeType": "YulFunctionCall",
																"src": "1018:12:1"
															},
															"nodeType": "YulExpressionStatement",
															"src": "1018:12:1"
														}
													]
												},
												"name": "revert_error_dbdddcbe895c83990c08b3492a0e83918d802a52331272ac6fdb6a7c4aea3b1b",
												"nodeType": "YulFunctionDefinition",
												"src": "919:117:1"
											},
											{
												"body": {
													"nodeType": "YulBlock",
													"src": "1085:79:1",
													"statements": [
														{
															"body": {
																"nodeType": "YulBlock",
																"src": "1142:16:1",
																"statements": [
																	{
																		"expression": {
																			"arguments": [
																				{
																					"kind": "number",
																					"nodeType": "YulLiteral",
																					"src": "1151:1:1",
																					"type": "",
																					"value": "0"
																				},
																				{
																					"kind": "number",
																					"nodeType": "YulLiteral",
																					"src": "1154:1:1",
																					"type": "",
																					"value": "0"
																				}
																			],
																			"functionName": {
																				"name": "revert",
																				"nodeType": "YulIdentifier",
																				"src": "1144:6:1"
																			},
																			"nodeType": "YulFunctionCall",
																			"src": "1144:12:1"
																		},
																		"nodeType": "YulExpressionStatement",
																		"src": "1144:12:1"
																	}
																]
															},
															"condition": {
																"arguments": [
																	{
																		"arguments": [
																			{
																				"name": "value",
																				"nodeType": "YulIdentifier",
																				"src": "1108:5:1"
																			},
																			{
																				"arguments": [
																					{
																						"name": "value",
																						"nodeType": "YulIdentifier",
																						"src": "1133:5:1"
																					}
																				],
																				"functionName": {
																					"name": "cleanup_t_uint256",
																					"nodeType": "YulIdentifier",
																					"src": "1115:17:1"
																				},
																				"nodeType": "YulFunctionCall",
																				"src": "1115:24:1"
																			}
																		],
																		"functionName": {
																			"name": "eq",
																			"nodeType": "YulIdentifier",
																			"src": "1105:2:1"
																		},
																		"nodeType": "YulFunctionCall",
																		"src": "1105:35:1"
																	}
																],
																"functionName": {
																	"name": "iszero",
																	"nodeType": "YulIdentifier",
																	"src": "1098:6:1"
																},
																"nodeType": "YulFunctionCall",
																"src": "1098:43:1"
															},
															"nodeType": "YulIf",
															"src": "1095:63:1"
														}
													]
												},
												"name": "validator_revert_t_uint256",
												"nodeType": "YulFunctionDefinition",
												"parameters": [
													{
														"name": "value",
														"nodeType": "YulTypedName",
														"src": "1078:5:1",
														"type": ""
													}
												],
												"src": "1042:122:1"
											}
										]
									},
									"contents": "{\n\n    function abi_decode_t_uint256(offset, end) -> value {\n        value := calldataload(offset)\n        validator_revert_t_uint256(value)\n    }\n\n    function abi_decode_tuple_t_uint256t_uint256(headStart, dataEnd) -> value0, value1 {\n        if slt(sub(dataEnd, headStart), 64) { revert_error_dbdddcbe895c83990c08b3492a0e83918d802a52331272ac6fdb6a7c4aea3b1b() }\n\n        {\n\n            let offset := 0\n\n            value0 := abi_decode_t_uint256(add(headStart, offset), dataEnd)\n        }\n\n        {\n\n            let offset := 32\n\n            value1 := abi_decode_t_uint256(add(headStart, offset), dataEnd)\n        }\n\n    }\n\n    function allocate_unbounded() -> memPtr {\n        memPtr := mload(64)\n    }\n\n    function cleanup_t_uint256(value) -> cleaned {\n        cleaned := value\n    }\n\n    function revert_error_c1322bf8034eace5e0b5c7295db60986aa89aae5e0ea0873e4689e076861a5db() {\n        revert(0, 0)\n    }\n\n    function revert_error_dbdddcbe895c83990c08b3492a0e83918d802a52331272ac6fdb6a7c4aea3b1b() {\n        revert(0, 0)\n    }\n\n    function validator_revert_t_uint256(value) {\n        if iszero(eq(value, cleanup_t_uint256(value))) { revert(0, 0) }\n    }\n\n}\n",
									"id": 1,
									"language": "Yul",
									"name": "#utility.yul"
								}
							],
							"immutableReferences": {},
							"linkReferences": {},
							"object": "6080604052348015600f57600080fd5b506004361060285760003560e01c8063886a044a14602d575b600080fd5b60436004803603810190603f9190605c565b6045565b005b5050565b60008135905060568160a4565b92915050565b60008060408385031215607057606f609f565b5b6000607c858286016049565b9250506020608b858286016049565b9150509250929050565b6000819050919050565b600080fd5b60ab816095565b811460b557600080fd5b5056fea2646970667358221220dc8674b2d5d755577ce1a42318c3084ad69568f542f401575bbb995b8d168daf64736f6c63430008070033",
							"opcodes": "PUSH1 0x80 PUSH1 0x40 MSTORE CALLVALUE DUP1 ISZERO PUSH1 0xF JUMPI PUSH1 0x0 DUP1 REVERT JUMPDEST POP PUSH1 0x4 CALLDATASIZE LT PUSH1 0x28 JUMPI PUSH1 0x0 CALLDATALOAD PUSH1 0xE0 SHR DUP1 PUSH4 0x886A044A EQ PUSH1 0x2D JUMPI JUMPDEST PUSH1 0x0 DUP1 REVERT JUMPDEST PUSH1 0x43 PUSH1 0x4 DUP1 CALLDATASIZE SUB DUP2 ADD SWAP1 PUSH1 0x3F SWAP2 SWAP1 PUSH1 0x5C JUMP JUMPDEST PUSH1 0x45 JUMP JUMPDEST STOP JUMPDEST POP POP JUMP JUMPDEST PUSH1 0x0 DUP2 CALLDATALOAD SWAP1 POP PUSH1 0x56 DUP2 PUSH1 0xA4 JUMP JUMPDEST SWAP3 SWAP2 POP POP JUMP JUMPDEST PUSH1 0x0 DUP1 PUSH1 0x40 DUP4 DUP6 SUB SLT ISZERO PUSH1 0x70 JUMPI PUSH1 0x6F PUSH1 0x9F JUMP JUMPDEST JUMPDEST PUSH1 0x0 PUSH1 0x7C DUP6 DUP3 DUP7 ADD PUSH1 0x49 JUMP JUMPDEST SWAP3 POP POP PUSH1 0x20 PUSH1 0x8B DUP6 DUP3 DUP7 ADD PUSH1 0x49 JUMP JUMPDEST SWAP2 POP POP SWAP3 POP SWAP3 SWAP1 POP JUMP JUMPDEST PUSH1 0x0 DUP2 SWAP1 POP SWAP2 SWAP1 POP JUMP JUMPDEST PUSH1 0x0 DUP1 REVERT JUMPDEST PUSH1 0xAB DUP2 PUSH1 0x95 JUMP JUMPDEST DUP2 EQ PUSH1 0xB5 JUMPI PUSH1 0x0 DUP1 REVERT JUMPDEST POP JUMP INVALID LOG2 PUSH5 0x6970667358 0x22 SLT KECCAK256 0xDC DUP7 PUSH21 0xB2D5D755577CE1A42318C3084AD69568F542F40157 JUMPDEST 0xBB SWAP10 JUMPDEST DUP14 AND DUP14 0xAF PUSH5 0x736F6C6343 STOP ADDMOD SMOD STOP CALLER ",
							"sourceMap": "0:124:0:-:0;;;;;;;;;;;;;;;;;;;;;;;;;;;;;;;48:74;;;;;;;;;;;;;:::i;:::-;;:::i;:::-;;;;;:::o;7:139:1:-;53:5;91:6;78:20;69:29;;107:33;134:5;107:33;:::i;:::-;7:139;;;;:::o;152:474::-;220:6;228;277:2;265:9;256:7;252:23;248:32;245:119;;;283:79;;:::i;:::-;245:119;403:1;428:53;473:7;464:6;453:9;449:22;428:53;:::i;:::-;418:63;;374:117;530:2;556:53;601:7;592:6;581:9;577:22;556:53;:::i;:::-;546:63;;501:118;152:474;;;;;:::o;713:77::-;750:7;779:5;768:16;;713:77;;;:::o;919:117::-;1028:1;1025;1018:12;1042:122;1115:24;1133:5;1115:24;:::i;:::-;1108:5;1105:35;1095:63;;1154:1;1151;1144:12;1095:63;1042:122;:::o"
						},
						"gasEstimates": {
							"creation": {
								"codeDepositCost": "47600",
								"executionCost": "99",
								"totalCost": "47699"
							},
							"external": {
								"myFunction(uint256,uint256)": "infinite"
							}
						},
						"legacyAssembly": {
							".code": [
								{
									"begin": 0,
									"end": 124,
									"name": "PUSH",
									"source": 0,
									"value": "80"
								},
								{
									"begin": 0,
									"end": 124,
									"name": "PUSH",
									"source": 0,
									"value": "40"
								},
								{
									"begin": 0,
									"end": 124,
									"name": "MSTORE",
									"source": 0
								},
								{
									"begin": 0,
									"end": 124,
									"name": "CALLVALUE",
									"source": 0
								},
								{
									"begin": 0,
									"end": 124,
									"name": "DUP1",
									"source": 0
								},
								{
									"begin": 0,
									"end": 124,
									"name": "ISZERO",
									"source": 0
								},
								{
									"begin": 0,
									"end": 124,
									"name": "PUSH [tag]",
									"source": 0,
									"value": "1"
								},
								{
									"begin": 0,
									"end": 124,
									"name": "JUMPI",
									"source": 0
								},
								{
									"begin": 0,
									"end": 124,
									"name": "PUSH",
									"source": 0,
									"value": "0"
								},
								{
									"begin": 0,
									"end": 124,
									"name": "DUP1",
									"source": 0
								},
								{
									"begin": 0,
									"end": 124,
									"name": "REVERT",
									"source": 0
								},
								{
									"begin": 0,
									"end": 124,
									"name": "tag",
									"source": 0,
									"value": "1"
								},
								{
									"begin": 0,
									"end": 124,
									"name": "JUMPDEST",
									"source": 0
								},
								{
									"begin": 0,
									"end": 124,
									"name": "POP",
									"source": 0
								},
								{
									"begin": 0,
									"end": 124,
									"name": "PUSH #[$]",
									"source": 0,
									"value": "0000000000000000000000000000000000000000000000000000000000000000"
								},
								{
									"begin": 0,
									"end": 124,
									"name": "DUP1",
									"source": 0
								},
								{
									"begin": 0,
									"end": 124,
									"name": "PUSH [$]",
									"source": 0,
									"value": "0000000000000000000000000000000000000000000000000000000000000000"
								},
								{
									"begin": 0,
									"end": 124,
									"name": "PUSH",
									"source": 0,
									"value": "0"
								},
								{
									"begin": 0,
									"end": 124,
									"name": "CODECOPY",
									"source": 0
								},
								{
									"begin": 0,
									"end": 124,
									"name": "PUSH",
									"source": 0,
									"value": "0"
								},
								{
									"begin": 0,
									"end": 124,
									"name": "RETURN",
									"source": 0
								}
							],
							".data": {
								"0": {
									".auxdata": "a2646970667358221220dc8674b2d5d755577ce1a42318c3084ad69568f542f401575bbb995b8d168daf64736f6c63430008070033",
									".code": [
										{
											"begin": 0,
											"end": 124,
											"name": "PUSH",
											"source": 0,
											"value": "80"
										},
										{
											"begin": 0,
											"end": 124,
											"name": "PUSH",
											"source": 0,
											"value": "40"
										},
										{
											"begin": 0,
											"end": 124,
											"name": "MSTORE",
											"source": 0
										},
										{
											"begin": 0,
											"end": 124,
											"name": "CALLVALUE",
											"source": 0
										},
										{
											"begin": 0,
											"end": 124,
											"name": "DUP1",
											"source": 0
										},
										{
											"begin": 0,
											"end": 124,
											"name": "ISZERO",
											"source": 0
										},
										{
											"begin": 0,
											"end": 124,
											"name": "PUSH [tag]",
											"source": 0,
											"value": "1"
										},
										{
											"begin": 0,
											"end": 124,
											"name": "JUMPI",
											"source": 0
										},
										{
											"begin": 0,
											"end": 124,
											"name": "PUSH",
											"source": 0,
											"value": "0"
										},
										{
											"begin": 0,
											"end": 124,
											"name": "DUP1",
											"source": 0
										},
										{
											"begin": 0,
											"end": 124,
											"name": "REVERT",
											"source": 0
										},
										{
											"begin": 0,
											"end": 124,
											"name": "tag",
											"source": 0,
											"value": "1"
										},
										{
											"begin": 0,
											"end": 124,
											"name": "JUMPDEST",
											"source": 0
										},
										{
											"begin": 0,
											"end": 124,
											"name": "POP",
											"source": 0
										},
										{
											"begin": 0,
											"end": 124,
											"name": "PUSH",
											"source": 0,
											"value": "4"
										},
										{
											"begin": 0,
											"end": 124,
											"name": "CALLDATASIZE",
											"source": 0
										},
										{
											"begin": 0,
											"end": 124,
											"name": "LT",
											"source": 0
										},
										{
											"begin": 0,
											"end": 124,
											"name": "PUSH [tag]",
											"source": 0,
											"value": "2"
										},
										{
											"begin": 0,
											"end": 124,
											"name": "JUMPI",
											"source": 0
										},
										{
											"begin": 0,
											"end": 124,
											"name": "PUSH",
											"source": 0,
											"value": "0"
										},
										{
											"begin": 0,
											"end": 124,
											"name": "CALLDATALOAD",
											"source": 0
										},
										{
											"begin": 0,
											"end": 124,
											"name": "PUSH",
											"source": 0,
											"value": "E0"
										},
										{
											"begin": 0,
											"end": 124,
											"name": "SHR",
											"source": 0
										},
										{
											"begin": 0,
											"end": 124,
											"name": "DUP1",
											"source": 0
										},
										{
											"begin": 0,
											"end": 124,
											"name": "PUSH",
											"source": 0,
											"value": "886A044A"
										},
										{
											"begin": 0,
											"end": 124,
											"name": "EQ",
											"source": 0
										},
										{
											"begin": 0,
											"end": 124,
											"name": "PUSH [tag]",
											"source": 0,
											"value": "3"
										},
										{
											"begin": 0,
											"end": 124,
											"name": "JUMPI",
											"source": 0
										},
										{
											"begin": 0,
											"end": 124,
											"name": "tag",
											"source": 0,
											"value": "2"
										},
										{
											"begin": 0,
											"end": 124,
											"name": "JUMPDEST",
											"source": 0
										},
										{
											"begin": 0,
											"end": 124,
											"name": "PUSH",
											"source": 0,
											"value": "0"
										},
										{
											"begin": 0,
											"end": 124,
											"name": "DUP1",
											"source": 0
										},
										{
											"begin": 0,
											"end": 124,
											"name": "REVERT",
											"source": 0
										},
										{
											"begin": 48,
											"end": 122,
											"name": "tag",
											"source": 0,
											"value": "3"
										},
										{
											"begin": 48,
											"end": 122,
											"name": "JUMPDEST",
											"source": 0
										},
										{
											"begin": 48,
											"end": 122,
											"name": "PUSH [tag]",
											"source": 0,
											"value": "4"
										},
										{
											"begin": 48,
											"end": 122,
											"name": "PUSH",
											"source": 0,
											"value": "4"
										},
										{
											"begin": 48,
											"end": 122,
											"name": "DUP1",
											"source": 0
										},
										{
											"begin": 48,
											"end": 122,
											"name": "CALLDATASIZE",
											"source": 0
										},
										{
											"begin": 48,
											"end": 122,
											"name": "SUB",
											"source": 0
										},
										{
											"begin": 48,
											"end": 122,
											"name": "DUP2",
											"source": 0
										},
										{
											"begin": 48,
											"end": 122,
											"name": "ADD",
											"source": 0
										},
										{
											"begin": 48,
											"end": 122,
											"name": "SWAP1",
											"source": 0
										},
										{
											"begin": 48,
											"end": 122,
											"name": "PUSH [tag]",
											"source": 0,
											"value": "5"
										},
										{
											"begin": 48,
											"end": 122,
											"name": "SWAP2",
											"source": 0
										},
										{
											"begin": 48,
											"end": 122,
											"name": "SWAP1",
											"source": 0
										},
										{
											"begin": 48,
											"end": 122,
											"name": "PUSH [tag]",
											"source": 0,
											"value": "6"
										},
										{
											"begin": 48,
											"end": 122,
											"name": "JUMP",
											"source": 0,
											"value": "[in]"
										},
										{
											"begin": 48,
											"end": 122,
											"name": "tag",
											"source": 0,
											"value": "5"
										},
										{
											"begin": 48,
											"end": 122,
											"name": "JUMPDEST",
											"source": 0
										},
										{
											"begin": 48,
											"end": 122,
											"name": "PUSH [tag]",
											"source": 0,
											"value": "7"
										},
										{
											"begin": 48,
											"end": 122,
											"name": "JUMP",
											"source": 0,
											"value": "[in]"
										},
										{
											"begin": 48,
											"end": 122,
											"name": "tag",
											"source": 0,
											"value": "4"
										},
										{
											"begin": 48,
											"end": 122,
											"name": "JUMPDEST",
											"source": 0
										},
										{
											"begin": 48,
											"end": 122,
											"name": "STOP",
											"source": 0
										},
										{
											"begin": 48,
											"end": 122,
											"name": "tag",
											"source": 0,
											"value": "7"
										},
										{
											"begin": 48,
											"end": 122,
											"name": "JUMPDEST",
											"source": 0
										},
										{
											"begin": 48,
											"end": 122,
											"name": "POP",
											"source": 0
										},
										{
											"begin": 48,
											"end": 122,
											"name": "POP",
											"source": 0
										},
										{
											"begin": 48,
											"end": 122,
											"name": "JUMP",
											"source": 0,
											"value": "[out]"
										},
										{
											"begin": 7,
											"end": 146,
											"name": "tag",
											"source": 1,
											"value": "10"
										},
										{
											"begin": 7,
											"end": 146,
											"name": "JUMPDEST",
											"source": 1
										},
										{
											"begin": 53,
											"end": 58,
											"name": "PUSH",
											"source": 1,
											"value": "0"
										},
										{
											"begin": 91,
											"end": 97,
											"name": "DUP2",
											"source": 1
										},
										{
											"begin": 78,
											"end": 98,
											"name": "CALLDATALOAD",
											"source": 1
										},
										{
											"begin": 69,
											"end": 98,
											"name": "SWAP1",
											"source": 1
										},
										{
											"begin": 69,
											"end": 98,
											"name": "POP",
											"source": 1
										},
										{
											"begin": 107,
											"end": 140,
											"name": "PUSH [tag]",
											"source": 1,
											"value": "12"
										},
										{
											"begin": 134,
											"end": 139,
											"name": "DUP2",
											"source": 1
										},
										{
											"begin": 107,
											"end": 140,
											"name": "PUSH [tag]",
											"source": 1,
											"value": "13"
										},
										{
											"begin": 107,
											"end": 140,
											"name": "JUMP",
											"source": 1,
											"value": "[in]"
										},
										{
											"begin": 107,
											"end": 140,
											"name": "tag",
											"source": 1,
											"value": "12"
										},
										{
											"begin": 107,
											"end": 140,
											"name": "JUMPDEST",
											"source": 1
										},
										{
											"begin": 7,
											"end": 146,
											"name": "SWAP3",
											"source": 1
										},
										{
											"begin": 7,
											"end": 146,
											"name": "SWAP2",
											"source": 1
										},
										{
											"begin": 7,
											"end": 146,
											"name": "POP",
											"source": 1
										},
										{
											"begin": 7,
											"end": 146,
											"name": "POP",
											"source": 1
										},
										{
											"begin": 7,
											"end": 146,
											"name": "JUMP",
											"source": 1,
											"value": "[out]"
										},
										{
											"begin": 152,
											"end": 626,
											"name": "tag",
											"source": 1,
											"value": "6"
										},
										{
											"begin": 152,
											"end": 626,
											"name": "JUMPDEST",
											"source": 1
										},
										{
											"begin": 220,
											"end": 226,
											"name": "PUSH",
											"source": 1,
											"value": "0"
										},
										{
											"begin": 228,
											"end": 234,
											"name": "DUP1",
											"source": 1
										},
										{
											"begin": 277,
											"end": 279,
											"name": "PUSH",
											"source": 1,
											"value": "40"
										},
										{
											"begin": 265,
											"end": 274,
											"name": "DUP4",
											"source": 1
										},
										{
											"begin": 256,
											"end": 263,
											"name": "DUP6",
											"source": 1
										},
										{
											"begin": 252,
											"end": 275,
											"name": "SUB",
											"source": 1
										},
										{
											"begin": 248,
											"end": 280,
											"name": "SLT",
											"source": 1
										},
										{
											"begin": 245,
											"end": 364,
											"name": "ISZERO",
											"source": 1
										},
										{
											"begin": 245,
											"end": 364,
											"name": "PUSH [tag]",
											"source": 1,
											"value": "15"
										},
										{
											"begin": 245,
											"end": 364,
											"name": "JUMPI",
											"source": 1
										},
										{
											"begin": 283,
											"end": 362,
											"name": "PUSH [tag]",
											"source": 1,
											"value": "16"
										},
										{
											"begin": 283,
											"end": 362,
											"name": "PUSH [tag]",
											"source": 1,
											"value": "17"
										},
										{
											"begin": 283,
											"end": 362,
											"name": "JUMP",
											"source": 1,
											"value": "[in]"
										},
										{
											"begin": 283,
											"end": 362,
											"name": "tag",
											"source": 1,
											"value": "16"
										},
										{
											"begin": 283,
											"end": 362,
											"name": "JUMPDEST",
											"source": 1
										},
										{
											"begin": 245,
											"end": 364,
											"name": "tag",
											"source": 1,
											"value": "15"
										},
										{
											"begin": 245,
											"end": 364,
											"name": "JUMPDEST",
											"source": 1
										},
										{
											"begin": 403,
											"end": 404,
											"name": "PUSH",
											"source": 1,
											"value": "0"
										},
										{
											"begin": 428,
											"end": 481,
											"name": "PUSH [tag]",
											"source": 1,
											"value": "18"
										},
										{
											"begin": 473,
											"end": 480,
											"name": "DUP6",
											"source": 1
										},
										{
											"begin": 464,
											"end": 470,
											"name": "DUP3",
											"source": 1
										},
										{
											"begin": 453,
											"end": 462,
											"name": "DUP7",
											"source": 1
										},
										{
											"begin": 449,
											"end": 471,
											"name": "ADD",
											"source": 1
										},
										{
											"begin": 428,
											"end": 481,
											"name": "PUSH [tag]",
											"source": 1,
											"value": "10"
										},
										{
											"begin": 428,
											"end": 481,
											"name": "JUMP",
											"source": 1,
											"value": "[in]"
										},
										{
											"begin": 428,
											"end": 481,
											"name": "tag",
											"source": 1,
											"value": "18"
										},
										{
											"begin": 428,
											"end": 481,
											"name": "JUMPDEST",
											"source": 1
										},
										{
											"begin": 418,
											"end": 481,
											"name": "SWAP3",
											"source": 1
										},
										{
											"begin": 418,
											"end": 481,
											"name": "POP",
											"source": 1
										},
										{
											"begin": 374,
											"end": 491,
											"name": "POP",
											"source": 1
										},
										{
											"begin": 530,
											"end": 532,
											"name": "PUSH",
											"source": 1,
											"value": "20"
										},
										{
											"begin": 556,
											"end": 609,
											"name": "PUSH [tag]",
											"source": 1,
											"value": "19"
										},
										{
											"begin": 601,
											"end": 608,
											"name": "DUP6",
											"source": 1
										},
										{
											"begin": 592,
											"end": 598,
											"name": "DUP3",
											"source": 1
										},
										{
											"begin": 581,
											"end": 590,
											"name": "DUP7",
											"source": 1
										},
										{
											"begin": 577,
											"end": 599,
											"name": "ADD",
											"source": 1
										},
										{
											"begin": 556,
											"end": 609,
											"name": "PUSH [tag]",
											"source": 1,
											"value": "10"
										},
										{
											"begin": 556,
											"end": 609,
											"name": "JUMP",
											"source": 1,
											"value": "[in]"
										},
										{
											"begin": 556,
											"end": 609,
											"name": "tag",
											"source": 1,
											"value": "19"
										},
										{
											"begin": 556,
											"end": 609,
											"name": "JUMPDEST",
											"source": 1
										},
										{
											"begin": 546,
											"end": 609,
											"name": "SWAP2",
											"source": 1
										},
										{
											"begin": 546,
											"end": 609,
											"name": "POP",
											"source": 1
										},
										{
											"begin": 501,
											"end": 619,
											"name": "POP",
											"source": 1
										},
										{
											"begin": 152,
											"end": 626,
											"name": "SWAP3",
											"source": 1
										},
										{
											"begin": 152,
											"end": 626,
											"name": "POP",
											"source": 1
										},
										{
											"begin": 152,
											"end": 626,
											"name": "SWAP3",
											"source": 1
										},
										{
											"begin": 152,
											"end": 626,
											"name": "SWAP1",
											"source": 1
										},
										{
											"begin": 152,
											"end": 626,
											"name": "POP",
											"source": 1
										},
										{
											"begin": 152,
											"end": 626,
											"name": "JUMP",
											"source": 1,
											"value": "[out]"
										},
										{
											"begin": 713,
											"end": 790,
											"name": "tag",
											"source": 1,
											"value": "22"
										},
										{
											"begin": 713,
											"end": 790,
											"name": "JUMPDEST",
											"source": 1
										},
										{
											"begin": 750,
											"end": 757,
											"name": "PUSH",
											"source": 1,
											"value": "0"
										},
										{
											"begin": 779,
											"end": 784,
											"name": "DUP2",
											"source": 1
										},
										{
											"begin": 768,
											"end": 784,
											"name": "SWAP1",
											"source": 1
										},
										{
											"begin": 768,
											"end": 784,
											"name": "POP",
											"source": 1
										},
										{
											"begin": 713,
											"end": 790,
											"name": "SWAP2",
											"source": 1
										},
										{
											"begin": 713,
											"end": 790,
											"name": "SWAP1",
											"source": 1
										},
										{
											"begin": 713,
											"end": 790,
											"name": "POP",
											"source": 1
										},
										{
											"begin": 713,
											"end": 790,
											"name": "JUMP",
											"source": 1,
											"value": "[out]"
										},
										{
											"begin": 919,
											"end": 1036,
											"name": "tag",
											"source": 1,
											"value": "17"
										},
										{
											"begin": 919,
											"end": 1036,
											"name": "JUMPDEST",
											"source": 1
										},
										{
											"begin": 1028,
											"end": 1029,
											"name": "PUSH",
											"source": 1,
											"value": "0"
										},
										{
											"begin": 1025,
											"end": 1026,
											"name": "DUP1",
											"source": 1
										},
										{
											"begin": 1018,
											"end": 1030,
											"name": "REVERT",
											"source": 1
										},
										{
											"begin": 1042,
											"end": 1164,
											"name": "tag",
											"source": 1,
											"value": "13"
										},
										{
											"begin": 1042,
											"end": 1164,
											"name": "JUMPDEST",
											"source": 1
										},
										{
											"begin": 1115,
											"end": 1139,
											"name": "PUSH [tag]",
											"source": 1,
											"value": "28"
										},
										{
											"begin": 1133,
											"end": 1138,
											"name": "DUP2",
											"source": 1
										},
										{
											"begin": 1115,
											"end": 1139,
											"name": "PUSH [tag]",
											"source": 1,
											"value": "22"
										},
										{
											"begin": 1115,
											"end": 1139,
											"name": "JUMP",
											"source": 1,
											"value": "[in]"
										},
										{
											"begin": 1115,
											"end": 1139,
											"name": "tag",
											"source": 1,
											"value": "28"
										},
										{
											"begin": 1115,
											"end": 1139,
											"name": "JUMPDEST",
											"source": 1
										},
										{
											"begin": 1108,
											"end": 1113,
											"name": "DUP2",
											"source": 1
										},
										{
											"begin": 1105,
											"end": 1140,
											"name": "EQ",
											"source": 1
										},
										{
											"begin": 1095,
											"end": 1158,
											"name": "PUSH [tag]",
											"source": 1,
											"value": "29"
										},
										{
											"begin": 1095,
											"end": 1158,
											"name": "JUMPI",
											"source": 1
										},
										{
											"begin": 1154,
											"end": 1155,
											"name": "PUSH",
											"source": 1,
											"value": "0"
										},
										{
											"begin": 1151,
											"end": 1152,
											"name": "DUP1",
											"source": 1
										},
										{
											"begin": 1144,
											"end": 1156,
											"name": "REVERT",
											"source": 1
										},
										{
											"begin": 1095,
											"end": 1158,
											"name": "tag",
											"source": 1,
											"value": "29"
										},
										{
											"begin": 1095,
											"end": 1158,
											"name": "JUMPDEST",
											"source": 1
										},
										{
											"begin": 1042,
											"end": 1164,
											"name": "POP",
											"source": 1
										},
										{
											"begin": 1042,
											"end": 1164,
											"name": "JUMP",
											"source": 1,
											"value": "[out]"
										}
									]
								}
							}
						},
						"methodIdentifiers": {
							"myFunction(uint256,uint256)": "886a044a"
						}
					},
					"metadata": "{\"compiler\":{\"version\":\"0.8.7+commit.e28d00a7\"},\"language\":\"Solidity\",\"output\":{\"abi\":[{\"inputs\":[{\"internalType\":\"uint256\",\"name\":\"opentime\",\"type\":\"uint256\"},{\"internalType\":\"uint256\",\"name\":\"closetime\",\"type\":\"uint256\"}],\"name\":\"myFunction\",\"outputs\":[],\"stateMutability\":\"nonpayable\",\"type\":\"function\"}],\"devdoc\":{\"kind\":\"dev\",\"methods\":{},\"version\":1},\"userdoc\":{\"kind\":\"user\",\"methods\":{},\"version\":1}},\"settings\":{\"compilationTarget\":{\"time.sol\":\"MyContract\"},\"evmVersion\":\"london\",\"libraries\":{},\"metadata\":{\"bytecodeHash\":\"ipfs\"},\"optimizer\":{\"enabled\":false,\"runs\":200},\"remappings\":[]},\"sources\":{\"time.sol\":{\"keccak256\":\"0xaee1890c72b4b70721e1f3127cbf97e208be12ab52a7df67090ed3433945b1d6\",\"urls\":[\"bzz-raw://37489f072bd60e5066fd1b26160d35eb3c127b473dbf83a38985902dffdf394d\",\"dweb:/ipfs/QmfF4xvn9Yi8uXQL2DMRPGRBLprn9zEsnyf2GzYwMZyWcg\"]}},\"version\":1}",
					"storageLayout": {
						"storage": [
							{
								"astId": 2,
								"contract": "time.sol:MyContract",
								"label": "lastRun",
								"offset": 0,
								"slot": "0",
								"type": "t_uint256"
							}
						],
						"types": {
							"t_uint256": {
								"encoding": "inplace",
								"label": "uint256",
								"numberOfBytes": "32"
							}
						}
					},
					"userdoc": {
						"kind": "user",
						"methods": {},
						"version": 1
					}
				}
			}
		},
		"errors": [
			{
				"component": "general",
				"errorCode": "1878",
				"formattedMessage": "Warning: SPDX license identifier not provided in source file. Before publishing, consider adding a comment containing \"SPDX-License-Identifier: <SPDX-License>\" to each source file. Use \"SPDX-License-Identifier: UNLICENSED\" for non-open-source code. Please see https://spdx.org for more information.\n--> time.sol\n\n",
				"message": "SPDX license identifier not provided in source file. Before publishing, consider adding a comment containing \"SPDX-License-Identifier: <SPDX-License>\" to each source file. Use \"SPDX-License-Identifier: UNLICENSED\" for non-open-source code. Please see https://spdx.org for more information.",
				"severity": "warning",
				"sourceLocation": {
					"end": -1,
					"file": "time.sol",
					"start": -1
				},
				"type": "Warning"
			},
			{
				"component": "general",
				"errorCode": "3420",
				"formattedMessage": "Warning: Source file does not specify required compiler version! Consider adding \"pragma solidity ^0.8.7;\"\n--> time.sol\n\n",
				"message": "Source file does not specify required compiler version! Consider adding \"pragma solidity ^0.8.7;\"",
				"severity": "warning",
				"sourceLocation": {
					"end": -1,
					"file": "time.sol",
					"start": -1
				},
				"type": "Warning"
			}
		],
		"sources": {
			"time.sol": {
				"ast": {
					"absolutePath": "time.sol",
					"exportedSymbols": {
						"MyContract": [
							11
						]
					},
					"id": 12,
					"nodeType": "SourceUnit",
					"nodes": [
						{
							"abstract": false,
							"baseContracts": [],
							"contractDependencies": [],
							"contractKind": "contract",
							"fullyImplemented": true,
							"id": 11,
							"linearizedBaseContracts": [
								11
							],
							"name": "MyContract",
							"nameLocation": "9:10:0",
							"nodeType": "ContractDefinition",
							"nodes": [
								{
									"constant": false,
									"id": 2,
									"mutability": "mutable",
									"name": "lastRun",
									"nameLocation": "34:7:0",
									"nodeType": "VariableDeclaration",
									"scope": 11,
									"src": "26:15:0",
									"stateVariable": true,
									"storageLocation": "default",
									"typeDescriptions": {
										"typeIdentifier": "t_uint256",
										"typeString": "uint256"
									},
									"typeName": {
										"id": 1,
										"name": "uint256",
										"nodeType": "ElementaryTypeName",
										"src": "26:7:0",
										"typeDescriptions": {
											"typeIdentifier": "t_uint256",
											"typeString": "uint256"
										}
									},
									"visibility": "internal"
								},
								{
									"body": {
										"id": 9,
										"nodeType": "Block",
										"src": "106:16:0",
										"statements": []
									},
									"functionSelector": "886a044a",
									"id": 10,
									"implemented": true,
									"kind": "function",
									"modifiers": [],
									"name": "myFunction",
									"nameLocation": "57:10:0",
									"nodeType": "FunctionDefinition",
									"parameters": {
										"id": 7,
										"nodeType": "ParameterList",
										"parameters": [
											{
												"constant": false,
												"id": 4,
												"mutability": "mutable",
												"name": "opentime",
												"nameLocation": "73:8:0",
												"nodeType": "VariableDeclaration",
												"scope": 10,
												"src": "68:13:0",
												"stateVariable": false,
												"storageLocation": "default",
												"typeDescriptions": {
													"typeIdentifier": "t_uint256",
													"typeString": "uint256"
												},
												"typeName": {
													"id": 3,
													"name": "uint",
													"nodeType": "ElementaryTypeName",
													"src": "68:4:0",
													"typeDescriptions": {
														"typeIdentifier": "t_uint256",
														"typeString": "uint256"
													}
												},
												"visibility": "internal"
											},
											{
												"constant": false,
												"id": 6,
												"mutability": "mutable",
												"name": "closetime",
												"nameLocation": "88:9:0",
												"nodeType": "VariableDeclaration",
												"scope": 10,
												"src": "83:14:0",
												"stateVariable": false,
												"storageLocation": "default",
												"typeDescriptions": {
													"typeIdentifier": "t_uint256",
													"typeString": "uint256"
												},
												"typeName": {
													"id": 5,
													"name": "uint",
													"nodeType": "ElementaryTypeName",
													"src": "83:4:0",
													"typeDescriptions": {
														"typeIdentifier": "t_uint256",
														"typeString": "uint256"
													}
												},
												"visibility": "internal"
											}
										],
										"src": "67:31:0"
									},
									"returnParameters": {
										"id": 8,
										"nodeType": "ParameterList",
										"parameters": [],
										"src": "106:0:0"
									},
									"scope": 11,
									"src": "48:74:0",
									"stateMutability": "nonpayable",
									"virtual": false,
									"visibility": "public"
								}
							],
							"scope": 12,
							"src": "0:124:0",
							"usedErrors": []
						}
					],
					"src": "0:124:0"
				},
				"id": 0
			}
		}
	}
}