{
	"id": "bb609b7b5aa539b48933669dc256fdb0",
	"_format": "hh-sol-build-info-1",
	"solcVersion": "0.8.16",
	"solcLongVersion": "0.8.16+commit.07a7930e",
	"input": {
		"language": "Solidity",
		"sources": {
			"functionModifier.sol": {
				"content": "// SPDX-License-Identifier: UNLICENSED"
			}
		},
		"settings": {
			"optimizer": {
				"enabled": false,
				"runs": 200
			},
			"outputSelection": {
				"*": {
					"": [
						"ast"
					],
					"*": [
						"abi",
						"metadata",
						"devdoc",
						"userdoc",
						"storageLayout",
						"evm.legacyAssembly",
						"evm.bytecode",
						"evm.deployedBytecode",
						"evm.methodIdentifiers",
						"evm.gasEstimates",
						"evm.assembly"
					]
				}
			}
		}
	},
	"output": {
		"errors": [
			{
				"component": "general",
				"errorCode": "1878",
				"formattedMessage": "Warning: SPDX license identifier not provided in source file. Before publishing, consider adding a comment containing \"SPDX-License-Identifier: <SPDX-License>\" to each source file. Use \"SPDX-License-Identifier: UNLICENSED\" for non-open-source code. Please see https://spdx.org for more information.\n--> functionModifier.sol\n\n",
				"message": "SPDX license identifier not provided in source file. Before publishing, consider adding a comment containing \"SPDX-License-Identifier: <SPDX-License>\" to each source file. Use \"SPDX-License-Identifier: UNLICENSED\" for non-open-source code. Please see https://spdx.org for more information.",
				"severity": "warning",
				"sourceLocation": {
					"end": -1,
					"file": "functionModifier.sol",
					"start": -1
				},
				"type": "Warning"
			},
			{
				"component": "general",
				"errorCode": "3420",
				"formattedMessage": "Warning: Source file does not specify required compiler version! Consider adding \"pragma solidity ^0.8.16;\"\n--> functionModifier.sol\n\n",
				"message": "Source file does not specify required compiler version! Consider adding \"pragma solidity ^0.8.16;\"",
				"severity": "warning",
				"sourceLocation": {
					"end": -1,
					"file": "functionModifier.sol",
					"start": -1
				},
				"type": "Warning"
			}
		],
		"sources": {
			"functionModifier.sol": {
				"ast": {
					"absolutePath": "functionModifier.sol",
					"exportedSymbols": {},
					"id": 1,
					"nodeType": "SourceUnit",
					"nodes": [],
					"src": "38:0:0"
				},
				"id": 0
			}
		}
	}
}