{
	"id": "d9e8415bf6eaf1e41a2c182c6348a46c",
	"_format": "hh-sol-build-info-1",
	"solcVersion": "0.8.16",
	"solcLongVersion": "0.8.16+commit.07a7930e",
	"input": {
		"language": "Solidity",
		"sources": {
			"functionModifier.sol": {
				"content": "// SPDX-License-Identifier: UNLICENSED\n\npragma solidity ^0.8.0;\n\ncontract Transfer{\n\n    address sender = msg.sender;\n    address reciever;\n\n    modifier send{\n        require(msg.sender == sender);\n        _;\n    }\n\n\n    // deposite amount to wallet first.\n    function deposite () public payable send{\n        require(msg.value > 0, \"you need to deposite some am\");\n    }\n}"
			}
		},
		"settings": {
			"optimizer": {
				"enabled": false,
				"runs": 200
			},
			"outputSelection": {
				"*": {
					"": [
						"ast"
					],
					"*": [
						"abi",
						"metadata",
						"devdoc",
						"userdoc",
						"storageLayout",
						"evm.legacyAssembly",
						"evm.bytecode",
						"evm.deployedBytecode",
						"evm.methodIdentifiers",
						"evm.gasEstimates",
						"evm.assembly"
					]
				}
			}
		}
	},
	"output": {
		"contracts": {
			"functionModifier.sol": {
				"Transfer": {
					"abi": [
						{
							"inputs": [],
							"name": "deposite",
							"outputs": [],
							"stateMutability": "payable",
							"type": "function"
						}
					],
					"devdoc": {
						"kind": "dev",
						"methods": {},
						"version": 1
					},
					"evm": {
						"assembly": "    /* \"functionModifier.sol\":65:375  contract Transfer{... */\n  mstore(0x40, 0x80)\n    /* \"functionModifier.sol\":106:116  msg.sender */\n  caller\n    /* \"functionModifier.sol\":89:116  address sender = msg.sender */\n  0x00\n  dup1\n  0x0100\n  exp\n  dup2\n  sload\n  dup2\n  0xffffffffffffffffffffffffffffffffffffffff\n  mul\n  not\n  and\n  swap1\n  dup4\n  0xffffffffffffffffffffffffffffffffffffffff\n  and\n  mul\n  or\n  swap1\n  sstore\n  pop\n    /* \"functionModifier.sol\":65:375  contract Transfer{... */\n  callvalue\n  dup1\n  iszero\n  tag_1\n  jumpi\n  0x00\n  dup1\n  revert\ntag_1:\n  pop\n  dataSize(sub_0)\n  dup1\n  dataOffset(sub_0)\n  0x00\n  codecopy\n  0x00\n  return\nstop\n\nsub_0: assembly {\n        /* \"functionModifier.sol\":65:375  contract Transfer{... */\n      mstore(0x40, 0x80)\n      jumpi(tag_1, lt(calldatasize, 0x04))\n      shr(0xe0, calldataload(0x00))\n      dup1\n      0xa50ec326\n      eq\n      tag_2\n      jumpi\n    tag_1:\n      0x00\n      dup1\n      revert\n        /* \"functionModifier.sol\":262:373  function deposite () public payable send{... */\n    tag_2:\n      tag_3\n      tag_4\n      jump\t// in\n    tag_3:\n      stop\n    tag_4:\n        /* \"functionModifier.sol\":190:196  sender */\n      0x00\n      dup1\n      sload\n      swap1\n      0x0100\n      exp\n      swap1\n      div\n      0xffffffffffffffffffffffffffffffffffffffff\n      and\n        /* \"functionModifier.sol\":176:196  msg.sender == sender */\n      0xffffffffffffffffffffffffffffffffffffffff\n      and\n        /* \"functionModifier.sol\":176:186  msg.sender */\n      caller\n        /* \"functionModifier.sol\":176:196  msg.sender == sender */\n      0xffffffffffffffffffffffffffffffffffffffff\n      and\n      eq\n        /* \"functionModifier.sol\":168:197  require(msg.sender == sender) */\n      tag_6\n      jumpi\n      0x00\n      dup1\n      revert\n    tag_6:\n        /* \"functionModifier.sol\":332:333  0 */\n      0x00\n        /* \"functionModifier.sol\":320:329  msg.value */\n      callvalue\n        /* \"functionModifier.sol\":320:333  msg.value > 0 */\n      gt\n        /* \"functionModifier.sol\":312:366  require(msg.value > 0, \"you need to deposite some am\") */\n      tag_8\n      jumpi\n      mload(0x40)\n      0x08c379a000000000000000000000000000000000000000000000000000000000\n      dup2\n      mstore\n      0x04\n      add\n      tag_9\n      swap1\n      tag_10\n      jump\t// in\n    tag_9:\n      mload(0x40)\n      dup1\n      swap2\n      sub\n      swap1\n      revert\n    tag_8:\n        /* \"functionModifier.sol\":262:373  function deposite () public payable send{... */\n      jump\t// out\n        /* \"#utility.yul\":7:176   */\n    tag_11:\n        /* \"#utility.yul\":91:102   */\n      0x00\n        /* \"#utility.yul\":125:131   */\n      dup3\n        /* \"#utility.yul\":120:123   */\n      dup3\n        /* \"#utility.yul\":113:132   */\n      mstore\n        /* \"#utility.yul\":165:169   */\n      0x20\n        /* \"#utility.yul\":160:163   */\n      dup3\n        /* \"#utility.yul\":156:170   */\n      add\n        /* \"#utility.yul\":141:170   */\n      swap1\n      pop\n        /* \"#utility.yul\":7:176   */\n      swap3\n      swap2\n      pop\n      pop\n      jump\t// out\n        /* \"#utility.yul\":182:360   */\n    tag_12:\n        /* \"#utility.yul\":322:352   */\n      0x796f75206e65656420746f206465706f7369746520736f6d6520616d00000000\n        /* \"#utility.yul\":318:319   */\n      0x00\n        /* \"#utility.yul\":310:316   */\n      dup3\n        /* \"#utility.yul\":306:320   */\n      add\n        /* \"#utility.yul\":299:353   */\n      mstore\n        /* \"#utility.yul\":182:360   */\n      pop\n      jump\t// out\n        /* \"#utility.yul\":366:732   */\n    tag_13:\n        /* \"#utility.yul\":508:511   */\n      0x00\n        /* \"#utility.yul\":529:596   */\n      tag_18\n        /* \"#utility.yul\":593:595   */\n      0x1c\n        /* \"#utility.yul\":588:591   */\n      dup4\n        /* \"#utility.yul\":529:596   */\n      tag_11\n      jump\t// in\n    tag_18:\n        /* \"#utility.yul\":522:596   */\n      swap2\n      pop\n        /* \"#utility.yul\":605:698   */\n      tag_19\n        /* \"#utility.yul\":694:697   */\n      dup3\n        /* \"#utility.yul\":605:698   */\n      tag_12\n      jump\t// in\n    tag_19:\n        /* \"#utility.yul\":723:725   */\n      0x20\n        /* \"#utility.yul\":718:721   */\n      dup3\n        /* \"#utility.yul\":714:726   */\n      add\n        /* \"#utility.yul\":707:726   */\n      swap1\n      pop\n        /* \"#utility.yul\":366:732   */\n      swap2\n      swap1\n      pop\n      jump\t// out\n        /* \"#utility.yul\":738:1157   */\n    tag_10:\n        /* \"#utility.yul\":904:908   */\n      0x00\n        /* \"#utility.yul\":942:944   */\n      0x20\n        /* \"#utility.yul\":931:940   */\n      dup3\n        /* \"#utility.yul\":927:945   */\n      add\n        /* \"#utility.yul\":919:945   */\n      swap1\n      pop\n        /* \"#utility.yul\":991:1000   */\n      dup2\n        /* \"#utility.yul\":985:989   */\n      dup2\n        /* \"#utility.yul\":981:1001   */\n      sub\n        /* \"#utility.yul\":977:978   */\n      0x00\n        /* \"#utility.yul\":966:975   */\n      dup4\n        /* \"#utility.yul\":962:979   */\n      add\n        /* \"#utility.yul\":955:1002   */\n      mstore\n        /* \"#utility.yul\":1019:1150   */\n      tag_21\n        /* \"#utility.yul\":1145:1149   */\n      dup2\n        /* \"#utility.yul\":1019:1150   */\n      tag_13\n      jump\t// in\n    tag_21:\n        /* \"#utility.yul\":1011:1150   */\n      swap1\n      pop\n        /* \"#utility.yul\":738:1157   */\n      swap2\n      swap1\n      pop\n      jump\t// out\n\n    auxdata: 0xa2646970667358221220cc36ba5fea8b88990952cf7959fe79f772075e83a309ca41a7d0fe08893062c864736f6c63430008100033\n}\n",
						"bytecode": {
							"functionDebugData": {},
							"generatedSources": [],
							"linkReferences": {},
							"object": "6080604052336000806101000a81548173ffffffffffffffffffffffffffffffffffffffff021916908373ffffffffffffffffffffffffffffffffffffffff16021790555034801561005057600080fd5b5061017d806100606000396000f3fe60806040526004361061001e5760003560e01c8063a50ec32614610023575b600080fd5b61002b61002d565b005b60008054906101000a900473ffffffffffffffffffffffffffffffffffffffff1673ffffffffffffffffffffffffffffffffffffffff163373ffffffffffffffffffffffffffffffffffffffff161461008557600080fd5b600034116100c8576040517f08c379a00000000000000000000000000000000000000000000000000000000081526004016100bf90610127565b60405180910390fd5b565b600082825260208201905092915050565b7f796f75206e65656420746f206465706f7369746520736f6d6520616d00000000600082015250565b6000610111601c836100ca565b915061011c826100db565b602082019050919050565b6000602082019050818103600083015261014081610104565b905091905056fea2646970667358221220cc36ba5fea8b88990952cf7959fe79f772075e83a309ca41a7d0fe08893062c864736f6c63430008100033",
							"opcodes": "PUSH1 0x80 PUSH1 0x40 MSTORE CALLER PUSH1 0x0 DUP1 PUSH2 0x100 EXP DUP2 SLOAD DUP2 PUSH20 0xFFFFFFFFFFFFFFFFFFFFFFFFFFFFFFFFFFFFFFFF MUL NOT AND SWAP1 DUP4 PUSH20 0xFFFFFFFFFFFFFFFFFFFFFFFFFFFFFFFFFFFFFFFF AND MUL OR SWAP1 SSTORE POP CALLVALUE DUP1 ISZERO PUSH2 0x50 JUMPI PUSH1 0x0 DUP1 REVERT JUMPDEST POP PUSH2 0x17D DUP1 PUSH2 0x60 PUSH1 0x0 CODECOPY PUSH1 0x0 RETURN INVALID PUSH1 0x80 PUSH1 0x40 MSTORE PUSH1 0x4 CALLDATASIZE LT PUSH2 0x1E JUMPI PUSH1 0x0 CALLDATALOAD PUSH1 0xE0 SHR DUP1 PUSH4 0xA50EC326 EQ PUSH2 0x23 JUMPI JUMPDEST PUSH1 0x0 DUP1 REVERT JUMPDEST PUSH2 0x2B PUSH2 0x2D JUMP JUMPDEST STOP JUMPDEST PUSH1 0x0 DUP1 SLOAD SWAP1 PUSH2 0x100 EXP SWAP1 DIV PUSH20 0xFFFFFFFFFFFFFFFFFFFFFFFFFFFFFFFFFFFFFFFF AND PUSH20 0xFFFFFFFFFFFFFFFFFFFFFFFFFFFFFFFFFFFFFFFF AND CALLER PUSH20 0xFFFFFFFFFFFFFFFFFFFFFFFFFFFFFFFFFFFFFFFF AND EQ PUSH2 0x85 JUMPI PUSH1 0x0 DUP1 REVERT JUMPDEST PUSH1 0x0 CALLVALUE GT PUSH2 0xC8 JUMPI PUSH1 0x40 MLOAD PUSH32 0x8C379A000000000000000000000000000000000000000000000000000000000 DUP2 MSTORE PUSH1 0x4 ADD PUSH2 0xBF SWAP1 PUSH2 0x127 JUMP JUMPDEST PUSH1 0x40 MLOAD DUP1 SWAP2 SUB SWAP1 REVERT JUMPDEST JUMP JUMPDEST PUSH1 0x0 DUP3 DUP3 MSTORE PUSH1 0x20 DUP3 ADD SWAP1 POP SWAP3 SWAP2 POP POP JUMP JUMPDEST PUSH32 0x796F75206E65656420746F206465706F7369746520736F6D6520616D00000000 PUSH1 0x0 DUP3 ADD MSTORE POP JUMP JUMPDEST PUSH1 0x0 PUSH2 0x111 PUSH1 0x1C DUP4 PUSH2 0xCA JUMP JUMPDEST SWAP2 POP PUSH2 0x11C DUP3 PUSH2 0xDB JUMP JUMPDEST PUSH1 0x20 DUP3 ADD SWAP1 POP SWAP2 SWAP1 POP JUMP JUMPDEST PUSH1 0x0 PUSH1 0x20 DUP3 ADD SWAP1 POP DUP2 DUP2 SUB PUSH1 0x0 DUP4 ADD MSTORE PUSH2 0x140 DUP2 PUSH2 0x104 JUMP JUMPDEST SWAP1 POP SWAP2 SWAP1 POP JUMP INVALID LOG2 PUSH5 0x6970667358 0x22 SLT KECCAK256 0xCC CALLDATASIZE 0xBA 0x5F 0xEA DUP12 DUP9 SWAP10 MULMOD MSTORE 0xCF PUSH26 0x59FE79F772075E83A309CA41A7D0FE08893062C864736F6C6343 STOP ADDMOD LT STOP CALLER ",
							"sourceMap": "65:310:0:-:0;;;106:10;89:27;;;;;;;;;;;;;;;;;;;;65:310;;;;;;;;;;;;;;;;"
						},
						"deployedBytecode": {
							"functionDebugData": {
								"@deposite_32": {
									"entryPoint": 45,
									"id": 32,
									"parameterSlots": 0,
									"returnSlots": 0
								},
								"abi_encode_t_stringliteral_24143e2ae731dc406a38177dce941d5b188e6309681eb7638d62d165efbb6772_to_t_string_memory_ptr_fromStack": {
									"entryPoint": 260,
									"id": null,
									"parameterSlots": 1,
									"returnSlots": 1
								},
								"abi_encode_tuple_t_stringliteral_24143e2ae731dc406a38177dce941d5b188e6309681eb7638d62d165efbb6772__to_t_string_memory_ptr__fromStack_reversed": {
									"entryPoint": 295,
									"id": null,
									"parameterSlots": 1,
									"returnSlots": 1
								},
								"array_storeLengthForEncoding_t_string_memory_ptr_fromStack": {
									"entryPoint": 202,
									"id": null,
									"parameterSlots": 2,
									"returnSlots": 1
								},
								"store_literal_in_memory_24143e2ae731dc406a38177dce941d5b188e6309681eb7638d62d165efbb6772": {
									"entryPoint": 219,
									"id": null,
									"parameterSlots": 1,
									"returnSlots": 0
								}
							},
							"generatedSources": [
								{
									"ast": {
										"nodeType": "YulBlock",
										"src": "0:1160:1",
										"statements": [
											{
												"body": {
													"nodeType": "YulBlock",
													"src": "103:73:1",
													"statements": [
														{
															"expression": {
																"arguments": [
																	{
																		"name": "pos",
																		"nodeType": "YulIdentifier",
																		"src": "120:3:1"
																	},
																	{
																		"name": "length",
																		"nodeType": "YulIdentifier",
																		"src": "125:6:1"
																	}
																],
																"functionName": {
																	"name": "mstore",
																	"nodeType": "YulIdentifier",
																	"src": "113:6:1"
																},
																"nodeType": "YulFunctionCall",
																"src": "113:19:1"
															},
															"nodeType": "YulExpressionStatement",
															"src": "113:19:1"
														},
														{
															"nodeType": "YulAssignment",
															"src": "141:29:1",
															"value": {
																"arguments": [
																	{
																		"name": "pos",
																		"nodeType": "YulIdentifier",
																		"src": "160:3:1"
																	},
																	{
																		"kind": "number",
																		"nodeType": "YulLiteral",
																		"src": "165:4:1",
																		"type": "",
																		"value": "0x20"
																	}
																],
																"functionName": {
																	"name": "add",
																	"nodeType": "YulIdentifier",
																	"src": "156:3:1"
																},
																"nodeType": "YulFunctionCall",
																"src": "156:14:1"
															},
															"variableNames": [
																{
																	"name": "updated_pos",
																	"nodeType": "YulIdentifier",
																	"src": "141:11:1"
																}
															]
														}
													]
												},
												"name": "array_storeLengthForEncoding_t_string_memory_ptr_fromStack",
												"nodeType": "YulFunctionDefinition",
												"parameters": [
													{
														"name": "pos",
														"nodeType": "YulTypedName",
														"src": "75:3:1",
														"type": ""
													},
													{
														"name": "length",
														"nodeType": "YulTypedName",
														"src": "80:6:1",
														"type": ""
													}
												],
												"returnVariables": [
													{
														"name": "updated_pos",
														"nodeType": "YulTypedName",
														"src": "91:11:1",
														"type": ""
													}
												],
												"src": "7:169:1"
											},
											{
												"body": {
													"nodeType": "YulBlock",
													"src": "288:72:1",
													"statements": [
														{
															"expression": {
																"arguments": [
																	{
																		"arguments": [
																			{
																				"name": "memPtr",
																				"nodeType": "YulIdentifier",
																				"src": "310:6:1"
																			},
																			{
																				"kind": "number",
																				"nodeType": "YulLiteral",
																				"src": "318:1:1",
																				"type": "",
																				"value": "0"
																			}
																		],
																		"functionName": {
																			"name": "add",
																			"nodeType": "YulIdentifier",
																			"src": "306:3:1"
																		},
																		"nodeType": "YulFunctionCall",
																		"src": "306:14:1"
																	},
																	{
																		"hexValue": "796f75206e65656420746f206465706f7369746520736f6d6520616d",
																		"kind": "string",
																		"nodeType": "YulLiteral",
																		"src": "322:30:1",
																		"type": "",
																		"value": "you need to deposite some am"
																	}
																],
																"functionName": {
																	"name": "mstore",
																	"nodeType": "YulIdentifier",
																	"src": "299:6:1"
																},
																"nodeType": "YulFunctionCall",
																"src": "299:54:1"
															},
															"nodeType": "YulExpressionStatement",
															"src": "299:54:1"
														}
													]
												},
												"name": "store_literal_in_memory_24143e2ae731dc406a38177dce941d5b188e6309681eb7638d62d165efbb6772",
												"nodeType": "YulFunctionDefinition",
												"parameters": [
													{
														"name": "memPtr",
														"nodeType": "YulTypedName",
														"src": "280:6:1",
														"type": ""
													}
												],
												"src": "182:178:1"
											},
											{
												"body": {
													"nodeType": "YulBlock",
													"src": "512:220:1",
													"statements": [
														{
															"nodeType": "YulAssignment",
															"src": "522:74:1",
															"value": {
																"arguments": [
																	{
																		"name": "pos",
																		"nodeType": "YulIdentifier",
																		"src": "588:3:1"
																	},
																	{
																		"kind": "number",
																		"nodeType": "YulLiteral",
																		"src": "593:2:1",
																		"type": "",
																		"value": "28"
																	}
																],
																"functionName": {
																	"name": "array_storeLengthForEncoding_t_string_memory_ptr_fromStack",
																	"nodeType": "YulIdentifier",
																	"src": "529:58:1"
																},
																"nodeType": "YulFunctionCall",
																"src": "529:67:1"
															},
															"variableNames": [
																{
																	"name": "pos",
																	"nodeType": "YulIdentifier",
																	"src": "522:3:1"
																}
															]
														},
														{
															"expression": {
																"arguments": [
																	{
																		"name": "pos",
																		"nodeType": "YulIdentifier",
																		"src": "694:3:1"
																	}
																],
																"functionName": {
																	"name": "store_literal_in_memory_24143e2ae731dc406a38177dce941d5b188e6309681eb7638d62d165efbb6772",
																	"nodeType": "YulIdentifier",
																	"src": "605:88:1"
																},
																"nodeType": "YulFunctionCall",
																"src": "605:93:1"
															},
															"nodeType": "YulExpressionStatement",
															"src": "605:93:1"
														},
														{
															"nodeType": "YulAssignment",
															"src": "707:19:1",
															"value": {
																"arguments": [
																	{
																		"name": "pos",
																		"nodeType": "YulIdentifier",
																		"src": "718:3:1"
																	},
																	{
																		"kind": "number",
																		"nodeType": "YulLiteral",
																		"src": "723:2:1",
																		"type": "",
																		"value": "32"
																	}
																],
																"functionName": {
																	"name": "add",
																	"nodeType": "YulIdentifier",
																	"src": "714:3:1"
																},
																"nodeType": "YulFunctionCall",
																"src": "714:12:1"
															},
															"variableNames": [
																{
																	"name": "end",
																	"nodeType": "YulIdentifier",
																	"src": "707:3:1"
																}
															]
														}
													]
												},
												"name": "abi_encode_t_stringliteral_24143e2ae731dc406a38177dce941d5b188e6309681eb7638d62d165efbb6772_to_t_string_memory_ptr_fromStack",
												"nodeType": "YulFunctionDefinition",
												"parameters": [
													{
														"name": "pos",
														"nodeType": "YulTypedName",
														"src": "500:3:1",
														"type": ""
													}
												],
												"returnVariables": [
													{
														"name": "end",
														"nodeType": "YulTypedName",
														"src": "508:3:1",
														"type": ""
													}
												],
												"src": "366:366:1"
											},
											{
												"body": {
													"nodeType": "YulBlock",
													"src": "909:248:1",
													"statements": [
														{
															"nodeType": "YulAssignment",
															"src": "919:26:1",
															"value": {
																"arguments": [
																	{
																		"name": "headStart",
																		"nodeType": "YulIdentifier",
																		"src": "931:9:1"
																	},
																	{
																		"kind": "number",
																		"nodeType": "YulLiteral",
																		"src": "942:2:1",
																		"type": "",
																		"value": "32"
																	}
																],
																"functionName": {
																	"name": "add",
																	"nodeType": "YulIdentifier",
																	"src": "927:3:1"
																},
																"nodeType": "YulFunctionCall",
																"src": "927:18:1"
															},
															"variableNames": [
																{
																	"name": "tail",
																	"nodeType": "YulIdentifier",
																	"src": "919:4:1"
																}
															]
														},
														{
															"expression": {
																"arguments": [
																	{
																		"arguments": [
																			{
																				"name": "headStart",
																				"nodeType": "YulIdentifier",
																				"src": "966:9:1"
																			},
																			{
																				"kind": "number",
																				"nodeType": "YulLiteral",
																				"src": "977:1:1",
																				"type": "",
																				"value": "0"
																			}
																		],
																		"functionName": {
																			"name": "add",
																			"nodeType": "YulIdentifier",
																			"src": "962:3:1"
																		},
																		"nodeType": "YulFunctionCall",
																		"src": "962:17:1"
																	},
																	{
																		"arguments": [
																			{
																				"name": "tail",
																				"nodeType": "YulIdentifier",
																				"src": "985:4:1"
																			},
																			{
																				"name": "headStart",
																				"nodeType": "YulIdentifier",
																				"src": "991:9:1"
																			}
																		],
																		"functionName": {
																			"name": "sub",
																			"nodeType": "YulIdentifier",
																			"src": "981:3:1"
																		},
																		"nodeType": "YulFunctionCall",
																		"src": "981:20:1"
																	}
																],
																"functionName": {
																	"name": "mstore",
																	"nodeType": "YulIdentifier",
																	"src": "955:6:1"
																},
																"nodeType": "YulFunctionCall",
																"src": "955:47:1"
															},
															"nodeType": "YulExpressionStatement",
															"src": "955:47:1"
														},
														{
															"nodeType": "YulAssignment",
															"src": "1011:139:1",
															"value": {
																"arguments": [
																	{
																		"name": "tail",
																		"nodeType": "YulIdentifier",
																		"src": "1145:4:1"
																	}
																],
																"functionName": {
																	"name": "abi_encode_t_stringliteral_24143e2ae731dc406a38177dce941d5b188e6309681eb7638d62d165efbb6772_to_t_string_memory_ptr_fromStack",
																	"nodeType": "YulIdentifier",
																	"src": "1019:124:1"
																},
																"nodeType": "YulFunctionCall",
																"src": "1019:131:1"
															},
															"variableNames": [
																{
																	"name": "tail",
																	"nodeType": "YulIdentifier",
																	"src": "1011:4:1"
																}
															]
														}
													]
												},
												"name": "abi_encode_tuple_t_stringliteral_24143e2ae731dc406a38177dce941d5b188e6309681eb7638d62d165efbb6772__to_t_string_memory_ptr__fromStack_reversed",
												"nodeType": "YulFunctionDefinition",
												"parameters": [
													{
														"name": "headStart",
														"nodeType": "YulTypedName",
														"src": "889:9:1",
														"type": ""
													}
												],
												"returnVariables": [
													{
														"name": "tail",
														"nodeType": "YulTypedName",
														"src": "904:4:1",
														"type": ""
													}
												],
												"src": "738:419:1"
											}
										]
									},
									"contents": "{\n\n    function array_storeLengthForEncoding_t_string_memory_ptr_fromStack(pos, length) -> updated_pos {\n        mstore(pos, length)\n        updated_pos := add(pos, 0x20)\n    }\n\n    function store_literal_in_memory_24143e2ae731dc406a38177dce941d5b188e6309681eb7638d62d165efbb6772(memPtr) {\n\n        mstore(add(memPtr, 0), \"you need to deposite some am\")\n\n    }\n\n    function abi_encode_t_stringliteral_24143e2ae731dc406a38177dce941d5b188e6309681eb7638d62d165efbb6772_to_t_string_memory_ptr_fromStack(pos) -> end {\n        pos := array_storeLengthForEncoding_t_string_memory_ptr_fromStack(pos, 28)\n        store_literal_in_memory_24143e2ae731dc406a38177dce941d5b188e6309681eb7638d62d165efbb6772(pos)\n        end := add(pos, 32)\n    }\n\n    function abi_encode_tuple_t_stringliteral_24143e2ae731dc406a38177dce941d5b188e6309681eb7638d62d165efbb6772__to_t_string_memory_ptr__fromStack_reversed(headStart ) -> tail {\n        tail := add(headStart, 32)\n\n        mstore(add(headStart, 0), sub(tail, headStart))\n        tail := abi_encode_t_stringliteral_24143e2ae731dc406a38177dce941d5b188e6309681eb7638d62d165efbb6772_to_t_string_memory_ptr_fromStack( tail)\n\n    }\n\n}\n",
									"id": 1,
									"language": "Yul",
									"name": "#utility.yul"
								}
							],
							"immutableReferences": {},
							"linkReferences": {},
							"object": "60806040526004361061001e5760003560e01c8063a50ec32614610023575b600080fd5b61002b61002d565b005b60008054906101000a900473ffffffffffffffffffffffffffffffffffffffff1673ffffffffffffffffffffffffffffffffffffffff163373ffffffffffffffffffffffffffffffffffffffff161461008557600080fd5b600034116100c8576040517f08c379a00000000000000000000000000000000000000000000000000000000081526004016100bf90610127565b60405180910390fd5b565b600082825260208201905092915050565b7f796f75206e65656420746f206465706f7369746520736f6d6520616d00000000600082015250565b6000610111601c836100ca565b915061011c826100db565b602082019050919050565b6000602082019050818103600083015261014081610104565b905091905056fea2646970667358221220cc36ba5fea8b88990952cf7959fe79f772075e83a309ca41a7d0fe08893062c864736f6c63430008100033",
							"opcodes": "PUSH1 0x80 PUSH1 0x40 MSTORE PUSH1 0x4 CALLDATASIZE LT PUSH2 0x1E JUMPI PUSH1 0x0 CALLDATALOAD PUSH1 0xE0 SHR DUP1 PUSH4 0xA50EC326 EQ PUSH2 0x23 JUMPI JUMPDEST PUSH1 0x0 DUP1 REVERT JUMPDEST PUSH2 0x2B PUSH2 0x2D JUMP JUMPDEST STOP JUMPDEST PUSH1 0x0 DUP1 SLOAD SWAP1 PUSH2 0x100 EXP SWAP1 DIV PUSH20 0xFFFFFFFFFFFFFFFFFFFFFFFFFFFFFFFFFFFFFFFF AND PUSH20 0xFFFFFFFFFFFFFFFFFFFFFFFFFFFFFFFFFFFFFFFF AND CALLER PUSH20 0xFFFFFFFFFFFFFFFFFFFFFFFFFFFFFFFFFFFFFFFF AND EQ PUSH2 0x85 JUMPI PUSH1 0x0 DUP1 REVERT JUMPDEST PUSH1 0x0 CALLVALUE GT PUSH2 0xC8 JUMPI PUSH1 0x40 MLOAD PUSH32 0x8C379A000000000000000000000000000000000000000000000000000000000 DUP2 MSTORE PUSH1 0x4 ADD PUSH2 0xBF SWAP1 PUSH2 0x127 JUMP JUMPDEST PUSH1 0x40 MLOAD DUP1 SWAP2 SUB SWAP1 REVERT JUMPDEST JUMP JUMPDEST PUSH1 0x0 DUP3 DUP3 MSTORE PUSH1 0x20 DUP3 ADD SWAP1 POP SWAP3 SWAP2 POP POP JUMP JUMPDEST PUSH32 0x796F75206E65656420746F206465706F7369746520736F6D6520616D00000000 PUSH1 0x0 DUP3 ADD MSTORE POP JUMP JUMPDEST PUSH1 0x0 PUSH2 0x111 PUSH1 0x1C DUP4 PUSH2 0xCA JUMP JUMPDEST SWAP2 POP PUSH2 0x11C DUP3 PUSH2 0xDB JUMP JUMPDEST PUSH1 0x20 DUP3 ADD SWAP1 POP SWAP2 SWAP1 POP JUMP JUMPDEST PUSH1 0x0 PUSH1 0x20 DUP3 ADD SWAP1 POP DUP2 DUP2 SUB PUSH1 0x0 DUP4 ADD MSTORE PUSH2 0x140 DUP2 PUSH2 0x104 JUMP JUMPDEST SWAP1 POP SWAP2 SWAP1 POP JUMP INVALID LOG2 PUSH5 0x6970667358 0x22 SLT KECCAK256 0xCC CALLDATASIZE 0xBA 0x5F 0xEA DUP12 DUP9 SWAP10 MULMOD MSTORE 0xCF PUSH26 0x59FE79F772075E83A309CA41A7D0FE08893062C864736F6C6343 STOP ADDMOD LT STOP CALLER ",
							"sourceMap": "65:310:0:-:0;;;;;;;;;;;;;;;;;;;;;262:111;;;:::i;:::-;;;190:6;;;;;;;;;;176:20;;:10;:20;;;168:29;;;;;;332:1:::1;320:9;:13;312:54;;;;;;;;;;;;:::i;:::-;;;;;;;;;262:111::o:0;7:169:1:-;91:11;125:6;120:3;113:19;165:4;160:3;156:14;141:29;;7:169;;;;:::o;182:178::-;322:30;318:1;310:6;306:14;299:54;182:178;:::o;366:366::-;508:3;529:67;593:2;588:3;529:67;:::i;:::-;522:74;;605:93;694:3;605:93;:::i;:::-;723:2;718:3;714:12;707:19;;366:366;;;:::o;738:419::-;904:4;942:2;931:9;927:18;919:26;;991:9;985:4;981:20;977:1;966:9;962:17;955:47;1019:131;1145:4;1019:131;:::i;:::-;1011:139;;738:419;;;:::o"
						},
						"gasEstimates": {
							"creation": {
								"codeDepositCost": "76200",
								"executionCost": "24389",
								"totalCost": "100589"
							},
							"external": {
								"deposite()": "2576"
							}
						},
						"legacyAssembly": {
							".code": [
								{
									"begin": 65,
									"end": 375,
									"name": "PUSH",
									"source": 0,
									"value": "80"
								},
								{
									"begin": 65,
									"end": 375,
									"name": "PUSH",
									"source": 0,
									"value": "40"
								},
								{
									"begin": 65,
									"end": 375,
									"name": "MSTORE",
									"source": 0
								},
								{
									"begin": 106,
									"end": 116,
									"name": "CALLER",
									"source": 0
								},
								{
									"begin": 89,
									"end": 116,
									"name": "PUSH",
									"source": 0,
									"value": "0"
								},
								{
									"begin": 89,
									"end": 116,
									"name": "DUP1",
									"source": 0
								},
								{
									"begin": 89,
									"end": 116,
									"name": "PUSH",
									"source": 0,
									"value": "100"
								},
								{
									"begin": 89,
									"end": 116,
									"name": "EXP",
									"source": 0
								},
								{
									"begin": 89,
									"end": 116,
									"name": "DUP2",
									"source": 0
								},
								{
									"begin": 89,
									"end": 116,
									"name": "SLOAD",
									"source": 0
								},
								{
									"begin": 89,
									"end": 116,
									"name": "DUP2",
									"source": 0
								},
								{
									"begin": 89,
									"end": 116,
									"name": "PUSH",
									"source": 0,
									"value": "FFFFFFFFFFFFFFFFFFFFFFFFFFFFFFFFFFFFFFFF"
								},
								{
									"begin": 89,
									"end": 116,
									"name": "MUL",
									"source": 0
								},
								{
									"begin": 89,
									"end": 116,
									"name": "NOT",
									"source": 0
								},
								{
									"begin": 89,
									"end": 116,
									"name": "AND",
									"source": 0
								},
								{
									"begin": 89,
									"end": 116,
									"name": "SWAP1",
									"source": 0
								},
								{
									"begin": 89,
									"end": 116,
									"name": "DUP4",
									"source": 0
								},
								{
									"begin": 89,
									"end": 116,
									"name": "PUSH",
									"source": 0,
									"value": "FFFFFFFFFFFFFFFFFFFFFFFFFFFFFFFFFFFFFFFF"
								},
								{
									"begin": 89,
									"end": 116,
									"name": "AND",
									"source": 0
								},
								{
									"begin": 89,
									"end": 116,
									"name": "MUL",
									"source": 0
								},
								{
									"begin": 89,
									"end": 116,
									"name": "OR",
									"source": 0
								},
								{
									"begin": 89,
									"end": 116,
									"name": "SWAP1",
									"source": 0
								},
								{
									"begin": 89,
									"end": 116,
									"name": "SSTORE",
									"source": 0
								},
								{
									"begin": 89,
									"end": 116,
									"name": "POP",
									"source": 0
								},
								{
									"begin": 65,
									"end": 375,
									"name": "CALLVALUE",
									"source": 0
								},
								{
									"begin": 65,
									"end": 375,
									"name": "DUP1",
									"source": 0
								},
								{
									"begin": 65,
									"end": 375,
									"name": "ISZERO",
									"source": 0
								},
								{
									"begin": 65,
									"end": 375,
									"name": "PUSH [tag]",
									"source": 0,
									"value": "1"
								},
								{
									"begin": 65,
									"end": 375,
									"name": "JUMPI",
									"source": 0
								},
								{
									"begin": 65,
									"end": 375,
									"name": "PUSH",
									"source": 0,
									"value": "0"
								},
								{
									"begin": 65,
									"end": 375,
									"name": "DUP1",
									"source": 0
								},
								{
									"begin": 65,
									"end": 375,
									"name": "REVERT",
									"source": 0
								},
								{
									"begin": 65,
									"end": 375,
									"name": "tag",
									"source": 0,
									"value": "1"
								},
								{
									"begin": 65,
									"end": 375,
									"name": "JUMPDEST",
									"source": 0
								},
								{
									"begin": 65,
									"end": 375,
									"name": "POP",
									"source": 0
								},
								{
									"begin": 65,
									"end": 375,
									"name": "PUSH #[$]",
									"source": 0,
									"value": "0000000000000000000000000000000000000000000000000000000000000000"
								},
								{
									"begin": 65,
									"end": 375,
									"name": "DUP1",
									"source": 0
								},
								{
									"begin": 65,
									"end": 375,
									"name": "PUSH [$]",
									"source": 0,
									"value": "0000000000000000000000000000000000000000000000000000000000000000"
								},
								{
									"begin": 65,
									"end": 375,
									"name": "PUSH",
									"source": 0,
									"value": "0"
								},
								{
									"begin": 65,
									"end": 375,
									"name": "CODECOPY",
									"source": 0
								},
								{
									"begin": 65,
									"end": 375,
									"name": "PUSH",
									"source": 0,
									"value": "0"
								},
								{
									"begin": 65,
									"end": 375,
									"name": "RETURN",
									"source": 0
								}
							],
							".data": {
								"0": {
									".auxdata": "a2646970667358221220cc36ba5fea8b88990952cf7959fe79f772075e83a309ca41a7d0fe08893062c864736f6c63430008100033",
									".code": [
										{
											"begin": 65,
											"end": 375,
											"name": "PUSH",
											"source": 0,
											"value": "80"
										},
										{
											"begin": 65,
											"end": 375,
											"name": "PUSH",
											"source": 0,
											"value": "40"
										},
										{
											"begin": 65,
											"end": 375,
											"name": "MSTORE",
											"source": 0
										},
										{
											"begin": 65,
											"end": 375,
											"name": "PUSH",
											"source": 0,
											"value": "4"
										},
										{
											"begin": 65,
											"end": 375,
											"name": "CALLDATASIZE",
											"source": 0
										},
										{
											"begin": 65,
											"end": 375,
											"name": "LT",
											"source": 0
										},
										{
											"begin": 65,
											"end": 375,
											"name": "PUSH [tag]",
											"source": 0,
											"value": "1"
										},
										{
											"begin": 65,
											"end": 375,
											"name": "JUMPI",
											"source": 0
										},
										{
											"begin": 65,
											"end": 375,
											"name": "PUSH",
											"source": 0,
											"value": "0"
										},
										{
											"begin": 65,
											"end": 375,
											"name": "CALLDATALOAD",
											"source": 0
										},
										{
											"begin": 65,
											"end": 375,
											"name": "PUSH",
											"source": 0,
											"value": "E0"
										},
										{
											"begin": 65,
											"end": 375,
											"name": "SHR",
											"source": 0
										},
										{
											"begin": 65,
											"end": 375,
											"name": "DUP1",
											"source": 0
										},
										{
											"begin": 65,
											"end": 375,
											"name": "PUSH",
											"source": 0,
											"value": "A50EC326"
										},
										{
											"begin": 65,
											"end": 375,
											"name": "EQ",
											"source": 0
										},
										{
											"begin": 65,
											"end": 375,
											"name": "PUSH [tag]",
											"source": 0,
											"value": "2"
										},
										{
											"begin": 65,
											"end": 375,
											"name": "JUMPI",
											"source": 0
										},
										{
											"begin": 65,
											"end": 375,
											"name": "tag",
											"source": 0,
											"value": "1"
										},
										{
											"begin": 65,
											"end": 375,
											"name": "JUMPDEST",
											"source": 0
										},
										{
											"begin": 65,
											"end": 375,
											"name": "PUSH",
											"source": 0,
											"value": "0"
										},
										{
											"begin": 65,
											"end": 375,
											"name": "DUP1",
											"source": 0
										},
										{
											"begin": 65,
											"end": 375,
											"name": "REVERT",
											"source": 0
										},
										{
											"begin": 262,
											"end": 373,
											"name": "tag",
											"source": 0,
											"value": "2"
										},
										{
											"begin": 262,
											"end": 373,
											"name": "JUMPDEST",
											"source": 0
										},
										{
											"begin": 262,
											"end": 373,
											"name": "PUSH [tag]",
											"source": 0,
											"value": "3"
										},
										{
											"begin": 262,
											"end": 373,
											"name": "PUSH [tag]",
											"source": 0,
											"value": "4"
										},
										{
											"begin": 262,
											"end": 373,
											"jumpType": "[in]",
											"name": "JUMP",
											"source": 0
										},
										{
											"begin": 262,
											"end": 373,
											"name": "tag",
											"source": 0,
											"value": "3"
										},
										{
											"begin": 262,
											"end": 373,
											"name": "JUMPDEST",
											"source": 0
										},
										{
											"begin": 262,
											"end": 373,
											"name": "STOP",
											"source": 0
										},
										{
											"begin": 262,
											"end": 373,
											"name": "tag",
											"source": 0,
											"value": "4"
										},
										{
											"begin": 262,
											"end": 373,
											"name": "JUMPDEST",
											"source": 0
										},
										{
											"begin": 190,
											"end": 196,
											"name": "PUSH",
											"source": 0,
											"value": "0"
										},
										{
											"begin": 190,
											"end": 196,
											"name": "DUP1",
											"source": 0
										},
										{
											"begin": 190,
											"end": 196,
											"name": "SLOAD",
											"source": 0
										},
										{
											"begin": 190,
											"end": 196,
											"name": "SWAP1",
											"source": 0
										},
										{
											"begin": 190,
											"end": 196,
											"name": "PUSH",
											"source": 0,
											"value": "100"
										},
										{
											"begin": 190,
											"end": 196,
											"name": "EXP",
											"source": 0
										},
										{
											"begin": 190,
											"end": 196,
											"name": "SWAP1",
											"source": 0
										},
										{
											"begin": 190,
											"end": 196,
											"name": "DIV",
											"source": 0
										},
										{
											"begin": 190,
											"end": 196,
											"name": "PUSH",
											"source": 0,
											"value": "FFFFFFFFFFFFFFFFFFFFFFFFFFFFFFFFFFFFFFFF"
										},
										{
											"begin": 190,
											"end": 196,
											"name": "AND",
											"source": 0
										},
										{
											"begin": 176,
											"end": 196,
											"name": "PUSH",
											"source": 0,
											"value": "FFFFFFFFFFFFFFFFFFFFFFFFFFFFFFFFFFFFFFFF"
										},
										{
											"begin": 176,
											"end": 196,
											"name": "AND",
											"source": 0
										},
										{
											"begin": 176,
											"end": 186,
											"name": "CALLER",
											"source": 0
										},
										{
											"begin": 176,
											"end": 196,
											"name": "PUSH",
											"source": 0,
											"value": "FFFFFFFFFFFFFFFFFFFFFFFFFFFFFFFFFFFFFFFF"
										},
										{
											"begin": 176,
											"end": 196,
											"name": "AND",
											"source": 0
										},
										{
											"begin": 176,
											"end": 196,
											"name": "EQ",
											"source": 0
										},
										{
											"begin": 168,
											"end": 197,
											"name": "PUSH [tag]",
											"source": 0,
											"value": "6"
										},
										{
											"begin": 168,
											"end": 197,
											"name": "JUMPI",
											"source": 0
										},
										{
											"begin": 168,
											"end": 197,
											"name": "PUSH",
											"source": 0,
											"value": "0"
										},
										{
											"begin": 168,
											"end": 197,
											"name": "DUP1",
											"source": 0
										},
										{
											"begin": 168,
											"end": 197,
											"name": "REVERT",
											"source": 0
										},
										{
											"begin": 168,
											"end": 197,
											"name": "tag",
											"source": 0,
											"value": "6"
										},
										{
											"begin": 168,
											"end": 197,
											"name": "JUMPDEST",
											"source": 0
										},
										{
											"begin": 332,
											"end": 333,
											"modifierDepth": 1,
											"name": "PUSH",
											"source": 0,
											"value": "0"
										},
										{
											"begin": 320,
											"end": 329,
											"modifierDepth": 1,
											"name": "CALLVALUE",
											"source": 0
										},
										{
											"begin": 320,
											"end": 333,
											"modifierDepth": 1,
											"name": "GT",
											"source": 0
										},
										{
											"begin": 312,
											"end": 366,
											"modifierDepth": 1,
											"name": "PUSH [tag]",
											"source": 0,
											"value": "8"
										},
										{
											"begin": 312,
											"end": 366,
											"modifierDepth": 1,
											"name": "JUMPI",
											"source": 0
										},
										{
											"begin": 312,
											"end": 366,
											"modifierDepth": 1,
											"name": "PUSH",
											"source": 0,
											"value": "40"
										},
										{
											"begin": 312,
											"end": 366,
											"modifierDepth": 1,
											"name": "MLOAD",
											"source": 0
										},
										{
											"begin": 312,
											"end": 366,
											"modifierDepth": 1,
											"name": "PUSH",
											"source": 0,
											"value": "8C379A000000000000000000000000000000000000000000000000000000000"
										},
										{
											"begin": 312,
											"end": 366,
											"modifierDepth": 1,
											"name": "DUP2",
											"source": 0
										},
										{
											"begin": 312,
											"end": 366,
											"modifierDepth": 1,
											"name": "MSTORE",
											"source": 0
										},
										{
											"begin": 312,
											"end": 366,
											"modifierDepth": 1,
											"name": "PUSH",
											"source": 0,
											"value": "4"
										},
										{
											"begin": 312,
											"end": 366,
											"modifierDepth": 1,
											"name": "ADD",
											"source": 0
										},
										{
											"begin": 312,
											"end": 366,
											"modifierDepth": 1,
											"name": "PUSH [tag]",
											"source": 0,
											"value": "9"
										},
										{
											"begin": 312,
											"end": 366,
											"modifierDepth": 1,
											"name": "SWAP1",
											"source": 0
										},
										{
											"begin": 312,
											"end": 366,
											"modifierDepth": 1,
											"name": "PUSH [tag]",
											"source": 0,
											"value": "10"
										},
										{
											"begin": 312,
											"end": 366,
											"jumpType": "[in]",
											"modifierDepth": 1,
											"name": "JUMP",
											"source": 0
										},
										{
											"begin": 312,
											"end": 366,
											"modifierDepth": 1,
											"name": "tag",
											"source": 0,
											"value": "9"
										},
										{
											"begin": 312,
											"end": 366,
											"modifierDepth": 1,
											"name": "JUMPDEST",
											"source": 0
										},
										{
											"begin": 312,
											"end": 366,
											"modifierDepth": 1,
											"name": "PUSH",
											"source": 0,
											"value": "40"
										},
										{
											"begin": 312,
											"end": 366,
											"modifierDepth": 1,
											"name": "MLOAD",
											"source": 0
										},
										{
											"begin": 312,
											"end": 366,
											"modifierDepth": 1,
											"name": "DUP1",
											"source": 0
										},
										{
											"begin": 312,
											"end": 366,
											"modifierDepth": 1,
											"name": "SWAP2",
											"source": 0
										},
										{
											"begin": 312,
											"end": 366,
											"modifierDepth": 1,
											"name": "SUB",
											"source": 0
										},
										{
											"begin": 312,
											"end": 366,
											"modifierDepth": 1,
											"name": "SWAP1",
											"source": 0
										},
										{
											"begin": 312,
											"end": 366,
											"modifierDepth": 1,
											"name": "REVERT",
											"source": 0
										},
										{
											"begin": 312,
											"end": 366,
											"modifierDepth": 1,
											"name": "tag",
											"source": 0,
											"value": "8"
										},
										{
											"begin": 312,
											"end": 366,
											"modifierDepth": 1,
											"name": "JUMPDEST",
											"source": 0
										},
										{
											"begin": 262,
											"end": 373,
											"jumpType": "[out]",
											"name": "JUMP",
											"source": 0
										},
										{
											"begin": 7,
											"end": 176,
											"name": "tag",
											"source": 1,
											"value": "11"
										},
										{
											"begin": 7,
											"end": 176,
											"name": "JUMPDEST",
											"source": 1
										},
										{
											"begin": 91,
											"end": 102,
											"name": "PUSH",
											"source": 1,
											"value": "0"
										},
										{
											"begin": 125,
											"end": 131,
											"name": "DUP3",
											"source": 1
										},
										{
											"begin": 120,
											"end": 123,
											"name": "DUP3",
											"source": 1
										},
										{
											"begin": 113,
											"end": 132,
											"name": "MSTORE",
											"source": 1
										},
										{
											"begin": 165,
											"end": 169,
											"name": "PUSH",
											"source": 1,
											"value": "20"
										},
										{
											"begin": 160,
											"end": 163,
											"name": "DUP3",
											"source": 1
										},
										{
											"begin": 156,
											"end": 170,
											"name": "ADD",
											"source": 1
										},
										{
											"begin": 141,
											"end": 170,
											"name": "SWAP1",
											"source": 1
										},
										{
											"begin": 141,
											"end": 170,
											"name": "POP",
											"source": 1
										},
										{
											"begin": 7,
											"end": 176,
											"name": "SWAP3",
											"source": 1
										},
										{
											"begin": 7,
											"end": 176,
											"name": "SWAP2",
											"source": 1
										},
										{
											"begin": 7,
											"end": 176,
											"name": "POP",
											"source": 1
										},
										{
											"begin": 7,
											"end": 176,
											"name": "POP",
											"source": 1
										},
										{
											"begin": 7,
											"end": 176,
											"jumpType": "[out]",
											"name": "JUMP",
											"source": 1
										},
										{
											"begin": 182,
											"end": 360,
											"name": "tag",
											"source": 1,
											"value": "12"
										},
										{
											"begin": 182,
											"end": 360,
											"name": "JUMPDEST",
											"source": 1
										},
										{
											"begin": 322,
											"end": 352,
											"name": "PUSH",
											"source": 1,
											"value": "796F75206E65656420746F206465706F7369746520736F6D6520616D00000000"
										},
										{
											"begin": 318,
											"end": 319,
											"name": "PUSH",
											"source": 1,
											"value": "0"
										},
										{
											"begin": 310,
											"end": 316,
											"name": "DUP3",
											"source": 1
										},
										{
											"begin": 306,
											"end": 320,
											"name": "ADD",
											"source": 1
										},
										{
											"begin": 299,
											"end": 353,
											"name": "MSTORE",
											"source": 1
										},
										{
											"begin": 182,
											"end": 360,
											"name": "POP",
											"source": 1
										},
										{
											"begin": 182,
											"end": 360,
											"jumpType": "[out]",
											"name": "JUMP",
											"source": 1
										},
										{
											"begin": 366,
											"end": 732,
											"name": "tag",
											"source": 1,
											"value": "13"
										},
										{
											"begin": 366,
											"end": 732,
											"name": "JUMPDEST",
											"source": 1
										},
										{
											"begin": 508,
											"end": 511,
											"name": "PUSH",
											"source": 1,
											"value": "0"
										},
										{
											"begin": 529,
											"end": 596,
											"name": "PUSH [tag]",
											"source": 1,
											"value": "18"
										},
										{
											"begin": 593,
											"end": 595,
											"name": "PUSH",
											"source": 1,
											"value": "1C"
										},
										{
											"begin": 588,
											"end": 591,
											"name": "DUP4",
											"source": 1
										},
										{
											"begin": 529,
											"end": 596,
											"name": "PUSH [tag]",
											"source": 1,
											"value": "11"
										},
										{
											"begin": 529,
											"end": 596,
											"jumpType": "[in]",
											"name": "JUMP",
											"source": 1
										},
										{
											"begin": 529,
											"end": 596,
											"name": "tag",
											"source": 1,
											"value": "18"
										},
										{
											"begin": 529,
											"end": 596,
											"name": "JUMPDEST",
											"source": 1
										},
										{
											"begin": 522,
											"end": 596,
											"name": "SWAP2",
											"source": 1
										},
										{
											"begin": 522,
											"end": 596,
											"name": "POP",
											"source": 1
										},
										{
											"begin": 605,
											"end": 698,
											"name": "PUSH [tag]",
											"source": 1,
											"value": "19"
										},
										{
											"begin": 694,
											"end": 697,
											"name": "DUP3",
											"source": 1
										},
										{
											"begin": 605,
											"end": 698,
											"name": "PUSH [tag]",
											"source": 1,
											"value": "12"
										},
										{
											"begin": 605,
											"end": 698,
											"jumpType": "[in]",
											"name": "JUMP",
											"source": 1
										},
										{
											"begin": 605,
											"end": 698,
											"name": "tag",
											"source": 1,
											"value": "19"
										},
										{
											"begin": 605,
											"end": 698,
											"name": "JUMPDEST",
											"source": 1
										},
										{
											"begin": 723,
											"end": 725,
											"name": "PUSH",
											"source": 1,
											"value": "20"
										},
										{
											"begin": 718,
											"end": 721,
											"name": "DUP3",
											"source": 1
										},
										{
											"begin": 714,
											"end": 726,
											"name": "ADD",
											"source": 1
										},
										{
											"begin": 707,
											"end": 726,
											"name": "SWAP1",
											"source": 1
										},
										{
											"begin": 707,
											"end": 726,
											"name": "POP",
											"source": 1
										},
										{
											"begin": 366,
											"end": 732,
											"name": "SWAP2",
											"source": 1
										},
										{
											"begin": 366,
											"end": 732,
											"name": "SWAP1",
											"source": 1
										},
										{
											"begin": 366,
											"end": 732,
											"name": "POP",
											"source": 1
										},
										{
											"begin": 366,
											"end": 732,
											"jumpType": "[out]",
											"name": "JUMP",
											"source": 1
										},
										{
											"begin": 738,
											"end": 1157,
											"name": "tag",
											"source": 1,
											"value": "10"
										},
										{
											"begin": 738,
											"end": 1157,
											"name": "JUMPDEST",
											"source": 1
										},
										{
											"begin": 904,
											"end": 908,
											"name": "PUSH",
											"source": 1,
											"value": "0"
										},
										{
											"begin": 942,
											"end": 944,
											"name": "PUSH",
											"source": 1,
											"value": "20"
										},
										{
											"begin": 931,
											"end": 940,
											"name": "DUP3",
											"source": 1
										},
										{
											"begin": 927,
											"end": 945,
											"name": "ADD",
											"source": 1
										},
										{
											"begin": 919,
											"end": 945,
											"name": "SWAP1",
											"source": 1
										},
										{
											"begin": 919,
											"end": 945,
											"name": "POP",
											"source": 1
										},
										{
											"begin": 991,
											"end": 1000,
											"name": "DUP2",
											"source": 1
										},
										{
											"begin": 985,
											"end": 989,
											"name": "DUP2",
											"source": 1
										},
										{
											"begin": 981,
											"end": 1001,
											"name": "SUB",
											"source": 1
										},
										{
											"begin": 977,
											"end": 978,
											"name": "PUSH",
											"source": 1,
											"value": "0"
										},
										{
											"begin": 966,
											"end": 975,
											"name": "DUP4",
											"source": 1
										},
										{
											"begin": 962,
											"end": 979,
											"name": "ADD",
											"source": 1
										},
										{
											"begin": 955,
											"end": 1002,
											"name": "MSTORE",
											"source": 1
										},
										{
											"begin": 1019,
											"end": 1150,
											"name": "PUSH [tag]",
											"source": 1,
											"value": "21"
										},
										{
											"begin": 1145,
											"end": 1149,
											"name": "DUP2",
											"source": 1
										},
										{
											"begin": 1019,
											"end": 1150,
											"name": "PUSH [tag]",
											"source": 1,
											"value": "13"
										},
										{
											"begin": 1019,
											"end": 1150,
											"jumpType": "[in]",
											"name": "JUMP",
											"source": 1
										},
										{
											"begin": 1019,
											"end": 1150,
											"name": "tag",
											"source": 1,
											"value": "21"
										},
										{
											"begin": 1019,
											"end": 1150,
											"name": "JUMPDEST",
											"source": 1
										},
										{
											"begin": 1011,
											"end": 1150,
											"name": "SWAP1",
											"source": 1
										},
										{
											"begin": 1011,
											"end": 1150,
											"name": "POP",
											"source": 1
										},
										{
											"begin": 738,
											"end": 1157,
											"name": "SWAP2",
											"source": 1
										},
										{
											"begin": 738,
											"end": 1157,
											"name": "SWAP1",
											"source": 1
										},
										{
											"begin": 738,
											"end": 1157,
											"name": "POP",
											"source": 1
										},
										{
											"begin": 738,
											"end": 1157,
											"jumpType": "[out]",
											"name": "JUMP",
											"source": 1
										}
									]
								}
							},
							"sourceList": [
								"functionModifier.sol",
								"#utility.yul"
							]
						},
						"methodIdentifiers": {
							"deposite()": "a50ec326"
						}
					},
					"metadata": "{\"compiler\":{\"version\":\"0.8.16+commit.07a7930e\"},\"language\":\"Solidity\",\"output\":{\"abi\":[{\"inputs\":[],\"name\":\"deposite\",\"outputs\":[],\"stateMutability\":\"payable\",\"type\":\"function\"}],\"devdoc\":{\"kind\":\"dev\",\"methods\":{},\"version\":1},\"userdoc\":{\"kind\":\"user\",\"methods\":{},\"version\":1}},\"settings\":{\"compilationTarget\":{\"functionModifier.sol\":\"Transfer\"},\"evmVersion\":\"london\",\"libraries\":{},\"metadata\":{\"bytecodeHash\":\"ipfs\"},\"optimizer\":{\"enabled\":false,\"runs\":200},\"remappings\":[]},\"sources\":{\"functionModifier.sol\":{\"keccak256\":\"0x906690acd25c507537611926e5433e3547430c3cf1bb66a7d1be705b546581f4\",\"license\":\"UNLICENSED\",\"urls\":[\"bzz-raw://99765466cd4ee0366eddc603594877fc38ab27af750d4daecce5a1a7f4c4dd67\",\"dweb:/ipfs/QmeeFoQX6ZJjyECEn12zgrVhv6UZayJFQ9VMqwpnwtKmSS\"]}},\"version\":1}",
					"storageLayout": {
						"storage": [
							{
								"astId": 5,
								"contract": "functionModifier.sol:Transfer",
								"label": "sender",
								"offset": 0,
								"slot": "0",
								"type": "t_address"
							},
							{
								"astId": 7,
								"contract": "functionModifier.sol:Transfer",
								"label": "reciever",
								"offset": 0,
								"slot": "1",
								"type": "t_address"
							}
						],
						"types": {
							"t_address": {
								"encoding": "inplace",
								"label": "address",
								"numberOfBytes": "20"
							}
						}
					},
					"userdoc": {
						"kind": "user",
						"methods": {},
						"version": 1
					}
				}
			}
		},
		"sources": {
			"functionModifier.sol": {
				"ast": {
					"absolutePath": "functionModifier.sol",
					"exportedSymbols": {
						"Transfer": [
							33
						]
					},
					"id": 34,
					"license": "UNLICENSED",
					"nodeType": "SourceUnit",
					"nodes": [
						{
							"id": 1,
							"literals": [
								"solidity",
								"^",
								"0.8",
								".0"
							],
							"nodeType": "PragmaDirective",
							"src": "40:23:0"
						},
						{
							"abstract": false,
							"baseContracts": [],
							"canonicalName": "Transfer",
							"contractDependencies": [],
							"contractKind": "contract",
							"fullyImplemented": true,
							"id": 33,
							"linearizedBaseContracts": [
								33
							],
							"name": "Transfer",
							"nameLocation": "74:8:0",
							"nodeType": "ContractDefinition",
							"nodes": [
								{
									"constant": false,
									"id": 5,
									"mutability": "mutable",
									"name": "sender",
									"nameLocation": "97:6:0",
									"nodeType": "VariableDeclaration",
									"scope": 33,
									"src": "89:27:0",
									"stateVariable": true,
									"storageLocation": "default",
									"typeDescriptions": {
										"typeIdentifier": "t_address",
										"typeString": "address"
									},
									"typeName": {
										"id": 2,
										"name": "address",
										"nodeType": "ElementaryTypeName",
										"src": "89:7:0",
										"stateMutability": "nonpayable",
										"typeDescriptions": {
											"typeIdentifier": "t_address",
											"typeString": "address"
										}
									},
									"value": {
										"expression": {
											"id": 3,
											"name": "msg",
											"nodeType": "Identifier",
											"overloadedDeclarations": [],
											"referencedDeclaration": 4294967281,
											"src": "106:3:0",
											"typeDescriptions": {
												"typeIdentifier": "t_magic_message",
												"typeString": "msg"
											}
										},
										"id": 4,
										"isConstant": false,
										"isLValue": false,
										"isPure": false,
										"lValueRequested": false,
										"memberLocation": "110:6:0",
										"memberName": "sender",
										"nodeType": "MemberAccess",
										"src": "106:10:0",
										"typeDescriptions": {
											"typeIdentifier": "t_address",
											"typeString": "address"
										}
									},
									"visibility": "internal"
								},
								{
									"constant": false,
									"id": 7,
									"mutability": "mutable",
									"name": "reciever",
									"nameLocation": "130:8:0",
									"nodeType": "VariableDeclaration",
									"scope": 33,
									"src": "122:16:0",
									"stateVariable": true,
									"storageLocation": "default",
									"typeDescriptions": {
										"typeIdentifier": "t_address",
										"typeString": "address"
									},
									"typeName": {
										"id": 6,
										"name": "address",
										"nodeType": "ElementaryTypeName",
										"src": "122:7:0",
										"stateMutability": "nonpayable",
										"typeDescriptions": {
											"typeIdentifier": "t_address",
											"typeString": "address"
										}
									},
									"visibility": "internal"
								},
								{
									"body": {
										"id": 17,
										"nodeType": "Block",
										"src": "158:57:0",
										"statements": [
											{
												"expression": {
													"arguments": [
														{
															"commonType": {
																"typeIdentifier": "t_address",
																"typeString": "address"
															},
															"id": 13,
															"isConstant": false,
															"isLValue": false,
															"isPure": false,
															"lValueRequested": false,
															"leftExpression": {
																"expression": {
																	"id": 10,
																	"name": "msg",
																	"nodeType": "Identifier",
																	"overloadedDeclarations": [],
																	"referencedDeclaration": 4294967281,
																	"src": "176:3:0",
																	"typeDescriptions": {
																		"typeIdentifier": "t_magic_message",
																		"typeString": "msg"
																	}
																},
																"id": 11,
																"isConstant": false,
																"isLValue": false,
																"isPure": false,
																"lValueRequested": false,
																"memberLocation": "180:6:0",
																"memberName": "sender",
																"nodeType": "MemberAccess",
																"src": "176:10:0",
																"typeDescriptions": {
																	"typeIdentifier": "t_address",
																	"typeString": "address"
																}
															},
															"nodeType": "BinaryOperation",
															"operator": "==",
															"rightExpression": {
																"id": 12,
																"name": "sender",
																"nodeType": "Identifier",
																"overloadedDeclarations": [],
																"referencedDeclaration": 5,
																"src": "190:6:0",
																"typeDescriptions": {
																	"typeIdentifier": "t_address",
																	"typeString": "address"
																}
															},
															"src": "176:20:0",
															"typeDescriptions": {
																"typeIdentifier": "t_bool",
																"typeString": "bool"
															}
														}
													],
													"expression": {
														"argumentTypes": [
															{
																"typeIdentifier": "t_bool",
																"typeString": "bool"
															}
														],
														"id": 9,
														"name": "require",
														"nodeType": "Identifier",
														"overloadedDeclarations": [
															4294967278,
															4294967278
														],
														"referencedDeclaration": 4294967278,
														"src": "168:7:0",
														"typeDescriptions": {
															"typeIdentifier": "t_function_require_pure$_t_bool_$returns$__$",
															"typeString": "function (bool) pure"
														}
													},
													"id": 14,
													"isConstant": false,
													"isLValue": false,
													"isPure": false,
													"kind": "functionCall",
													"lValueRequested": false,
													"nameLocations": [],
													"names": [],
													"nodeType": "FunctionCall",
													"src": "168:29:0",
													"tryCall": false,
													"typeDescriptions": {
														"typeIdentifier": "t_tuple$__$",
														"typeString": "tuple()"
													}
												},
												"id": 15,
												"nodeType": "ExpressionStatement",
												"src": "168:29:0"
											},
											{
												"id": 16,
												"nodeType": "PlaceholderStatement",
												"src": "207:1:0"
											}
										]
									},
									"id": 18,
									"name": "send",
									"nameLocation": "154:4:0",
									"nodeType": "ModifierDefinition",
									"parameters": {
										"id": 8,
										"nodeType": "ParameterList",
										"parameters": [],
										"src": "158:0:0"
									},
									"src": "145:70:0",
									"virtual": false,
									"visibility": "internal"
								},
								{
									"body": {
										"id": 31,
										"nodeType": "Block",
										"src": "302:71:0",
										"statements": [
											{
												"expression": {
													"arguments": [
														{
															"commonType": {
																"typeIdentifier": "t_uint256",
																"typeString": "uint256"
															},
															"id": 27,
															"isConstant": false,
															"isLValue": false,
															"isPure": false,
															"lValueRequested": false,
															"leftExpression": {
																"expression": {
																	"id": 24,
																	"name": "msg",
																	"nodeType": "Identifier",
																	"overloadedDeclarations": [],
																	"referencedDeclaration": 4294967281,
																	"src": "320:3:0",
																	"typeDescriptions": {
																		"typeIdentifier": "t_magic_message",
																		"typeString": "msg"
																	}
																},
																"id": 25,
																"isConstant": false,
																"isLValue": false,
																"isPure": false,
																"lValueRequested": false,
																"memberLocation": "324:5:0",
																"memberName": "value",
																"nodeType": "MemberAccess",
																"src": "320:9:0",
																"typeDescriptions": {
																	"typeIdentifier": "t_uint256",
																	"typeString": "uint256"
																}
															},
															"nodeType": "BinaryOperation",
															"operator": ">",
															"rightExpression": {
																"hexValue": "30",
																"id": 26,
																"isConstant": false,
																"isLValue": false,
																"isPure": true,
																"kind": "number",
																"lValueRequested": false,
																"nodeType": "Literal",
																"src": "332:1:0",
																"typeDescriptions": {
																	"typeIdentifier": "t_rational_0_by_1",
																	"typeString": "int_const 0"
																},
																"value": "0"
															},
															"src": "320:13:0",
															"typeDescriptions": {
																"typeIdentifier": "t_bool",
																"typeString": "bool"
															}
														},
														{
															"hexValue": "796f75206e65656420746f206465706f7369746520736f6d6520616d",
															"id": 28,
															"isConstant": false,
															"isLValue": false,
															"isPure": true,
															"kind": "string",
															"lValueRequested": false,
															"nodeType": "Literal",
															"src": "335:30:0",
															"typeDescriptions": {
																"typeIdentifier": "t_stringliteral_24143e2ae731dc406a38177dce941d5b188e6309681eb7638d62d165efbb6772",
																"typeString": "literal_string \"you need to deposite some am\""
															},
															"value": "you need to deposite some am"
														}
													],
													"expression": {
														"argumentTypes": [
															{
																"typeIdentifier": "t_bool",
																"typeString": "bool"
															},
															{
																"typeIdentifier": "t_stringliteral_24143e2ae731dc406a38177dce941d5b188e6309681eb7638d62d165efbb6772",
																"typeString": "literal_string \"you need to deposite some am\""
															}
														],
														"id": 23,
														"name": "require",
														"nodeType": "Identifier",
														"overloadedDeclarations": [
															4294967278,
															4294967278
														],
														"referencedDeclaration": 4294967278,
														"src": "312:7:0",
														"typeDescriptions": {
															"typeIdentifier": "t_function_require_pure$_t_bool_$_t_string_memory_ptr_$returns$__$",
															"typeString": "function (bool,string memory) pure"
														}
													},
													"id": 29,
													"isConstant": false,
													"isLValue": false,
													"isPure": false,
													"kind": "functionCall",
													"lValueRequested": false,
													"nameLocations": [],
													"names": [],
													"nodeType": "FunctionCall",
													"src": "312:54:0",
													"tryCall": false,
													"typeDescriptions": {
														"typeIdentifier": "t_tuple$__$",
														"typeString": "tuple()"
													}
												},
												"id": 30,
												"nodeType": "ExpressionStatement",
												"src": "312:54:0"
											}
										]
									},
									"functionSelector": "a50ec326",
									"id": 32,
									"implemented": true,
									"kind": "function",
									"modifiers": [
										{
											"id": 21,
											"kind": "modifierInvocation",
											"modifierName": {
												"id": 20,
												"name": "send",
												"nameLocations": [
													"298:4:0"
												],
												"nodeType": "IdentifierPath",
												"referencedDeclaration": 18,
												"src": "298:4:0"
											},
											"nodeType": "ModifierInvocation",
											"src": "298:4:0"
										}
									],
									"name": "deposite",
									"nameLocation": "271:8:0",
									"nodeType": "FunctionDefinition",
									"parameters": {
										"id": 19,
										"nodeType": "ParameterList",
										"parameters": [],
										"src": "280:2:0"
									},
									"returnParameters": {
										"id": 22,
										"nodeType": "ParameterList",
										"parameters": [],
										"src": "302:0:0"
									},
									"scope": 33,
									"src": "262:111:0",
									"stateMutability": "payable",
									"virtual": false,
									"visibility": "public"
								}
							],
							"scope": 34,
							"src": "65:310:0",
							"usedErrors": []
						}
					],
					"src": "40:335:0"
				},
				"id": 0
			}
		}
	}
}