{
	"compiler": {
		"version": "0.8.16+commit.07a7930e"
	},
	"language": "Solidity",
	"output": {
		"abi": [
			{
				"inputs": [
					{
						"internalType": "uint256",
						"name": "In",
						"type": "uint256"
					},
					{
						"internalType": "uint256",
						"name": "Out",
						"type": "uint256"
					}
				],
				"stateMutability": "nonpayable",
				"type": "constructor"
			},
			{
				"inputs": [],
				"name": "getOutput",
				"outputs": [
					{
						"internalType": "uint256",
						"name": "",
						"type": "uint256"
					}
				],
				"stateMutability": "view",
				"type": "function"
			}
		],
		"devdoc": {
			"kind": "dev",
			"methods": {},
			"version": 1
		},
		"userdoc": {
			"kind": "user",
			"methods": {},
			"version": 1
		}
	},
	"settings": {
		"compilationTarget": {
			"Constructor_With_Inheritance.sol": "Derive"
		},
		"evmVersion": "london",
		"libraries": {},
		"metadata": {
			"bytecodeHash": "ipfs"
		},
		"optimizer": {
			"enabled": false,
			"runs": 200
		},
		"remappings": []
	},
	"sources": {
		"Constructor_With_Inheritance.sol": {
			"keccak256": "0xe7b488b7ed3a737596538e33ae6877d510825778d819ecf829a832cefa8ffd38",
			"urls": [
				"bzz-raw://e99ab8454718a560289eb1e8e93b259d439aa2e0f2e4e77c8480317658e9b498",
				"dweb:/ipfs/QmXppwiFkax6eNveEpCjAQzRhCGZnAJw8y4zYxZaBvDD5Q"
			]
		}
	},
	"version": 1
}