{
	"id": "f70f54761476b15f5b08a2e00b55eb8b",
	"_format": "hh-sol-build-info-1",
	"solcVersion": "0.8.15",
	"solcLongVersion": "0.8.15+commit.e14f2714",
	"input": {
		"language": "Solidity",
		"sources": {
			"contracts/Campaign.sol": {
				"content": "pragma solidity ^0.8.0;\n contract Campaign{\n     \n }"
			}
		},
		"settings": {
			"optimizer": {
				"enabled": false,
				"runs": 200
			},
			"outputSelection": {
				"*": {
					"": [
						"ast"
					],
					"*": [
						"abi",
						"metadata",
						"devdoc",
						"userdoc",
						"storageLayout",
						"evm.legacyAssembly",
						"evm.bytecode",
						"evm.deployedBytecode",
						"evm.methodIdentifiers",
						"evm.gasEstimates",
						"evm.assembly"
					]
				}
			}
		}
	},
	"output": {
		"contracts": {
			"contracts/Campaign.sol": {
				"Campaign": {
					"abi": [],
					"devdoc": {
						"kind": "dev",
						"methods": {},
						"version": 1
					},
					"evm": {
						"assembly": "    /* \"contracts/Campaign.sol\":25:52  contract Campaign{... */\n  mstore(0x40, 0x80)\n  callvalue\n  dup1\n  iszero\n  tag_1\n  jumpi\n  0x00\n  dup1\n  revert\ntag_1:\n  pop\n  dataSize(sub_0)\n  dup1\n  dataOffset(sub_0)\n  0x00\n  codecopy\n  0x00\n  return\nstop\n\nsub_0: assembly {\n        /* \"contracts/Campaign.sol\":25:52  contract Campaign{... */\n      mstore(0x40, 0x80)\n      0x00\n      dup1\n      revert\n\n    auxdata: 0xa264697066735822122048c4311204c56d0e1f1d99e2666c3b5f48e3b0215285dd72cf783dd99528ef6264736f6c634300080f0033\n}\n",
						"bytecode": {
							"functionDebugData": {},
							"generatedSources": [],
							"linkReferences": {},
							"object": "6080604052348015600f57600080fd5b50603f80601d6000396000f3fe6080604052600080fdfea264697066735822122048c4311204c56d0e1f1d99e2666c3b5f48e3b0215285dd72cf783dd99528ef6264736f6c634300080f0033",
							"opcodes": "PUSH1 0x80 PUSH1 0x40 MSTORE CALLVALUE DUP1 ISZERO PUSH1 0xF JUMPI PUSH1 0x0 DUP1 REVERT JUMPDEST POP PUSH1 0x3F DUP1 PUSH1 0x1D PUSH1 0x0 CODECOPY PUSH1 0x0 RETURN INVALID PUSH1 0x80 PUSH1 0x40 MSTORE PUSH1 0x0 DUP1 REVERT INVALID LOG2 PUSH5 0x6970667358 0x22 SLT KECCAK256 BASEFEE 0xC4 BALANCE SLT DIV 0xC5 PUSH14 0xE1F1D99E2666C3B5F48E3B02152 DUP6 0xDD PUSH19 0xCF783DD99528EF6264736F6C634300080F0033 ",
							"sourceMap": "25:27:0:-:0;;;;;;;;;;;;;;;;;;;"
						},
						"deployedBytecode": {
							"functionDebugData": {},
							"generatedSources": [],
							"immutableReferences": {},
							"linkReferences": {},
							"object": "6080604052600080fdfea264697066735822122048c4311204c56d0e1f1d99e2666c3b5f48e3b0215285dd72cf783dd99528ef6264736f6c634300080f0033",
							"opcodes": "PUSH1 0x80 PUSH1 0x40 MSTORE PUSH1 0x0 DUP1 REVERT INVALID LOG2 PUSH5 0x6970667358 0x22 SLT KECCAK256 BASEFEE 0xC4 BALANCE SLT DIV 0xC5 PUSH14 0xE1F1D99E2666C3B5F48E3B02152 DUP6 0xDD PUSH19 0xCF783DD99528EF6264736F6C634300080F0033 ",
							"sourceMap": "25:27:0:-:0;;;;;"
						},
						"gasEstimates": {
							"creation": {
								"codeDepositCost": "12600",
								"executionCost": "66",
								"totalCost": "12666"
							}
						},
						"legacyAssembly": {
							".code": [
								{
									"begin": 25,
									"end": 52,
									"name": "PUSH",
									"source": 0,
									"value": "80"
								},
								{
									"begin": 25,
									"end": 52,
									"name": "PUSH",
									"source": 0,
									"value": "40"
								},
								{
									"begin": 25,
									"end": 52,
									"name": "MSTORE",
									"source": 0
								},
								{
									"begin": 25,
									"end": 52,
									"name": "CALLVALUE",
									"source": 0
								},
								{
									"begin": 25,
									"end": 52,
									"name": "DUP1",
									"source": 0
								},
								{
									"begin": 25,
									"end": 52,
									"name": "ISZERO",
									"source": 0
								},
								{
									"begin": 25,
									"end": 52,
									"name": "PUSH [tag]",
									"source": 0,
									"value": "1"
								},
								{
									"begin": 25,
									"end": 52,
									"name": "JUMPI",
									"source": 0
								},
								{
									"begin": 25,
									"end": 52,
									"name": "PUSH",
									"source": 0,
									"value": "0"
								},
								{
									"begin": 25,
									"end": 52,
									"name": "DUP1",
									"source": 0
								},
								{
									"begin": 25,
									"end": 52,
									"name": "REVERT",
									"source": 0
								},
								{
									"begin": 25,
									"end": 52,
									"name": "tag",
									"source": 0,
									"value": "1"
								},
								{
									"begin": 25,
									"end": 52,
									"name": "JUMPDEST",
									"source": 0
								},
								{
									"begin": 25,
									"end": 52,
									"name": "POP",
									"source": 0
								},
								{
									"begin": 25,
									"end": 52,
									"name": "PUSH #[$]",
									"source": 0,
									"value": "0000000000000000000000000000000000000000000000000000000000000000"
								},
								{
									"begin": 25,
									"end": 52,
									"name": "DUP1",
									"source": 0
								},
								{
									"begin": 25,
									"end": 52,
									"name": "PUSH [$]",
									"source": 0,
									"value": "0000000000000000000000000000000000000000000000000000000000000000"
								},
								{
									"begin": 25,
									"end": 52,
									"name": "PUSH",
									"source": 0,
									"value": "0"
								},
								{
									"begin": 25,
									"end": 52,
									"name": "CODECOPY",
									"source": 0
								},
								{
									"begin": 25,
									"end": 52,
									"name": "PUSH",
									"source": 0,
									"value": "0"
								},
								{
									"begin": 25,
									"end": 52,
									"name": "RETURN",
									"source": 0
								}
							],
							".data": {
								"0": {
									".auxdata": "a264697066735822122048c4311204c56d0e1f1d99e2666c3b5f48e3b0215285dd72cf783dd99528ef6264736f6c634300080f0033",
									".code": [
										{
											"begin": 25,
											"end": 52,
											"name": "PUSH",
											"source": 0,
											"value": "80"
										},
										{
											"begin": 25,
											"end": 52,
											"name": "PUSH",
											"source": 0,
											"value": "40"
										},
										{
											"begin": 25,
											"end": 52,
											"name": "MSTORE",
											"source": 0
										},
										{
											"begin": 25,
											"end": 52,
											"name": "PUSH",
											"source": 0,
											"value": "0"
										},
										{
											"begin": 25,
											"end": 52,
											"name": "DUP1",
											"source": 0
										},
										{
											"begin": 25,
											"end": 52,
											"name": "REVERT",
											"source": 0
										}
									]
								}
							},
							"sourceList": [
								"contracts/Campaign.sol",
								"#utility.yul"
							]
						},
						"methodIdentifiers": {}
					},
					"metadata": "{\"compiler\":{\"version\":\"0.8.15+commit.e14f2714\"},\"language\":\"Solidity\",\"output\":{\"abi\":[],\"devdoc\":{\"kind\":\"dev\",\"methods\":{},\"version\":1},\"userdoc\":{\"kind\":\"user\",\"methods\":{},\"version\":1}},\"settings\":{\"compilationTarget\":{\"contracts/Campaign.sol\":\"Campaign\"},\"evmVersion\":\"london\",\"libraries\":{},\"metadata\":{\"bytecodeHash\":\"ipfs\"},\"optimizer\":{\"enabled\":false,\"runs\":200},\"remappings\":[]},\"sources\":{\"contracts/Campaign.sol\":{\"keccak256\":\"0x233d85bbb50ad864de7b3ff485d4a3b802adb9b8562088950183200ed672074c\",\"urls\":[\"bzz-raw://0816a680289ce6864b5deb6acb4b5fab9c7ddc225a00886a34e7f2429b5575fc\",\"dweb:/ipfs/QmVgDCkau8tYVuf3LZu1wPPm8v4i5XFTyWCmrnbcM16Zzo\"]}},\"version\":1}",
					"storageLayout": {
						"storage": [],
						"types": null
					},
					"userdoc": {
						"kind": "user",
						"methods": {},
						"version": 1
					}
				}
			}
		},
		"errors": [
			{
				"component": "general",
				"errorCode": "1878",
				"formattedMessage": "Warning: SPDX license identifier not provided in source file. Before publishing, consider adding a comment containing \"SPDX-License-Identifier: <SPDX-License>\" to each source file. Use \"SPDX-License-Identifier: UNLICENSED\" for non-open-source code. Please see https://spdx.org for more information.\n--> contracts/Campaign.sol\n\n",
				"message": "SPDX license identifier not provided in source file. Before publishing, consider adding a comment containing \"SPDX-License-Identifier: <SPDX-License>\" to each source file. Use \"SPDX-License-Identifier: UNLICENSED\" for non-open-source code. Please see https://spdx.org for more information.",
				"severity": "warning",
				"sourceLocation": {
					"end": -1,
					"file": "contracts/Campaign.sol",
					"start": -1
				},
				"type": "Warning"
			}
		],
		"sources": {
			"contracts/Campaign.sol": {
				"ast": {
					"absolutePath": "contracts/Campaign.sol",
					"exportedSymbols": {
						"Campaign": [
							2
						]
					},
					"id": 3,
					"nodeType": "SourceUnit",
					"nodes": [
						{
							"id": 1,
							"literals": [
								"solidity",
								"^",
								"0.8",
								".0"
							],
							"nodeType": "PragmaDirective",
							"src": "0:23:0"
						},
						{
							"abstract": false,
							"baseContracts": [],
							"canonicalName": "Campaign",
							"contractDependencies": [],
							"contractKind": "contract",
							"fullyImplemented": true,
							"id": 2,
							"linearizedBaseContracts": [
								2
							],
							"name": "Campaign",
							"nameLocation": "34:8:0",
							"nodeType": "ContractDefinition",
							"nodes": [],
							"scope": 3,
							"src": "25:27:0",
							"usedErrors": []
						}
					],
					"src": "0:52:0"
				},
				"id": 0
			}
		}
	}
}