{
	"deploy": {
		"VM:-": {
			"linkReferences": {},
			"autoDeployLib": true
		},
		"main:1": {
			"linkReferences": {},
			"autoDeployLib": true
		},
		"ropsten:3": {
			"linkReferences": {},
			"autoDeployLib": true
		},
		"rinkeby:4": {
			"linkReferences": {},
			"autoDeployLib": true
		},
		"kovan:42": {
			"linkReferences": {},
			"autoDeployLib": true
		},
		"görli:5": {
			"linkReferences": {},
			"autoDeployLib": true
		},
		"Custom": {
			"linkReferences": {},
			"autoDeployLib": true
		}
	},
	"data": {
		"bytecode": {
			"functionDebugData": {},
			"generatedSources": [],
			"linkReferences": {},
			"object": "6080604052348015600f57600080fd5b50603f80601d6000396000f3fe6080604052600080fdfea2646970667358221220d84ea1fa1ac57359499a4152c474ca6e1a6d4c2c2e69ec3cace3855d4fcb97f464736f6c63430008070033",
			"opcodes": "PUSH1 0x80 PUSH1 0x40 MSTORE CALLVALUE DUP1 ISZERO PUSH1 0xF JUMPI PUSH1 0x0 DUP1 REVERT JUMPDEST POP PUSH1 0x3F DUP1 PUSH1 0x1D PUSH1 0x0 CODECOPY PUSH1 0x0 RETURN INVALID PUSH1 0x80 PUSH1 0x40 MSTORE PUSH1 0x0 DUP1 REVERT INVALID LOG2 PUSH5 0x6970667358 0x22 SLT KECCAK256 0xD8 0x4E LOG1 STATICCALL BYTE 0xC5 PUSH20 0x59499A4152C474CA6E1A6D4C2C2E69EC3CACE385 0x5D 0x4F 0xCB SWAP8 DELEGATECALL PUSH5 0x736F6C6343 STOP ADDMOD SMOD STOP CALLER ",
			"sourceMap": "25:14:0:-:0;;;;;;;;;;;;;;;;;;;"
		},
		"deployedBytecode": {
			"functionDebugData": {},
			"generatedSources": [],
			"immutableReferences": {},
			"linkReferences": {},
			"object": "6080604052600080fdfea2646970667358221220d84ea1fa1ac57359499a4152c474ca6e1a6d4c2c2e69ec3cace3855d4fcb97f464736f6c63430008070033",
			"opcodes": "PUSH1 0x80 PUSH1 0x40 MSTORE PUSH1 0x0 DUP1 REVERT INVALID LOG2 PUSH5 0x6970667358 0x22 SLT KECCAK256 0xD8 0x4E LOG1 STATICCALL BYTE 0xC5 PUSH20 0x59499A4152C474CA6E1A6D4C2C2E69EC3CACE385 0x5D 0x4F 0xCB SWAP8 DELEGATECALL PUSH5 0x736F6C6343 STOP ADDMOD SMOD STOP CALLER ",
			"sourceMap": "25:14:0:-:0;;;;;"
		},
		"gasEstimates": {
			"creation": {
				"codeDepositCost": "12600",
				"executionCost": "66",
				"totalCost": "12666"
			}
		},
		"methodIdentifiers": {}
	},
	"abi": []
}