{
	"deploy": {
		"VM:-": {
			"linkReferences": {},
			"autoDeployLib": true
		},
		"main:1": {
			"linkReferences": {},
			"autoDeployLib": true
		},
		"ropsten:3": {
			"linkReferences": {},
			"autoDeployLib": true
		},
		"rinkeby:4": {
			"linkReferences": {},
			"autoDeployLib": true
		},
		"kovan:42": {
			"linkReferences": {},
			"autoDeployLib": true
		},
		"görli:5": {
			"linkReferences": {},
			"autoDeployLib": true
		},
		"Custom": {
			"linkReferences": {},
			"autoDeployLib": true
		}
	},
	"data": {
		"bytecode": {
			"functionDebugData": {},
			"generatedSources": [],
			"linkReferences": {},
			"object": "6080604052348015600f57600080fd5b50603f80601d6000396000f3fe6080604052600080fdfea2646970667358221220e860be01552ee6b9aa4c9638b3a287d77c917391f1db9d27fe82e56405f39c3864736f6c63430008070033",
			"opcodes": "PUSH1 0x80 PUSH1 0x40 MSTORE CALLVALUE DUP1 ISZERO PUSH1 0xF JUMPI PUSH1 0x0 DUP1 REVERT JUMPDEST POP PUSH1 0x3F DUP1 PUSH1 0x1D PUSH1 0x0 CODECOPY PUSH1 0x0 RETURN INVALID PUSH1 0x80 PUSH1 0x40 MSTORE PUSH1 0x0 DUP1 REVERT INVALID LOG2 PUSH5 0x6970667358 0x22 SLT KECCAK256 0xE8 PUSH1 0xBE ADD SSTORE 0x2E 0xE6 0xB9 0xAA 0x4C SWAP7 CODESIZE 0xB3 LOG2 DUP8 0xD7 PUSH29 0x917391F1DB9D27FE82E56405F39C3864736F6C63430008070033000000 ",
			"sourceMap": "25:17:0:-:0;;;;;;;;;;;;;;;;;;;"
		},
		"deployedBytecode": {
			"functionDebugData": {},
			"generatedSources": [],
			"immutableReferences": {},
			"linkReferences": {},
			"object": "6080604052600080fdfea2646970667358221220e860be01552ee6b9aa4c9638b3a287d77c917391f1db9d27fe82e56405f39c3864736f6c63430008070033",
			"opcodes": "PUSH1 0x80 PUSH1 0x40 MSTORE PUSH1 0x0 DUP1 REVERT INVALID LOG2 PUSH5 0x6970667358 0x22 SLT KECCAK256 0xE8 PUSH1 0xBE ADD SSTORE 0x2E 0xE6 0xB9 0xAA 0x4C SWAP7 CODESIZE 0xB3 LOG2 DUP8 0xD7 PUSH29 0x917391F1DB9D27FE82E56405F39C3864736F6C63430008070033000000 ",
			"sourceMap": "25:17:0:-:0;;;;;"
		},
		"gasEstimates": {
			"creation": {
				"codeDepositCost": "12600",
				"executionCost": "66",
				"totalCost": "12666"
			}
		},
		"methodIdentifiers": {}
	},
	"abi": []
}