{
	"deploy": {
		"VM:-": {
			"linkReferences": {},
			"autoDeployLib": true
		},
		"main:1": {
			"linkReferences": {},
			"autoDeployLib": true
		},
		"ropsten:3": {
			"linkReferences": {},
			"autoDeployLib": true
		},
		"rinkeby:4": {
			"linkReferences": {},
			"autoDeployLib": true
		},
		"kovan:42": {
			"linkReferences": {},
			"autoDeployLib": true
		},
		"görli:5": {
			"linkReferences": {},
			"autoDeployLib": true
		},
		"Custom": {
			"linkReferences": {},
			"autoDeployLib": true
		}
	},
	"data": {
		"bytecode": {
			"functionDebugData": {},
			"generatedSources": [],
			"linkReferences": {},
			"object": "6080604052348015600f57600080fd5b50603f80601d6000396000f3fe6080604052600080fdfea2646970667358221220fa8aa39e659031a358098b2cd6baf909e8270b079d65e3663a1393ac78aa6e5c64736f6c63430008070033",
			"opcodes": "PUSH1 0x80 PUSH1 0x40 MSTORE CALLVALUE DUP1 ISZERO PUSH1 0xF JUMPI PUSH1 0x0 DUP1 REVERT JUMPDEST POP PUSH1 0x3F DUP1 PUSH1 0x1D PUSH1 0x0 CODECOPY PUSH1 0x0 RETURN INVALID PUSH1 0x80 PUSH1 0x40 MSTORE PUSH1 0x0 DUP1 REVERT INVALID LOG2 PUSH5 0x6970667358 0x22 SLT KECCAK256 STATICCALL DUP11 LOG3 SWAP15 PUSH6 0x9031A358098B 0x2C 0xD6 0xBA 0xF9 MULMOD 0xE8 0x27 SIGNEXTEND SMOD SWAP14 PUSH6 0xE3663A1393AC PUSH25 0xAA6E5C64736F6C634300080700330000000000000000000000 ",
			"sourceMap": "25:37:0:-:0;;;;;;;;;;;;;;;;;;;"
		},
		"deployedBytecode": {
			"functionDebugData": {},
			"generatedSources": [],
			"immutableReferences": {},
			"linkReferences": {},
			"object": "6080604052600080fdfea2646970667358221220fa8aa39e659031a358098b2cd6baf909e8270b079d65e3663a1393ac78aa6e5c64736f6c63430008070033",
			"opcodes": "PUSH1 0x80 PUSH1 0x40 MSTORE PUSH1 0x0 DUP1 REVERT INVALID LOG2 PUSH5 0x6970667358 0x22 SLT KECCAK256 STATICCALL DUP11 LOG3 SWAP15 PUSH6 0x9031A358098B 0x2C 0xD6 0xBA 0xF9 MULMOD 0xE8 0x27 SIGNEXTEND SMOD SWAP14 PUSH6 0xE3663A1393AC PUSH25 0xAA6E5C64736F6C634300080700330000000000000000000000 ",
			"sourceMap": "25:37:0:-:0;;;;;"
		},
		"gasEstimates": {
			"creation": {
				"codeDepositCost": "12600",
				"executionCost": "66",
				"totalCost": "12666"
			}
		},
		"methodIdentifiers": {}
	},
	"abi": []
}